YaoPad.sim/sim_1/synth/timing/xsim/dump.vcd
$date
   Thu Nov 30 14:37:15 2017
$end
$version
  2017.3
$end
$timescale
  1ps
$end
$scope module openmips_min_sopc_tb $end
$scope module openmips_min_sopc0 $end
$var wire 1 ! clk $end
$var wire 1 " rst $end
$var wire 5 # debug [4:0] $end
$var wire 32 $ led [31:0] $end
$var wire 32 % inst_addr [31:0] $end
$var wire 32 & inst [31:0] $end
$var wire 1 ' rom_ce $end
$var wire 1 ( mem_we_i $end
$var wire 32 ) mem_addr_i [31:0] $end
$var wire 32 * mem_data_i [31:0] $end
$var wire 32 + mem_data_o [31:0] $end
$var wire 4 , mem_sel_i [3:0] $end
$var wire 1 - mem_ce_i $end
$var wire 1 . timer_int $end
$var wire 6 / int [5:0] $end
$scope module cpu0 $end
$var wire 1 " rst $end
$var wire 1 ! clk $end
$var wire 32 & rom_data_i [31:0] $end
$var wire 32 % rom_addr_o [31:0] $end
$var wire 1 ' rom_ce_o $end
$var wire 32 + ram_data_i [31:0] $end
$var wire 32 * ram_data_o [31:0] $end
$var wire 32 ) ram_addr_o [31:0] $end
$var wire 4 , ram_sel_o [3:0] $end
$var wire 1 ( ram_we_o $end
$var wire 1 - ram_ce_o $end
$var wire 6 / int_i [5:0] $end
$var wire 1 . timer_int_o $end
$var wire 5 # debug [4:0] $end
$var wire 32 $ debugdata [31:0] $end
$var wire 32 0 pc [31:0] $end
$var wire 32 1 id_pc_i [31:0] $end
$var wire 32 2 id_inst_i [31:0] $end
$var wire 1 3 id_is_in_delayslot_i $end
$var wire 8 4 id_aluop_o [7:0] $end
$var wire 3 5 id_alusel_o [2:0] $end
$var wire 32 6 id_reg1_o [31:0] $end
$var wire 32 7 id_reg2_o [31:0] $end
$var wire 1 8 id_wreg_o $end
$var wire 5 9 id_wd_o [4:0] $end
$var wire 32 : id_inst_o [31:0] $end
$var wire 1 ; id_branch_flag_o $end
$var wire 1 < id_is_in_delayslot_o $end
$var wire 32 = id_link_addr_o [31:0] $end
$var wire 32 > id_branch_target_address_o [31:0] $end
$var wire 1 ? id_next_inst_in_delayslot_o $end
$var wire 32 @ id_excepttype_o [31:0] $end
$var wire 32 A id_current_inst_addr_o [31:0] $end
$var wire 1 B ex_is_in_delayslot_i $end
$var wire 32 C ex_link_addr_i [31:0] $end
$var wire 32 D ex_inst_i [31:0] $end
$var wire 8 E ex_aluop_i [7:0] $end
$var wire 3 F ex_alusel_i [2:0] $end
$var wire 32 G ex_reg1_i [31:0] $end
$var wire 32 H ex_reg2_i [31:0] $end
$var wire 1 I ex_wreg_i $end
$var wire 5 J ex_wd_i [4:0] $end
$var wire 32 K ex_excepttype_i [31:0] $end
$var wire 32 L ex_current_inst_addr_i [31:0] $end
$var wire 1 M ex_wreg_o $end
$var wire 5 N ex_wd_o [4:0] $end
$var wire 32 O ex_wdata_o [31:0] $end
$var wire 1 P ex_whilo_o $end
$var wire 8 Q ex_aluop_o [7:0] $end
$var wire 32 R ex_mem_addr_o [31:0] $end
$var wire 32 S ex_reg2_o [31:0] $end
$var wire 32 T ex_hi_o [31:0] $end
$var wire 32 U ex_lo_o [31:0] $end
$var wire 32 V ex_inst_o [31:0] $end
$var wire 5 W ex_cp0_reg_read_addr_o [4:0] $end
$var wire 5 X ex_cp0_reg_write_addr_o [4:0] $end
$var wire 1 Y ex_cp0_reg_we_o $end
$var wire 32 Z ex_cp0_reg_data_o [31:0] $end
$var wire 1 [ ex_is_in_delayslot_o $end
$var wire 32 \ ex_excepttype_o [31:0] $end
$var wire 32 ] ex_current_inst_addr_o [31:0] $end
$var wire 1 ^ mem_wreg_i $end
$var wire 5 _ mem_wd_i [4:0] $end
$var wire 32 ` mem_wdata_i [31:0] $end
$var wire 1 a mem_whilo_i $end
$var wire 32 b mem_hi_i [31:0] $end
$var wire 32 c mem_lo_i [31:0] $end
$var wire 8 d mem_aluop_i [7:0] $end
$var wire 32 e mem_mem_addr_i [31:0] $end
$var wire 32 f mem_reg2_i [31:0] $end
$var wire 1 g mem_cp0_reg_we_i $end
$var wire 5 h mem_cp0_reg_write_addr_i [4:0] $end
$var wire 32 i mem_cp0_reg_data_i [31:0] $end
$var wire 1 j mem_is_in_delayslot_i $end
$var wire 32 k mem_excepttype_i [31:0] $end
$var wire 32 l mem_current_inst_addr_i [31:0] $end
$var wire 1 m mem_wreg_o $end
$var wire 5 n mem_wd_o [4:0] $end
$var wire 32 o mem_wdata_o [31:0] $end
$var wire 1 p mem_whilo_o $end
$var wire 32 q mem_hi_o [31:0] $end
$var wire 32 r mem_lo_o [31:0] $end
$var wire 1 s mem_cp0_reg_we_o $end
$var wire 5 t mem_cp0_reg_write_addr_o [4:0] $end
$var wire 32 u mem_cp0_reg_data_o [31:0] $end
$var wire 32 v mem_cp0_epc_o [31:0] $end
$var wire 1 w mem_is_in_delayslot_o $end
$var wire 32 x mem_excepttype_o [31:0] $end
$var wire 32 y mem_current_inst_addr_o [31:0] $end
$var wire 1 z wb_wreg_i $end
$var wire 5 { wb_wd_i [4:0] $end
$var wire 32 | wb_wdata_i [31:0] $end
$var wire 1 } wb_whilo_i $end
$var wire 32 ~ wb_hi_i [31:0] $end
$var wire 32 !! wb_lo_i [31:0] $end
$var wire 1 "! wb_cp0_reg_we_i $end
$var wire 5 #! wb_cp0_reg_write_addr_i [4:0] $end
$var wire 32 $! wb_cp0_reg_data_i [31:0] $end
$var wire 1 %! reg1_read $end
$var wire 1 &! reg2_read $end
$var wire 32 '! reg1_data [31:0] $end
$var wire 32 (! reg2_data [31:0] $end
$var wire 5 )! reg1_addr [4:0] $end
$var wire 5 *! reg2_addr [4:0] $end
$var wire 32 +! hi_o [31:0] $end
$var wire 32 ,! lo_o [31:0] $end
$var wire 1 -! div_start $end
$var wire 1 .! div_annul $end
$var wire 32 /! div_opdata1 [31:0] $end
$var wire 32 0! div_opdata2 [31:0] $end
$var wire 1 1! div_signed $end
$var wire 64 2! div_result [63:0] $end
$var wire 1 3! div_ready $end
$var wire 32 4! cp0_data_o [31:0] $end
$var wire 32 5! cp0_status_o [31:0] $end
$var wire 32 6! cp0_epc_o [31:0] $end
$var wire 32 7! cp0_cause_o [31:0] $end
$var wire 1 8! stalleq_from_id $end
$var wire 1 9! stalleq_from_ex $end
$var wire 6 :! stall [5:0] $end
$var wire 32 ;! new_pc [31:0] $end
$var wire 1 <! flush $end
$scope module pc_rom0 $end
$var wire 1 " rst $end
$var wire 1 ! clk $end
$var wire 6 :! stall [5:0] $end
$var wire 1 ; branch_flag_i $end
$var wire 32 > branch_target_address_i [31:0] $end
$var wire 1 <! flush $end
$var wire 32 ;! new_pc [31:0] $end
$var reg 32 =! pc [31:0] $end
$var reg 1 >! ce $end
$var wire 32 ?! debugdata [31:0] $end
$upscope $end
$scope module if_id0 $end
$var wire 1 " rst $end
$var wire 1 ! clk $end
$var wire 6 :! stall [5:0] $end
$var wire 1 <! flush $end
$var wire 32 0 if_pc [31:0] $end
$var wire 32 & if_inst [31:0] $end
$var reg 32 @! id_pc [31:0] $end
$var reg 32 A! id_inst [31:0] $end
$upscope $end
$scope module id0 $end
$var wire 1 " rst $end
$var wire 32 1 pc_i [31:0] $end
$var wire 32 2 inst_i [31:0] $end
$var wire 32 '! reg1_data_i [31:0] $end
$var wire 32 (! reg2_data_i [31:0] $end
$var wire 32 o mem_wdata_i [31:0] $end
$var wire 5 n mem_wd_i [4:0] $end
$var wire 1 m mem_wreg_i $end
$var wire 32 O ex_wdata_i [31:0] $end
$var wire 5 N ex_wd_i [4:0] $end
$var wire 1 M ex_wreg_i $end
$var wire 1 3 is_in_delayslot_i $end
$var wire 8 Q ex_aluop_i [7:0] $end
$var wire 6 B! int_i [5:0] $end
$var reg 32 C! inst_o [31:0] $end
$var reg 8 D! aluop_o [7:0] $end
$var reg 3 E! alusel_o [2:0] $end
$var reg 5 F! wd_o [4:0] $end
$var reg 1 G! wreg_o $end
$var reg 5 H! reg2_addr_o [4:0] $end
$var reg 1 I! reg2_read_o $end
$var reg 5 J! reg1_addr_o [4:0] $end
$var reg 1 K! reg1_read_o $end
$var reg 32 L! reg1_o [31:0] $end
$var reg 32 M! reg2_o [31:0] $end
$var reg 1 N! branch_flag_o $end
$var reg 32 O! branch_target_address_o [31:0] $end
$var reg 1 P! is_in_delayslot_o $end
$var reg 32 Q! link_addr_o [31:0] $end
$var reg 1 R! next_inst_in_delayslot_o $end
$var wire 32 @ excepttype_o [31:0] $end
$var wire 32 A current_inst_addr_o [31:0] $end
$var wire 1 8! stallreq $end
$var wire 1 S! timer_int_o $end
$var reg 32 T! immi [31:0] $end
$var wire 6 U! op1 [5:0] $end
$var wire 5 V! op2 [4:0] $end
$var wire 6 W! op3 [5:0] $end
$var wire 5 X! op4 [4:0] $end
$var wire 32 Y! next_pc_i [31:0] $end
$var wire 1 Z! pre_inst_is_load $end
$var reg 1 [! instvalid $end
$var reg 1 \! except_eret $end
$var reg 1 ]! except_syscall $end
$var reg 1 ^! stallreq1 $end
$var reg 1 _! stallreq2 $end
$upscope $end
$scope module regfile0 $end
$var wire 1 " rst $end
$var wire 1 ! clk $end
$var wire 5 { waddr [4:0] $end
$var wire 32 | wdata [31:0] $end
$var wire 1 z we $end
$var wire 5 )! raddr1 [4:0] $end
$var wire 1 %! re1 $end
$var reg 32 `! rdata1 [31:0] $end
$var wire 5 *! raddr2 [4:0] $end
$var wire 1 &! re2 $end
$var reg 32 a! rdata2 [31:0] $end
$var wire 5 # debug [4:0] $end
$var wire 32 $ debugdata [31:0] $end
$upscope $end
$scope module id_ex0 $end
$var wire 1 " rst $end
$var wire 1 ! clk $end
$var wire 6 :! stall [5:0] $end
$var wire 3 5 id_alusel [2:0] $end
$var wire 8 4 id_aluop [7:0] $end
$var wire 32 6 id_reg1 [31:0] $end
$var wire 32 7 id_reg2 [31:0] $end
$var wire 5 9 id_wd [4:0] $end
$var wire 1 8 id_wreg $end
$var wire 32 : id_inst [31:0] $end
$var wire 1 < id_is_in_delayslot $end
$var wire 32 = id_link_addr [31:0] $end
$var wire 32 @ id_excepttype [31:0] $end
$var wire 32 A id_current_inst_addr [31:0] $end
$var wire 1 ? next_inst_in_delayslot_i $end
$var wire 1 <! flush $end
$var reg 3 b! ex_alusel [2:0] $end
$var reg 8 c! ex_aluop [7:0] $end
$var reg 32 d! ex_reg1 [31:0] $end
$var reg 32 e! ex_reg2 [31:0] $end
$var reg 5 f! ex_wd [4:0] $end
$var reg 1 g! ex_wreg $end
$var reg 32 h! ex_inst [31:0] $end
$var reg 1 i! ex_is_in_delayslot $end
$var reg 32 j! ex_link_addr [31:0] $end
$var reg 32 k! ex_excepttype [31:0] $end
$var reg 32 l! ex_current_inst_addr [31:0] $end
$var reg 1 m! is_in_delayslot_o $end
$upscope $end
$scope module ex0 $end
$var wire 1 " rst $end
$var wire 3 F alusel_i [2:0] $end
$var wire 8 E aluop_i [7:0] $end
$var wire 32 G reg1_i [31:0] $end
$var wire 32 H reg2_i [31:0] $end
$var wire 5 J wd_i [4:0] $end
$var wire 1 I wreg_i $end
$var wire 32 ,! lo_i [31:0] $end
$var wire 32 +! hi_i [31:0] $end
$var wire 1 } wb_whilo_i $end
$var wire 32 ~ wb_hi_i [31:0] $end
$var wire 32 !! wb_lo_i [31:0] $end
$var wire 1 p mem_whilo_i $end
$var wire 32 q mem_hi_i [31:0] $end
$var wire 32 r mem_lo_i [31:0] $end
$var wire 1 3! div_ready_i $end
$var wire 32 D inst_i [31:0] $end
$var wire 64 2! div_result_i [63:0] $end
$var wire 1 B is_in_delayslot_i $end
$var wire 32 C link_addr_i [31:0] $end
$var wire 32 4! cp0_reg_data_i [31:0] $end
$var wire 1 s mem_cp0_reg_we $end
$var wire 5 t mem_cp0_reg_write_addr [4:0] $end
$var wire 32 u mem_cp0_reg_data [31:0] $end
$var wire 1 "! wb_cp0_reg_we $end
$var wire 5 #! wb_cp0_reg_write_addr [4:0] $end
$var wire 32 $! wb_cp0_reg_data [31:0] $end
$var wire 32 K excepttype_i [31:0] $end
$var wire 32 L current_inst_addr_i [31:0] $end
$var reg 5 n! wd_o [4:0] $end
$var reg 1 o! wreg_o $end
$var reg 32 p! wdata_o [31:0] $end
$var reg 1 q! whilo_o $end
$var reg 32 r! hi_o [31:0] $end
$var reg 32 s! lo_o [31:0] $end
$var reg 1 t! div_start_o $end
$var reg 1 u! signed_div_o $end
$var reg 32 v! div_opdata1_o [31:0] $end
$var reg 32 w! div_opdata2_o [31:0] $end
$var wire 8 Q aluop_o [7:0] $end
$var wire 32 R mem_addr_o [31:0] $end
$var wire 32 S reg2_o [31:0] $end
$var reg 5 x! cp0_reg_read_addr_o [4:0] $end
$var reg 5 y! cp0_reg_write_addr_o [4:0] $end
$var reg 1 z! cp0_reg_we_o $end
$var reg 32 {! cp0_reg_data_o [31:0] $end
$var wire 32 \ excepttype_o [31:0] $end
$var wire 32 ] current_inst_addr_o [31:0] $end
$var wire 1 [ is_in_delayslot_o $end
$var reg 1 |! stallreq $end
$var reg 32 }! logicres [31:0] $end
$var reg 32 ~! shiftres [31:0] $end
$var reg 32 !" moveres [31:0] $end
$var reg 32 "" arithres [31:0] $end
$var reg 64 #" mulres [63:0] $end
$var reg 32 $" hi [31:0] $end
$var reg 32 %" lo [31:0] $end
$var reg 1 &" ovassert $end
$var reg 1 '" trapassert $end
$var wire 32 (" reg2_i_mux [31:0] $end
$var wire 32 )" reg1_i_not [31:0] $end
$var wire 32 *" add_sum [31:0] $end
$var wire 1 +" is_overflow $end
$var wire 1 ," is_equal $end
$var wire 1 -" is_less $end
$var wire 32 ." mul_op1 [31:0] $end
$var wire 32 /" mul_op2 [31:0] $end
$var wire 64 0" mul_ans [63:0] $end
$upscope $end
$scope module ex_mem0 $end
$var wire 1 " rst $end
$var wire 1 ! clk $end
$var wire 6 :! stall [5:0] $end
$var wire 1 <! flush $end
$var wire 5 N ex_wd [4:0] $end
$var wire 1 M ex_wreg $end
$var wire 32 O ex_wdata [31:0] $end
$var wire 1 P ex_whilo $end
$var wire 32 T ex_hi [31:0] $end
$var wire 32 U ex_lo [31:0] $end
$var wire 8 Q ex_aluop [7:0] $end
$var wire 32 R ex_mem_addr [31:0] $end
$var wire 32 S ex_reg2 [31:0] $end
$var wire 5 X ex_cp0_reg_write_addr [4:0] $end
$var wire 1 Y ex_cp0_reg_we $end
$var wire 32 Z ex_cp0_reg_data [31:0] $end
$var wire 32 \ ex_excepttype [31:0] $end
$var wire 32 ] ex_current_inst_addr [31:0] $end
$var wire 1 [ ex_is_in_delayslot $end
$var reg 5 1" mem_wd [4:0] $end
$var reg 1 2" mem_wreg $end
$var reg 32 3" mem_wdata [31:0] $end
$var reg 1 4" mem_whilo $end
$var reg 32 5" mem_hi [31:0] $end
$var reg 32 6" mem_lo [31:0] $end
$var reg 8 7" mem_aluop [7:0] $end
$var reg 32 8" mem_mem_addr [31:0] $end
$var reg 32 9" mem_reg2 [31:0] $end
$var reg 5 :" mem_cp0_reg_write_addr [4:0] $end
$var reg 1 ;" mem_cp0_reg_we $end
$var reg 32 <" mem_cp0_reg_data [31:0] $end
$var reg 32 =" mem_excepttype [31:0] $end
$var reg 32 >" mem_current_inst_addr [31:0] $end
$var reg 1 ?" mem_is_in_delayslot $end
$upscope $end
$scope module mem0 $end
$var wire 1 " rst $end
$var wire 5 _ wd_i [4:0] $end
$var wire 1 ^ wreg_i $end
$var wire 32 ` wdata_i [31:0] $end
$var wire 8 d aluop_i [7:0] $end
$var wire 32 e mem_addr_i [31:0] $end
$var wire 32 f reg2_i [31:0] $end
$var wire 32 + mem_data_i [31:0] $end
$var wire 1 a whilo_i $end
$var wire 32 b hi_i [31:0] $end
$var wire 32 c lo_i [31:0] $end
$var wire 5 h cp0_reg_write_addr_i [4:0] $end
$var wire 1 g cp0_reg_we_i $end
$var wire 32 i cp0_reg_data_i [31:0] $end
$var wire 32 k excepttype_i [31:0] $end
$var wire 32 l current_inst_addr_i [31:0] $end
$var wire 1 j is_in_delayslot_i $end
$var wire 32 5! cp0_status_i [31:0] $end
$var wire 32 7! cp0_cause_i [31:0] $end
$var wire 32 6! cp0_epc_i [31:0] $end
$var wire 1 "! wb_cp0_reg_we_i $end
$var wire 32 $! wb_cp0_reg_data_i [31:0] $end
$var wire 5 #! wb_cp0_reg_write_addr_i [4:0] $end
$var reg 5 @" wd_o [4:0] $end
$var reg 1 A" wreg_o $end
$var reg 32 B" wdata_o [31:0] $end
$var reg 1 C" whilo_o $end
$var reg 32 D" hi_o [31:0] $end
$var reg 32 E" lo_o [31:0] $end
$var reg 32 F" mem_addr_o [31:0] $end
$var wire 1 ( mem_we_o $end
$var reg 1 G" mem_ce_o $end
$var reg 32 H" mem_data_o [31:0] $end
$var reg 4 I" mem_sel_o [3:0] $end
$var reg 5 J" cp0_reg_write_addr_o [4:0] $end
$var reg 1 K" cp0_reg_we_o $end
$var reg 32 L" cp0_reg_data_o [31:0] $end
$var reg 32 M" excepttype_o [31:0] $end
$var wire 32 v cp0_epc_o [31:0] $end
$var wire 32 y current_inst_addr_o [31:0] $end
$var wire 1 w is_in_delayslot_o $end
$var reg 1 N" mem_we $end
$var wire 2 O" addr_mod4 [1:0] $end
$var reg 32 P" cp0_status [31:0] $end
$var reg 32 Q" cp0_cause [31:0] $end
$var reg 32 R" cp0_epc [31:0] $end
$upscope $end
$scope module mem_wb0 $end
$var wire 1 " rst $end
$var wire 1 ! clk $end
$var wire 6 :! stall [5:0] $end
$var wire 5 n mem_wd [4:0] $end
$var wire 1 m mem_wreg $end
$var wire 32 o mem_wdata [31:0] $end
$var wire 1 p mem_whilo $end
$var wire 32 q mem_hi [31:0] $end
$var wire 32 r mem_lo [31:0] $end
$var wire 5 t mem_cp0_reg_write_addr [4:0] $end
$var wire 1 s mem_cp0_reg_we $end
$var wire 32 u mem_cp0_reg_data [31:0] $end
$var wire 1 <! flush $end
$var reg 5 S" wb_wd [4:0] $end
$var reg 1 T" wb_wreg $end
$var reg 32 U" wb_wdata [31:0] $end
$var reg 1 V" wb_whilo $end
$var reg 32 W" wb_hi [31:0] $end
$var reg 32 X" wb_lo [31:0] $end
$var reg 5 Y" wb_cp0_reg_write_addr [4:0] $end
$var reg 1 Z" wb_cp0_reg_we $end
$var reg 32 [" wb_cp0_reg_data [31:0] $end
$upscope $end
$scope module hilo0 $end
$var wire 1 " rst $end
$var wire 1 ! clk $end
$var wire 1 } we $end
$var wire 32 ~ hi_i [31:0] $end
$var wire 32 !! lo_i [31:0] $end
$var reg 32 \" hi_o [31:0] $end
$var reg 32 ]" lo_o [31:0] $end
$upscope $end
$scope module ctrl0 $end
$var wire 1 " rst $end
$var wire 1 8! stalleq_from_id $end
$var wire 1 9! stalleq_from_ex $end
$var wire 32 v cp0_epc_i [31:0] $end
$var wire 32 x excepttype_i [31:0] $end
$var reg 32 ^" new_pc [31:0] $end
$var reg 1 _" flush $end
$var reg 6 `" stall [5:0] $end
$upscope $end
$scope module div0 $end
$var wire 1 " rst $end
$var wire 1 ! clk $end
$var wire 1 -! start_i $end
$var wire 1 .! annul_i $end
$var wire 32 /! opdata1_i [31:0] $end
$var wire 32 0! opdata2_i [31:0] $end
$var wire 1 1! signed_div_i $end
$var reg 64 a" result_o [63:0] $end
$var reg 1 b" ready_o $end
$var reg 2 c" state [1:0] $end
$var reg 32 d" divider [31:0] $end
$var reg 65 e" result [64:0] $end
$var reg 6 f" cnt [5:0] $end
$var wire 33 g" tempres [32:0] $end
$upscope $end
$scope module cp00 $end
$var wire 1 " rst $end
$var wire 1 ! clk $end
$var wire 1 "! we_i $end
$var wire 5 #! waddr_i [4:0] $end
$var wire 5 W raddr_i [4:0] $end
$var wire 32 $! data_i [31:0] $end
$var wire 6 / int_i [5:0] $end
$var wire 32 x excepttype_i [31:0] $end
$var wire 32 y current_inst_addr_i [31:0] $end
$var wire 1 w is_in_delayslot_i $end
$var reg 32 h" data_o [31:0] $end
$var reg 32 i" count_o [31:0] $end
$var reg 32 j" compare_o [31:0] $end
$var reg 32 k" status_o [31:0] $end
$var reg 32 l" cause_o [31:0] $end
$var reg 32 m" epc_o [31:0] $end
$var reg 32 n" config_o [31:0] $end
$var reg 32 o" prid_o [31:0] $end
$var reg 1 p" timer_int_o $end
$upscope $end
$upscope $end
$scope module inst_rom0 $end
$var wire 1 ' ce $end
$var wire 32 % addr [31:0] $end
$var reg 32 q" inst [31:0] $end
$upscope $end
$scope module data_ram0 $end
$var wire 1 ! clk $end
$var wire 1 - ce $end
$var wire 1 ( we $end
$var wire 32 ) addr [31:0] $end
$var wire 4 , sel [3:0] $end
$var wire 32 * data_i [31:0] $end
$var reg 32 r" data_o [31:0] $end
$upscope $end
$upscope $end
$upscope $end
$enddefinitions $end
#0
$dumpvars
0!
bx !!
b0 !"
1"
x"!
b0 ""
b1 #
bx #!
b0 #"
b1xxxxxxxxxxxxxxxxxxxxxxxxxxx $
bx $!
b0 $"
bx %
x%!
b0 %"
b0 &
x&!
x&"
0'
b0 '!
x'"
0(
b0 (!
bx ("
b0 )
b0 )!
bx )"
b0 *
b0 *!
bx *"
b0 +
bx +!
x+"
b0 ,
bx ,!
x,"
0-
x-!
x-"
x.
0.!
bx ."
b0x /
bx /!
bx /"
bx 0
bx 0!
bx 0"
bx 1
x1!
bx 1"
bx 2
bx 2!
x2"
x3
x3!
bx 3"
b0 4
b0 4!
x4"
b0 5
bx 5!
bx 5"
b0 6
bx 6!
bx 6"
b0 7
bx 7!
bx 7"
x8
08!
bx 8"
b0 9
09!
bx 9"
b0 :
b0 :!
bx :"
0;
b0 ;!
x;"
0<
0<!
bx <"
b0 =
bx =!
bx ="
b0 >
0>!
bx >"
0?
bz ?!
x?"
b0x00xx00000000 @
bx @!
b0 @"
bx A
bx A!
0A"
xB
bz B!
b0 B"
bx C
b0 C!
0C"
bx D
b0 D!
bx D"
bx E
b0 E!
bx E"
bx F
b0 F!
b0 F"
bx G
xG!
0G"
bx H
b0 H!
b0 H"
xI
xI!
b0 I"
bx J
b0 J!
b0 J"
bx K
xK!
0K"
bx L
b0 L!
b0 L"
0M
b0 M!
b0 M"
b0 N
0N!
0N"
b0 O
b0 O!
bx O"
xP
0P!
b0 P"
bx Q
b0 Q!
b0 Q"
bx R
0R!
b0 R"
bx S
zS!
bx S"
b0 T
b0 T!
xT"
b0 U
bx U!
bx U"
bz V
bx V!
xV"
bx W
bx W!
bx W"
b0 X
bx X!
bx X"
0Y
bx Y!
bx Y"
b0 Z
xZ!
xZ"
x[
x[!
bx ["
bx00000000 \
x\!
bx \"
bx ]
x]!
bx ]"
x^
0^!
b0 ^"
bx _
0_!
0_"
bx `
b0 `!
b0 `"
xa
b0 a!
bx a"
bx b
bx b!
xb"
bx c
bx c!
bx c"
bx d
bx d!
bx d"
bx e
bx e!
bx e"
bx f
bx f!
bx f"
xg
xg!
bx g"
bx h
bx h!
b0 h"
bx i
xi!
bx i"
xj
bx j!
bx j"
bx k
bx k!
bx k"
bx l
bx l!
bx l"
0m
xm!
bx m"
b0 n
b0 n!
bx n"
b0 o
0o!
bx o"
0p
b0 p!
xp"
bx q
xq!
b0 q"
bx r
b0 r!
b0 r"
0s
b0 s!
b0 t
xt!
b0 u
xu!
b0 v
bx v!
xw
bx w!
b0 x
bx x!
bx y
b0 y!
xz
0z!
bx {
b0 {!
bx |
0|!
x}
b0 }!
bx ~
b0 ~!
$end
#10000
1!
b0 !"
0"!
b0 ""
b0 #!
b0 #"
b0 $!
b0 $"
b0 %
b0 %"
0'"
b0 ("
b0 )"
b0 *"
b0 +!
0+"
b0 ,!
1,"
0-"
0.
b0 ."
b0 /
b0 /"
b0 0
b0 0"
b0 1
b0 1"
b0 2
b0 2!
02"
03
03!
b0 3"
04"
b10000000000000000000000000000 5!
b0 6!
b0 7!
b0 7"
b0 8"
b0 9"
b0 :"
0;"
b0 <"
b0 =!
b0 ="
b0 >"
0?"
b0 @!
b0 @"
b0 A
b0 A!
0A"
0B
b0 B"
b0 C
b0 C!
0C"
b0 D
b0 D!
b0 E
b0 E!
b0 F
b0 F!
b0 F"
b0 G
0G"
b0 H
b0 H!
b0 H"
0I
b0 I"
b0 J
b0 J!
b0 J"
b0 K
0K"
b0 L
b0 L!
b0 L"
b0 M!
b0 M"
0N!
0N"
b0 O!
b0 O"
0P!
b0 P"
b0 Q
b0 Q!
b0 Q"
b0 R
0R!
b0 R"
b0 S
b0 S"
b0 T!
0T"
b0 U!
b0 U"
b0 V!
0V"
b0 W!
b0 X!
b100 Y!
b0 Y"
0Z!
0Z"
0[
b0 ["
b0x00000000000 \
b0 \"
b0 ]
b0 ]"
0^
0^!
b0 _
0_!
b0 `
b0 `!
0a
b0 a!
b0 a"
b0 b!
0b"
b0 c!
b0 c"
b0 d
b0 d!
b0 d"
b0 e
b0 e!
b0 e"
b0 f
b0 f!
0g
0g!
b0 g"
b0 h
b0 h!
b0 h"
b0 i
0i!
b0 i"
0j
b0 j!
b0 j"
b0 k
b0 k!
b10000000000000000000000000000 k"
b0 l
b0 l!
b0 l"
0m!
b0 m"
b0 n!
b10000000000000000 n"
0o!
b10011000000000100000010 o"
b0 p!
0p"
b0 q"
b0 r!
b0 s!
0w
b0 y
b0 y!
0z
0z!
b0 {
b0 {!
b0 |
0|!
0}
b0 }!
b0 ~!
#20000
0!
#30000
1!
b0 1"
02"
b0 3"
04"
b10000000000000000000000000000 5!
b0 7"
b0 8"
b0 9"
b0 :"
0;"
b0 <"
b0 =!
b0 ="
b0 >"
0?"
b0 @!
b0 A!
b0 S"
0T"
b0 U"
0V"
b0 Y"
0Z"
b0 ["
b0 \"
b0 ]"
b0 a"
b0 b!
0b"
b0 c!
b0 d!
b0 d"
b0 e!
b0 e"
b0 f!
0g!
b0 h!
b0 h"
0i!
b0 i"
b0 j!
b0 j"
b0 k!
b10000000000000000000000000000 k"
b0 l!
b0 l"
0m!
b0 m"
b10000000000000000 n"
b10011000000000100000010 o"
0p"
#40000
0!
#50000
1!
b0 1"
02"
b0 3"
04"
b10000000000000000000000000000 5!
b0 7"
b0 8"
b0 9"
b0 :"
0;"
b0 <"
b0 =!
b0 ="
b0 >"
0?"
b0 @!
b0 A!
b0 S"
0T"
b0 U"
0V"
b0 Y"
0Z"
b0 ["
b0 \"
b0 ]"
b0 a"
b0 b!
0b"
b0 c!
b0 d!
b0 d"
b0 e!
b0 e"
b0 f!
0g!
b0 h!
b0 h"
0i!
b0 i"
b0 j!
b0 j"
b0 k!
b10000000000000000000000000000 k"
b0 l!
b0 l"
0m!
b0 m"
b10000000000000000 n"
b10011000000000100000010 o"
0p"
#60000
0!
#70000
1!
b0 1"
02"
b0 3"
04"
b10000000000000000000000000000 5!
b0 7"
b0 8"
b0 9"
b0 :"
0;"
b0 <"
b0 =!
b0 ="
b0 >"
0?"
b0 @!
b0 A!
b0 S"
0T"
b0 U"
0V"
b0 Y"
0Z"
b0 ["
b0 \"
b0 ]"
b0 a"
b0 b!
0b"
b0 c!
b0 d!
b0 d"
b0 e!
b0 e"
b0 f!
0g!
b0 h!
b0 h"
0i!
b0 i"
b0 j!
b0 j"
b0 k!
b10000000000000000000000000000 k"
b0 l!
b0 l"
0m!
b0 m"
b10000000000000000 n"
b10011000000000100000010 o"
0p"
#80000
0!
#90000
1!
b0 1"
02"
b0 3"
04"
b10000000000000000000000000000 5!
b0 7"
b0 8"
b0 9"
b0 :"
0;"
b0 <"
b0 =!
b0 ="
b0 >"
0?"
b0 @!
b0 A!
b0 S"
0T"
b0 U"
0V"
b0 Y"
0Z"
b0 ["
b0 \"
b0 ]"
b0 a"
b0 b!
0b"
b0 c!
b0 d!
b0 d"
b0 e!
b0 e"
b0 f!
0g!
b0 h!
b0 h"
0i!
b0 i"
b0 j!
b0 j"
b0 k!
b10000000000000000000000000000 k"
b0 l!
b0 l"
0m!
b0 m"
b10000000000000000 n"
b10011000000000100000010 o"
0p"
#100000
0!
#110000
1!
b0 1"
02"
b0 3"
04"
b10000000000000000000000000000 5!
b0 7"
b0 8"
b0 9"
b0 :"
0;"
b0 <"
b0 =!
b0 ="
b0 >"
0?"
b0 @!
b0 A!
b0 S"
0T"
b0 U"
0V"
b0 Y"
0Z"
b0 ["
b0 \"
b0 ]"
b0 a"
b0 b!
0b"
b0 c!
b0 d!
b0 d"
b0 e!
b0 e"
b0 f!
0g!
b0 h!
b0 h"
0i!
b0 i"
b0 j!
b0 j"
b0 k!
b10000000000000000000000000000 k"
b0 l!
b0 l"
0m!
b0 m"
b10000000000000000 n"
b10011000000000100000010 o"
0p"
#120000
0!
#130000
1!
b0 1"
02"
b0 3"
04"
b10000000000000000000000000000 5!
b0 7"
b0 8"
b0 9"
b0 :"
0;"
b0 <"
b0 =!
b0 ="
b0 >"
0?"
b0 @!
b0 A!
b0 S"
0T"
b0 U"
0V"
b0 Y"
0Z"
b0 ["
b0 \"
b0 ]"
b0 a"
b0 b!
0b"
b0 c!
b0 d!
b0 d"
b0 e!
b0 e"
b0 f!
0g!
b0 h!
b0 h"
0i!
b0 i"
b0 j!
b0 j"
b0 k!
b10000000000000000000000000000 k"
b0 l!
b0 l"
0m!
b0 m"
b10000000000000000 n"
b10011000000000100000010 o"
0p"
#140000
0!
