YaoPad.srcs/sources_1/cpu/openmips_min_sopc_tb.vcd
$date
	Fri Dec 01 21:39:00 2017
$end
$version
	Icarus Verilog
$end
$timescale
	1ps
$end
$scope module openmips_min_sopc_tb $end
$scope module openmips_min_sopc0 $end
$var wire 1 ! clk $end
$var wire 5 " debug [4:0] $end
$var wire 1 # rst $end
$var wire 1 $ timer_int $end
$var wire 1 % rom_ce $end
$var wire 1 & mem_we_i $end
$var wire 4 ' mem_sel_i [3:0] $end
$var wire 32 ( mem_data_o [31:0] $end
$var wire 32 ) mem_data_i [31:0] $end
$var wire 1 * mem_ce_i $end
$var wire 32 + mem_addr_i [31:0] $end
$var wire 32 , led [31:0] $end
$var wire 6 - int [5:0] $end
$var wire 32 . inst_addr [31:0] $end
$var wire 32 / inst [31:0] $end
$scope module cpu0 $end
$var wire 1 ! clk $end
$var wire 5 0 debug [4:0] $end
$var wire 1 1 div_annul $end
$var wire 6 2 int_i [5:0] $end
$var wire 32 3 rom_addr_o [31:0] $end
$var wire 1 # rst $end
$var wire 1 4 wb_wreg_i $end
$var wire 1 5 wb_whilo_i $end
$var wire 32 6 wb_wdata_i [31:0] $end
$var wire 5 7 wb_wd_i [4:0] $end
$var wire 32 8 wb_lo_i [31:0] $end
$var wire 32 9 wb_hi_i [31:0] $end
$var wire 5 : wb_cp0_reg_write_addr_i [4:0] $end
$var wire 1 ; wb_cp0_reg_we_i $end
$var wire 32 < wb_cp0_reg_data_i [31:0] $end
$var wire 1 $ timer_int_o $end
$var wire 1 = stalleq_from_id $end
$var wire 1 > stalleq_from_ex $end
$var wire 6 ? stall [5:0] $end
$var wire 32 @ rom_data_i [31:0] $end
$var wire 1 % rom_ce_o $end
$var wire 1 A reg2_read $end
$var wire 32 B reg2_data [31:0] $end
$var wire 5 C reg2_addr [4:0] $end
$var wire 1 D reg1_read $end
$var wire 32 E reg1_data [31:0] $end
$var wire 5 F reg1_addr [4:0] $end
$var wire 1 & ram_we_o $end
$var wire 4 G ram_sel_o [3:0] $end
$var wire 32 H ram_data_o [31:0] $end
$var wire 32 I ram_data_i [31:0] $end
$var wire 1 * ram_ce_o $end
$var wire 32 J ram_addr_o [31:0] $end
$var wire 32 K pc [31:0] $end
$var wire 32 L new_pc [31:0] $end
$var wire 1 M mem_wreg_o $end
$var wire 1 N mem_wreg_i $end
$var wire 1 O mem_whilo_o $end
$var wire 1 P mem_whilo_i $end
$var wire 32 Q mem_wdata_o [31:0] $end
$var wire 32 R mem_wdata_i [31:0] $end
$var wire 5 S mem_wd_o [4:0] $end
$var wire 5 T mem_wd_i [4:0] $end
$var wire 32 U mem_reg2_i [31:0] $end
$var wire 32 V mem_mem_addr_i [31:0] $end
$var wire 32 W mem_lo_o [31:0] $end
$var wire 32 X mem_lo_i [31:0] $end
$var wire 1 Y mem_is_in_delayslot_o $end
$var wire 1 Z mem_is_in_delayslot_i $end
$var wire 32 [ mem_hi_o [31:0] $end
$var wire 32 \ mem_hi_i [31:0] $end
$var wire 32 ] mem_excepttype_o [31:0] $end
$var wire 32 ^ mem_excepttype_i [31:0] $end
$var wire 32 _ mem_current_inst_addr_o [31:0] $end
$var wire 32 ` mem_current_inst_addr_i [31:0] $end
$var wire 5 a mem_cp0_reg_write_addr_o [4:0] $end
$var wire 5 b mem_cp0_reg_write_addr_i [4:0] $end
$var wire 1 c mem_cp0_reg_we_o $end
$var wire 1 d mem_cp0_reg_we_i $end
$var wire 32 e mem_cp0_reg_data_o [31:0] $end
$var wire 32 f mem_cp0_reg_data_i [31:0] $end
$var wire 32 g mem_cp0_epc_o [31:0] $end
$var wire 8 h mem_aluop_i [7:0] $end
$var wire 32 i lo_o [31:0] $end
$var wire 1 j id_wreg_o $end
$var wire 5 k id_wd_o [4:0] $end
$var wire 32 l id_reg2_o [31:0] $end
$var wire 32 m id_reg1_o [31:0] $end
$var wire 32 n id_pc_i [31:0] $end
$var wire 1 o id_next_inst_in_delayslot_o $end
$var wire 32 p id_link_addr_o [31:0] $end
$var wire 1 q id_is_in_delayslot_o $end
$var wire 1 r id_is_in_delayslot_i $end
$var wire 32 s id_inst_o [31:0] $end
$var wire 32 t id_inst_i [31:0] $end
$var wire 32 u id_excepttype_o [31:0] $end
$var wire 32 v id_current_inst_addr_o [31:0] $end
$var wire 32 w id_branch_target_address_o [31:0] $end
$var wire 1 x id_branch_flag_o $end
$var wire 3 y id_alusel_o [2:0] $end
$var wire 8 z id_aluop_o [7:0] $end
$var wire 32 { hi_o [31:0] $end
$var wire 1 | flush $end
$var wire 1 } ex_wreg_o $end
$var wire 1 ~ ex_wreg_i $end
$var wire 1 !" ex_whilo_o $end
$var wire 32 "" ex_wdata_o [31:0] $end
$var wire 5 #" ex_wd_o [4:0] $end
$var wire 5 $" ex_wd_i [4:0] $end
$var wire 32 %" ex_reg2_o [31:0] $end
$var wire 32 &" ex_reg2_i [31:0] $end
$var wire 32 '" ex_reg1_i [31:0] $end
$var wire 32 (" ex_mem_addr_o [31:0] $end
$var wire 32 )" ex_lo_o [31:0] $end
$var wire 32 *" ex_link_addr_i [31:0] $end
$var wire 1 +" ex_is_in_delayslot_o $end
$var wire 1 ," ex_is_in_delayslot_i $end
$var wire 32 -" ex_inst_i [31:0] $end
$var wire 32 ." ex_hi_o [31:0] $end
$var wire 32 /" ex_excepttype_o [31:0] $end
$var wire 32 0" ex_excepttype_i [31:0] $end
$var wire 32 1" ex_current_inst_addr_o [31:0] $end
$var wire 32 2" ex_current_inst_addr_i [31:0] $end
$var wire 5 3" ex_cp0_reg_write_addr_o [4:0] $end
$var wire 1 4" ex_cp0_reg_we_o $end
$var wire 5 5" ex_cp0_reg_read_addr_o [4:0] $end
$var wire 32 6" ex_cp0_reg_data_o [31:0] $end
$var wire 3 7" ex_alusel_i [2:0] $end
$var wire 8 8" ex_aluop_o [7:0] $end
$var wire 8 9" ex_aluop_i [7:0] $end
$var wire 1 :" div_start $end
$var wire 1 ;" div_signed $end
$var wire 64 <" div_result [63:0] $end
$var wire 1 =" div_ready $end
$var wire 32 >" div_opdata2 [31:0] $end
$var wire 32 ?" div_opdata1 [31:0] $end
$var wire 32 @" debugdata [31:0] $end
$var wire 32 A" cp0_status_o [31:0] $end
$var wire 32 B" cp0_epc_o [31:0] $end
$var wire 32 C" cp0_data_o [31:0] $end
$var wire 32 D" cp0_cause_o [31:0] $end
$scope module cp00 $end
$var wire 1 ! clk $end
$var wire 6 E" int_i [5:0] $end
$var wire 1 # rst $end
$var wire 1 ; we_i $end
$var wire 5 F" waddr_i [4:0] $end
$var wire 5 G" raddr_i [4:0] $end
$var wire 1 Y is_in_delayslot_i $end
$var wire 32 H" excepttype_i [31:0] $end
$var wire 32 I" data_i [31:0] $end
$var wire 32 J" current_inst_addr_i [31:0] $end
$var reg 32 K" cause_o [31:0] $end
$var reg 32 L" compare_o [31:0] $end
$var reg 32 M" config_o [31:0] $end
$var reg 32 N" count_o [31:0] $end
$var reg 32 O" data_o [31:0] $end
$var reg 32 P" epc_o [31:0] $end
$var reg 32 Q" prid_o [31:0] $end
$var reg 32 R" status_o [31:0] $end
$var reg 1 $ timer_int_o $end
$upscope $end
$scope module ctrl0 $end
$var wire 1 # rst $end
$var wire 1 = stalleq_from_id $end
$var wire 1 > stalleq_from_ex $end
$var wire 32 S" excepttype_i [31:0] $end
$var wire 32 T" cp0_epc_i [31:0] $end
$var reg 1 | flush $end
$var reg 32 U" new_pc [31:0] $end
$var reg 6 V" stall [5:0] $end
$upscope $end
$scope module div0 $end
$var wire 1 1 annul_i $end
$var wire 1 ! clk $end
$var wire 1 # rst $end
$var wire 33 W" tempres [32:0] $end
$var wire 1 :" start_i $end
$var wire 1 ;" signed_div_i $end
$var wire 32 X" opdata2_i [31:0] $end
$var wire 32 Y" opdata1_i [31:0] $end
$var reg 6 Z" cnt [5:0] $end
$var reg 32 [" divider [31:0] $end
$var reg 1 =" ready_o $end
$var reg 65 \" result [64:0] $end
$var reg 64 ]" result_o [63:0] $end
$var reg 2 ^" state [1:0] $end
$upscope $end
$scope module ex0 $end
$var wire 8 _" aluop_o [7:0] $end
$var wire 32 `" cp0_reg_data_i [31:0] $end
$var wire 32 a" current_inst_addr_o [31:0] $end
$var wire 1 =" div_ready_i $end
$var wire 64 b" div_result_i [63:0] $end
$var wire 1 +" is_in_delayslot_o $end
$var wire 1 c" is_overflow $end
$var wire 32 d" reg2_o [31:0] $end
$var wire 1 # rst $end
$var wire 1 ~ wreg_i $end
$var wire 5 e" wd_i [4:0] $end
$var wire 1 5 wb_whilo_i $end
$var wire 32 f" wb_lo_i [31:0] $end
$var wire 32 g" wb_hi_i [31:0] $end
$var wire 5 h" wb_cp0_reg_write_addr [4:0] $end
$var wire 1 ; wb_cp0_reg_we $end
$var wire 32 i" wb_cp0_reg_data [31:0] $end
$var wire 32 j" reg2_i_mux [31:0] $end
$var wire 32 k" reg2_i [31:0] $end
$var wire 32 l" reg1_i_not [31:0] $end
$var wire 32 m" reg1_i [31:0] $end
$var wire 32 n" mul_op2 [31:0] $end
$var wire 32 o" mul_op1 [31:0] $end
$var wire 64 p" mul_ans [63:0] $end
$var wire 1 O mem_whilo_i $end
$var wire 32 q" mem_lo_i [31:0] $end
$var wire 32 r" mem_hi_i [31:0] $end
$var wire 5 s" mem_cp0_reg_write_addr [4:0] $end
$var wire 1 c mem_cp0_reg_we $end
$var wire 32 t" mem_cp0_reg_data [31:0] $end
$var wire 32 u" mem_addr_o [31:0] $end
$var wire 32 v" lo_i [31:0] $end
$var wire 32 w" link_addr_i [31:0] $end
$var wire 1 x" is_less $end
$var wire 1 ," is_in_delayslot_i $end
$var wire 1 y" is_equal $end
$var wire 32 z" inst_i [31:0] $end
$var wire 32 {" hi_i [31:0] $end
$var wire 32 |" excepttype_o [31:0] $end
$var wire 32 }" excepttype_i [31:0] $end
$var wire 32 ~" current_inst_addr_i [31:0] $end
$var wire 3 !# alusel_i [2:0] $end
$var wire 8 "# aluop_i [7:0] $end
$var wire 32 ## add_sum [31:0] $end
$var reg 32 $# arithres [31:0] $end
$var reg 32 %# cp0_reg_data_o [31:0] $end
$var reg 5 &# cp0_reg_read_addr_o [4:0] $end
$var reg 1 4" cp0_reg_we_o $end
$var reg 5 '# cp0_reg_write_addr_o [4:0] $end
$var reg 32 (# div_opdata1_o [31:0] $end
$var reg 32 )# div_opdata2_o [31:0] $end
$var reg 1 :" div_start_o $end
$var reg 32 *# hi [31:0] $end
$var reg 32 +# hi_o [31:0] $end
$var reg 32 ,# lo [31:0] $end
$var reg 32 -# lo_o [31:0] $end
$var reg 32 .# logicres [31:0] $end
$var reg 32 /# moveres [31:0] $end
$var reg 64 0# mulres [63:0] $end
$var reg 1 1# ovassert $end
$var reg 32 2# shiftres [31:0] $end
$var reg 1 ;" signed_div_o $end
$var reg 1 > stallreq $end
$var reg 1 3# trapassert $end
$var reg 5 4# wd_o [4:0] $end
$var reg 32 5# wdata_o [31:0] $end
$var reg 1 !" whilo_o $end
$var reg 1 } wreg_o $end
$upscope $end
$scope module ex_mem0 $end
$var wire 1 ! clk $end
$var wire 8 6# ex_aluop [7:0] $end
$var wire 32 7# ex_cp0_reg_data [31:0] $end
$var wire 1 4" ex_cp0_reg_we $end
$var wire 5 8# ex_cp0_reg_write_addr [4:0] $end
$var wire 32 9# ex_current_inst_addr [31:0] $end
$var wire 32 :# ex_excepttype [31:0] $end
$var wire 32 ;# ex_hi [31:0] $end
$var wire 1 +" ex_is_in_delayslot $end
$var wire 32 <# ex_lo [31:0] $end
$var wire 32 =# ex_mem_addr [31:0] $end
$var wire 32 ># ex_reg2 [31:0] $end
$var wire 5 ?# ex_wd [4:0] $end
$var wire 32 @# ex_wdata [31:0] $end
$var wire 1 !" ex_whilo $end
$var wire 1 } ex_wreg $end
$var wire 1 | flush $end
$var wire 1 # rst $end
$var wire 6 A# stall [5:0] $end
$var reg 8 B# mem_aluop [7:0] $end
$var reg 32 C# mem_cp0_reg_data [31:0] $end
$var reg 1 d mem_cp0_reg_we $end
$var reg 5 D# mem_cp0_reg_write_addr [4:0] $end
$var reg 32 E# mem_current_inst_addr [31:0] $end
$var reg 32 F# mem_excepttype [31:0] $end
$var reg 32 G# mem_hi [31:0] $end
$var reg 1 Z mem_is_in_delayslot $end
$var reg 32 H# mem_lo [31:0] $end
$var reg 32 I# mem_mem_addr [31:0] $end
$var reg 32 J# mem_reg2 [31:0] $end
$var reg 5 K# mem_wd [4:0] $end
$var reg 32 L# mem_wdata [31:0] $end
$var reg 1 P mem_whilo $end
$var reg 1 N mem_wreg $end
$upscope $end
$scope module hilo0 $end
$var wire 1 ! clk $end
$var wire 1 # rst $end
$var wire 1 5 we $end
$var wire 32 M# lo_i [31:0] $end
$var wire 32 N# hi_i [31:0] $end
$var reg 32 O# hi_o [31:0] $end
$var reg 32 P# lo_o [31:0] $end
$upscope $end
$scope module id0 $end
$var wire 32 Q# current_inst_addr_o [31:0] $end
$var wire 8 R# ex_aluop_i [7:0] $end
$var wire 5 S# ex_wd_i [4:0] $end
$var wire 32 T# ex_wdata_i [31:0] $end
$var wire 1 } ex_wreg_i $end
$var wire 6 U# int_i [5:0] $end
$var wire 1 # rst $end
$var wire 1 = stallreq $end
$var wire 1 V# timer_int_o $end
$var wire 32 W# reg2_data_i [31:0] $end
$var wire 32 X# reg1_data_i [31:0] $end
$var wire 1 Y# pre_inst_is_load $end
$var wire 32 Z# pc_i [31:0] $end
$var wire 5 [# op4 [4:0] $end
$var wire 6 \# op3 [5:0] $end
$var wire 5 ]# op2 [4:0] $end
$var wire 6 ^# op1 [5:0] $end
$var wire 32 _# next_pc_i [31:0] $end
$var wire 1 M mem_wreg_i $end
$var wire 32 `# mem_wdata_i [31:0] $end
$var wire 5 a# mem_wd_i [4:0] $end
$var wire 1 r is_in_delayslot_i $end
$var wire 32 b# inst_i [31:0] $end
$var wire 32 c# excepttype_o [31:0] $end
$var reg 8 d# aluop_o [7:0] $end
$var reg 3 e# alusel_o [2:0] $end
$var reg 1 x branch_flag_o $end
$var reg 32 f# branch_target_address_o [31:0] $end
$var reg 1 g# except_eret $end
$var reg 1 h# except_syscall $end
$var reg 32 i# immi [31:0] $end
$var reg 32 j# inst_o [31:0] $end
$var reg 1 k# instvalid $end
$var reg 1 q is_in_delayslot_o $end
$var reg 32 l# link_addr_o [31:0] $end
$var reg 1 o next_inst_in_delayslot_o $end
$var reg 5 m# reg1_addr_o [4:0] $end
$var reg 32 n# reg1_o [31:0] $end
$var reg 1 D reg1_read_o $end
$var reg 5 o# reg2_addr_o [4:0] $end
$var reg 32 p# reg2_o [31:0] $end
$var reg 1 A reg2_read_o $end
$var reg 1 q# stallreq1 $end
$var reg 1 r# stallreq2 $end
$var reg 5 s# wd_o [4:0] $end
$var reg 1 j wreg_o $end
$upscope $end
$scope module id_ex0 $end
$var wire 1 ! clk $end
$var wire 1 | flush $end
$var wire 8 t# id_aluop [7:0] $end
$var wire 3 u# id_alusel [2:0] $end
$var wire 32 v# id_current_inst_addr [31:0] $end
$var wire 32 w# id_excepttype [31:0] $end
$var wire 32 x# id_inst [31:0] $end
$var wire 1 q id_is_in_delayslot $end
$var wire 32 y# id_link_addr [31:0] $end
$var wire 32 z# id_reg1 [31:0] $end
$var wire 32 {# id_reg2 [31:0] $end
$var wire 5 |# id_wd [4:0] $end
$var wire 1 j id_wreg $end
$var wire 1 o next_inst_in_delayslot_i $end
$var wire 1 # rst $end
$var wire 6 }# stall [5:0] $end
$var reg 8 ~# ex_aluop [7:0] $end
$var reg 3 !$ ex_alusel [2:0] $end
$var reg 32 "$ ex_current_inst_addr [31:0] $end
$var reg 32 #$ ex_excepttype [31:0] $end
$var reg 32 $$ ex_inst [31:0] $end
$var reg 1 ," ex_is_in_delayslot $end
$var reg 32 %$ ex_link_addr [31:0] $end
$var reg 32 &$ ex_reg1 [31:0] $end
$var reg 32 '$ ex_reg2 [31:0] $end
$var reg 5 ($ ex_wd [4:0] $end
$var reg 1 ~ ex_wreg $end
$var reg 1 r is_in_delayslot_o $end
$upscope $end
$scope module if_id0 $end
$var wire 1 ! clk $end
$var wire 1 | flush $end
$var wire 1 # rst $end
$var wire 6 )$ stall [5:0] $end
$var wire 32 *$ if_pc [31:0] $end
$var wire 32 +$ if_inst [31:0] $end
$var reg 32 ,$ id_inst [31:0] $end
$var reg 32 -$ id_pc [31:0] $end
$upscope $end
$scope module mem0 $end
$var wire 8 .$ aluop_i [7:0] $end
$var wire 32 /$ cp0_cause_i [31:0] $end
$var wire 32 0$ cp0_epc_i [31:0] $end
$var wire 32 1$ cp0_epc_o [31:0] $end
$var wire 32 2$ cp0_reg_data_i [31:0] $end
$var wire 1 d cp0_reg_we_i $end
$var wire 5 3$ cp0_reg_write_addr_i [4:0] $end
$var wire 32 4$ cp0_status_i [31:0] $end
$var wire 32 5$ current_inst_addr_i [31:0] $end
$var wire 32 6$ current_inst_addr_o [31:0] $end
$var wire 32 7$ excepttype_i [31:0] $end
$var wire 32 8$ hi_i [31:0] $end
$var wire 1 Z is_in_delayslot_i $end
$var wire 1 Y is_in_delayslot_o $end
$var wire 32 9$ lo_i [31:0] $end
$var wire 32 :$ mem_addr_i [31:0] $end
$var wire 1 & mem_we_o $end
$var wire 32 ;$ reg2_i [31:0] $end
$var wire 1 # rst $end
$var wire 5 <$ wd_i [4:0] $end
$var wire 32 =$ wdata_i [31:0] $end
$var wire 1 P whilo_i $end
$var wire 1 N wreg_i $end
$var wire 5 >$ wb_cp0_reg_write_addr_i [4:0] $end
$var wire 1 ; wb_cp0_reg_we_i $end
$var wire 32 ?$ wb_cp0_reg_data_i [31:0] $end
$var wire 32 @$ mem_data_i [31:0] $end
$var wire 2 A$ addr_mod4 [1:0] $end
$var reg 32 B$ cp0_cause [31:0] $end
$var reg 32 C$ cp0_epc [31:0] $end
$var reg 32 D$ cp0_reg_data_o [31:0] $end
$var reg 1 c cp0_reg_we_o $end
$var reg 5 E$ cp0_reg_write_addr_o [4:0] $end
$var reg 32 F$ cp0_status [31:0] $end
$var reg 32 G$ excepttype_o [31:0] $end
$var reg 32 H$ hi_o [31:0] $end
$var reg 32 I$ lo_o [31:0] $end
$var reg 32 J$ mem_addr_o [31:0] $end
$var reg 1 * mem_ce_o $end
$var reg 32 K$ mem_data_o [31:0] $end
$var reg 4 L$ mem_sel_o [3:0] $end
$var reg 1 M$ mem_we $end
$var reg 5 N$ wd_o [4:0] $end
$var reg 32 O$ wdata_o [31:0] $end
$var reg 1 O whilo_o $end
$var reg 1 M wreg_o $end
$upscope $end
$scope module mem_wb0 $end
$var wire 1 ! clk $end
$var wire 1 | flush $end
$var wire 32 P$ mem_cp0_reg_data [31:0] $end
$var wire 1 c mem_cp0_reg_we $end
$var wire 5 Q$ mem_cp0_reg_write_addr [4:0] $end
$var wire 32 R$ mem_hi [31:0] $end
$var wire 32 S$ mem_lo [31:0] $end
$var wire 5 T$ mem_wd [4:0] $end
$var wire 32 U$ mem_wdata [31:0] $end
$var wire 1 O mem_whilo $end
$var wire 1 M mem_wreg $end
$var wire 1 # rst $end
$var wire 6 V$ stall [5:0] $end
$var reg 32 W$ wb_cp0_reg_data [31:0] $end
$var reg 1 ; wb_cp0_reg_we $end
$var reg 5 X$ wb_cp0_reg_write_addr [4:0] $end
$var reg 32 Y$ wb_hi [31:0] $end
$var reg 32 Z$ wb_lo [31:0] $end
$var reg 5 [$ wb_wd [4:0] $end
$var reg 32 \$ wb_wdata [31:0] $end
$var reg 1 5 wb_whilo $end
$var reg 1 4 wb_wreg $end
$upscope $end
$scope module pc_rom0 $end
$var wire 1 x branch_flag_i $end
$var wire 32 ]$ branch_target_address_i [31:0] $end
$var wire 1 ! clk $end
$var wire 32 ^$ debugdata [31:0] $end
$var wire 1 | flush $end
$var wire 32 _$ new_pc [31:0] $end
$var wire 1 # rst $end
$var wire 6 `$ stall [5:0] $end
$var reg 1 % ce $end
$var reg 32 a$ pc [31:0] $end
$upscope $end
$scope module regfile0 $end
$var wire 1 ! clk $end
$var wire 5 b$ debug [4:0] $end
$var wire 5 c$ raddr1 [4:0] $end
$var wire 5 d$ raddr2 [4:0] $end
$var wire 1 D re1 $end
$var wire 1 A re2 $end
$var wire 1 # rst $end
$var wire 5 e$ waddr [4:0] $end
$var wire 32 f$ wdata [31:0] $end
$var wire 1 4 we $end
$var wire 32 g$ debugdata [31:0] $end
$var reg 32 h$ rdata1 [31:0] $end
$var reg 32 i$ rdata2 [31:0] $end
$upscope $end
$upscope $end
$scope module data_ram0 $end
$var wire 32 j$ addr [31:0] $end
$var wire 1 * ce $end
$var wire 1 ! clk $end
$var wire 32 k$ data_i [31:0] $end
$var wire 4 l$ sel [3:0] $end
$var wire 1 & we $end
$var reg 32 m$ data_o [31:0] $end
$upscope $end
$scope module inst_rom0 $end
$var wire 32 n$ addr [31:0] $end
$var wire 1 % ce $end
$var reg 32 o$ inst [31:0] $end
$upscope $end
$upscope $end
$upscope $end
$enddefinitions $end
#0
$dumpvars
b0 o$
bx n$
b0 m$
b0 l$
b0 k$
b0 j$
b0 i$
b0 h$
b1xxxxxxxxxxxxxxxxxxxxxxxxxxx g$
bx f$
bx e$
b0 d$
b0 c$
b1 b$
bx a$
b0 `$
b0 _$
bz ^$
b0 ]$
bx \$
bx [$
bx Z$
bx Y$
bx X$
bx W$
b0 V$
b0 U$
b0 T$
bx S$
bx R$
b0 Q$
b0 P$
b0 O$
b0 N$
0M$
b0 L$
b0 K$
b0 J$
bx I$
bx H$
b0 G$
b0 F$
b0 E$
b0 D$
b0 C$
b0 B$
bx A$
b0 @$
bx ?$
bx >$
bx =$
bx <$
bx ;$
bx :$
bx 9$
bx 8$
bx 7$
bx 6$
bx 5$
bx 4$
bx 3$
bx 2$
b0 1$
bx 0$
bx /$
bx .$
bx -$
bx ,$
b0 +$
bx *$
b0 )$
bx ($
bx '$
bx &$
bx %$
bx $$
bx #$
bx "$
bx !$
bx ~#
b0 }#
b0 |#
b0 {#
b0 z#
b0 y#
b0 x#
b0x00xx00000000 w#
bx v#
b0 u#
b0 t#
b0 s#
0r#
0q#
b0 p#
b0 o#
b0 n#
b0 m#
b0 l#
xk#
b0 j#
b0 i#
xh#
xg#
b0 f#
b0 e#
b0 d#
b0x00xx00000000 c#
bx b#
b0 a#
b0 `#
bx _#
bx ^#
bx ]#
bx \#
bx [#
bx Z#
xY#
b0 X#
b0 W#
zV#
bz U#
b0 T#
b0 S#
bx R#
bx Q#
bx P#
bx O#
bx N#
bx M#
bx L#
bx K#
bx J#
bx I#
bx H#
bx G#
bx F#
bx E#
bx D#
bx C#
bx B#
b0 A#
b0 @#
b0 ?#
bx >#
bx =#
b0 <#
b0 ;#
bx00000000 :#
bx 9#
b0 8#
b0 7#
bx 6#
b0 5#
b0 4#
x3#
b0 2#
x1#
b0 0#
b0 /#
b0 .#
b0 -#
b0 ,#
b0 +#
b0 *#
bx )#
bx (#
b0 '#
bx &#
b0 %#
b0 $#
bx ##
bx "#
bx !#
bx ~"
bx }"
bx00000000 |"
bx {"
bx z"
xy"
xx"
bx w"
bx v"
bx u"
b0 t"
b0 s"
bx r"
bx q"
bx p"
bx o"
bx n"
bx m"
bx l"
bx k"
bx j"
bx i"
bx h"
bx g"
bx f"
bx e"
bx d"
xc"
bx b"
bx a"
b0 `"
bx _"
bx ^"
bx ]"
bx \"
bx ["
bx Z"
bx Y"
bx X"
bx W"
b0 V"
b0 U"
b0 T"
b0 S"
bx R"
bx Q"
bx P"
b0 O"
bx N"
bx M"
bx L"
bx K"
bx J"
bx I"
b0 H"
bx G"
bx F"
b0x E"
bx D"
b0 C"
bx B"
bx A"
b1xxxxxxxxxxxxxxxxxxxxxxxxxxx @"
bx ?"
bx >"
x="
bx <"
x;"
x:"
bx 9"
bx 8"
bx 7"
b0 6"
bx 5"
04"
b0 3"
bx 2"
bx 1"
bx 0"
bx00000000 /"
b0 ."
bx -"
x,"
x+"
bx *"
b0 )"
bx ("
bx '"
bx &"
bx %"
bx $"
b0 #"
b0 ""
x!"
x~
0}
0|
bx {
b0 z
b0 y
0x
b0 w
bx v
b0x00xx00000000 u
bx t
b0 s
xr
0q
b0 p
0o
bx n
b0 m
b0 l
b0 k
xj
bx i
bx h
b0 g
bx f
b0 e
xd
0c
bx b
b0 a
bx `
bx _
bx ^
b0 ]
bx \
bx [
xZ
xY
bx X
bx W
bx V
bx U
bx T
b0 S
bx R
b0 Q
xP
0O
xN
0M
b0 L
bx K
b0 J
b0 I
b0 H
b0 G
b0 F
b0 E
xD
b0 C
b0 B
xA
b0 @
b0 ?
0>
0=
bx <
x;
bx :
bx 9
bx 8
bx 7
bx 6
x5
x4
bx 3
b0x 2
01
b1 0
b0 /
bx .
b0x -
b1xxxxxxxxxxxxxxxxxxxxxxxxxxx ,
b0 +
0*
b0 )
b0 (
b0 '
0&
0%
x$
1#
b1 "
0!
$end
#10000
03#
0Y#
0c"
b0 [#
b0 \#
b0 ]#
b0 ^#
b0x00000000000 /"
b0x00000000000 |"
b0x00000000000 :#
b0 ("
b0 u"
b0 =#
b0 p"
b0 n"
0x"
b0 ##
b0 j"
b0 o"
b0 l"
b0 A$
b0 W"
b0 .
b0 3
b0 n$
b0 K
b0 *$
b0 a$
b0 t
b0 b#
b0 ,$
b100 _#
b0 v
b0 Q#
b0 v#
b0 n
b0 Z#
b0 -$
0r
b0 1"
b0 a"
b0 9#
b0 2"
b0 ~"
b0 "$
b0 0"
b0 }"
b0 #$
b0 *"
b0 w"
b0 %$
0+"
0,"
0~
b0 $"
b0 e"
b0 ($
b0 -"
b0 z"
b0 $$
1y"
b0 %"
b0 d"
b0 >#
b0 &"
b0 k"
b0 '$
b0 '"
b0 m"
b0 &$
b0 8"
b0 _"
b0 6#
b0 R#
b0 9"
b0 "#
b0 ~#
b0 7"
b0 !#
b0 !$
0Y
0Z
b0 _
b0 J"
b0 6$
b0 `
b0 E#
b0 5$
b0 ^
b0 F#
b0 7$
b0 f
b0 C#
b0 2$
0d
b0 b
b0 D#
b0 3$
b0 h
b0 B#
b0 .$
b0 V
b0 I#
b0 :$
b0 U
b0 J#
b0 ;$
0P
0N
b0 T
b0 K#
b0 <$
b0 R
b0 L#
b0 =$
b0 <
b0 I"
b0 i"
b0 ?$
b0 W$
0;
b0 :
b0 F"
b0 h"
b0 >$
b0 X$
05
04
b0 7
b0 [$
b0 e$
b0 6
b0 \$
b0 f$
b0 i
b0 v"
b0 P#
b0 {
b0 {"
b0 O#
b0 \"
b0 ["
b0 <"
b0 ]"
b0 b"
0="
b0 ^"
b0 -
b0 2
b0 E"
0$
b10011000000000100000010 Q"
b10000000000000000 M"
b0 B"
b0 P"
b0 0$
b0 D"
b0 K"
b0 /$
b10000000000000000000000000000 A"
b10000000000000000000000000000 R"
b10000000000000000000000000000 4$
b0 L"
b0 N"
1!
#20000
0!
#30000
b10000000000000000 M"
b10000000000000000000000000000 A"
b10000000000000000000000000000 R"
b10000000000000000000000000000 4$
1!
#40000
0!
#50000
b10000000000000000 M"
b10000000000000000000000000000 A"
b10000000000000000000000000000 R"
b10000000000000000000000000000 4$
1!
#60000
0!
#70000
b10000000000000000 M"
b10000000000000000000000000000 A"
b10000000000000000000000000000 R"
b10000000000000000000000000000 4$
1!
#80000
0!
#90000
b10000000000000000 M"
b10000000000000000000000000000 A"
b10000000000000000000000000000 R"
b10000000000000000000000000000 4$
1!
#100000
0!
#110000
b10000000000000000 M"
b10000000000000000000000000000 A"
b10000000000000000000000000000 R"
b10000000000000000000000000000 4$
1!
#120000
0!
#130000
b10000000000000000 M"
b10000000000000000000000000000 A"
b10000000000000000000000000000 R"
b10000000000000000000000000000 4$
1!
#140000
0!
#150000
b10000000000000000 M"
b10000000000000000000000000000 A"
b10000000000000000000000000000 R"
b10000000000000000000000000000 4$
1!
#160000
0!
#170000
b10000000000000000 M"
b10000000000000000000000000000 A"
b10000000000000000000000000000 R"
b10000000000000000000000000000 4$
1!
#180000
0!
#190000
b10000000000000000 M"
b10000000000000000000000000000 A"
b10000000000000000000000000000 R"
b10000000000000000000000000000 4$
1!
#195000
b110100000000010000000000000001 /
b110100000000010000000000000001 @
b110100000000010000000000000001 +$
b110100000000010000000000000001 o$
b0 /"
b0 |"
b0 :#
01#
0!"
0:"
b10 y
b10 e#
b10 u#
0h#
b0 u
b0 c#
b0 w#
0g#
1k#
b1000 p
b1000 l#
b1000 y#
1j
1A
0D
b10000000000000000000000000000 F$
1%
0#
#200000
0!
#210000
b1 l
b1 p#
b1 {#
b1 y
b1 e#
b1 u#
b100101 z
b100101 d#
b100101 t#
b1000000000000000000000001000 /
b1000000000000000000000001000 @
b1000000000000000000000001000 +$
b1000000000000000000000001000 o$
b1 C
b1 o#
b1 d$
b1 i#
b1 k
b1 s#
b1 |#
0A
1D
b110100000000010000000000000001 s
b110100000000010000000000000001 j#
b110100000000010000000000000001 x#
1}
b0 W
b0 q"
b0 I$
b0 S$
b0 [
b0 r"
b0 H$
b0 R$
b1 [#
b1 \#
b1101 ^#
b100 .
b100 3
b100 n$
b100 K
b100 *$
b100 a$
b110100000000010000000000000001 t
b110100000000010000000000000001 b#
b110100000000010000000000000001 ,$
b1000 *"
b1000 w"
b1000 %$
1~
b10 7"
b10 !#
b10 !$
b0 X
b0 H#
b0 9$
b0 \
b0 G#
b0 8$
b1 N"
1!
#220000
0!
