YaoPad.srcs/sources_1/cpu/openmips_min_sopc_tb.vcd
$date
	Sat Nov 18 01:28:48 2017
$end
$version
	Icarus Verilog
$end
$timescale
	1ps
$end
$scope module openmips_min_sopc_tb $end
$scope module openmips_min_sopc0 $end
$var wire 1 ! clk $end
$var wire 1 " rst $end
$var wire 1 # rom_ce $end
$var wire 32 $ inst_addr [31:0] $end
$var wire 32 % inst [31:0] $end
$scope module cpu0 $end
$var wire 1 ! clk $end
$var wire 32 & rom_addr_o [31:0] $end
$var wire 1 " rst $end
$var wire 1 ' wb_wreg_i $end
$var wire 32 ( wb_wdata_i [31:0] $end
$var wire 5 ) wb_wd_i [4:0] $end
$var wire 32 * rom_data_i [31:0] $end
$var wire 1 # rom_ce_o $end
$var wire 1 + reg2_read $end
$var wire 32 , reg2_data [31:0] $end
$var wire 5 - reg2_addr [4:0] $end
$var wire 1 . reg1_read $end
$var wire 32 / reg1_data [31:0] $end
$var wire 5 0 reg1_addr [4:0] $end
$var wire 32 1 pc [31:0] $end
$var wire 1 2 mem_wreg_o $end
$var wire 1 3 mem_wreg_i $end
$var wire 32 4 mem_wdata_o [31:0] $end
$var wire 32 5 mem_wdata_i [31:0] $end
$var wire 5 6 mem_wd_o [4:0] $end
$var wire 5 7 mem_wd_i [4:0] $end
$var wire 1 8 id_wreg_o $end
$var wire 5 9 id_wd_o [4:0] $end
$var wire 32 : id_reg2_o [31:0] $end
$var wire 32 ; id_reg1_o [31:0] $end
$var wire 32 < id_pc_i [31:0] $end
$var wire 32 = id_inst_i [31:0] $end
$var wire 3 > id_alusel_o [2:0] $end
$var wire 8 ? id_aluop_o [7:0] $end
$var wire 1 @ ex_wreg_o $end
$var wire 1 A ex_wreg_i $end
$var wire 32 B ex_wdata_o [31:0] $end
$var wire 5 C ex_wd_o [4:0] $end
$var wire 5 D ex_wd_i [4:0] $end
$var wire 32 E ex_reg2_i [31:0] $end
$var wire 32 F ex_reg1_i [31:0] $end
$var wire 3 G ex_alusel_i [2:0] $end
$var wire 8 H ex_aluop_i [7:0] $end
$scope module ex0 $end
$var wire 1 " rst $end
$var wire 1 A wreg_i $end
$var wire 5 I wd_i [4:0] $end
$var wire 32 J reg2_i [31:0] $end
$var wire 32 K reg1_i [31:0] $end
$var wire 3 L alusel_i [2:0] $end
$var wire 8 M aluop_i [7:0] $end
$var reg 32 N logicres [31:0] $end
$var reg 32 O shiftres [31:0] $end
$var reg 5 P wd_o [4:0] $end
$var reg 32 Q wdata_o [31:0] $end
$var reg 1 @ wreg_o $end
$upscope $end
$scope module ex_mem0 $end
$var wire 1 ! clk $end
$var wire 5 R ex_wd [4:0] $end
$var wire 32 S ex_wdata [31:0] $end
$var wire 1 @ ex_wreg $end
$var wire 1 " rst $end
$var reg 5 T mem_wd [4:0] $end
$var reg 32 U mem_wdata [31:0] $end
$var reg 1 3 mem_wreg $end
$upscope $end
$scope module id0 $end
$var wire 5 V ex_wd_i [4:0] $end
$var wire 32 W ex_wdata_i [31:0] $end
$var wire 1 @ ex_wreg_i $end
$var wire 1 " rst $end
$var wire 32 X reg2_data_i [31:0] $end
$var wire 32 Y reg1_data_i [31:0] $end
$var wire 32 Z pc_i [31:0] $end
$var wire 5 [ op4 [4:0] $end
$var wire 6 \ op3 [5:0] $end
$var wire 5 ] op2 [4:0] $end
$var wire 6 ^ op1 [5:0] $end
$var wire 1 2 mem_wreg_i $end
$var wire 32 _ mem_wdata_i [31:0] $end
$var wire 5 ` mem_wd_i [4:0] $end
$var wire 32 a inst_i [31:0] $end
$var reg 8 b aluop_o [7:0] $end
$var reg 3 c alusel_o [2:0] $end
$var reg 32 d immi [31:0] $end
$var reg 5 e reg1_addr_o [4:0] $end
$var reg 32 f reg1_o [31:0] $end
$var reg 1 . reg1_read_o $end
$var reg 5 g reg2_addr_o [4:0] $end
$var reg 32 h reg2_o [31:0] $end
$var reg 1 + reg2_read_o $end
$var reg 5 i wd_o [4:0] $end
$var reg 1 8 wreg_o $end
$upscope $end
$scope module id_ex0 $end
$var wire 1 ! clk $end
$var wire 8 j id_aluop [7:0] $end
$var wire 3 k id_alusel [2:0] $end
$var wire 32 l id_reg1 [31:0] $end
$var wire 32 m id_reg2 [31:0] $end
$var wire 5 n id_wd [4:0] $end
$var wire 1 8 id_wreg $end
$var wire 1 " rst $end
$var reg 8 o ex_aluop [7:0] $end
$var reg 3 p ex_alusel [2:0] $end
$var reg 32 q ex_reg1 [31:0] $end
$var reg 32 r ex_reg2 [31:0] $end
$var reg 5 s ex_wd [4:0] $end
$var reg 1 A ex_wreg $end
$upscope $end
$scope module if_id0 $end
$var wire 1 ! clk $end
$var wire 1 " rst $end
$var wire 32 t if_pc [31:0] $end
$var wire 32 u if_inst [31:0] $end
$var reg 32 v id_inst [31:0] $end
$var reg 32 w id_pc [31:0] $end
$upscope $end
$scope module mem0 $end
$var wire 1 " rst $end
$var wire 5 x wd_i [4:0] $end
$var wire 32 y wdata_i [31:0] $end
$var wire 1 3 wreg_i $end
$var reg 5 z wd_o [4:0] $end
$var reg 32 { wdata_o [31:0] $end
$var reg 1 2 wreg_o $end
$upscope $end
$scope module mem_wb0 $end
$var wire 1 ! clk $end
$var wire 5 | mem_wd [4:0] $end
$var wire 32 } mem_wdata [31:0] $end
$var wire 1 2 mem_wreg $end
$var wire 1 " rst $end
$var reg 5 ~ wb_wd [4:0] $end
$var reg 32 !" wb_wdata [31:0] $end
$var reg 1 ' wb_wreg $end
$upscope $end
$scope module pc_rom0 $end
$var wire 1 ! clk $end
$var wire 1 " rst $end
$var reg 1 # ce $end
$var reg 32 "" pc [31:0] $end
$upscope $end
$scope module regfile0 $end
$var wire 1 ! clk $end
$var wire 5 #" raddr1 [4:0] $end
$var wire 5 $" raddr2 [4:0] $end
$var wire 1 . re1 $end
$var wire 1 + re2 $end
$var wire 1 " rst $end
$var wire 5 %" waddr [4:0] $end
$var wire 32 &" wdata [31:0] $end
$var wire 1 ' we $end
$var reg 32 '" rdata1 [31:0] $end
$var reg 32 (" rdata2 [31:0] $end
$upscope $end
$upscope $end
$scope module inst_rom0 $end
$var wire 32 )" addr [31:0] $end
$var wire 1 # ce $end
$var reg 32 *" inst [31:0] $end
$upscope $end
$upscope $end
$upscope $end
$enddefinitions $end
#0
$dumpvars
bx *"
bx )"
b0 ("
b0 '"
bx &"
bx %"
b0 $"
b0 #"
bx ""
bx !"
bx ~
b0 }
b0 |
b0 {
b0 z
bx y
bx x
bx w
bx v
bx u
bx t
bx s
bx r
bx q
bx p
bx o
b0 n
b0 m
b0 l
b0 k
b0 j
b0 i
b0 h
b0 g
b0 f
b0 e
b0 d
b0 c
b0 b
bx a
b0 `
b0 _
bx ^
bx ]
bx \
bx [
bx Z
b0 Y
b0 X
b0 W
b0 V
bx U
bx T
b0 S
b0 R
b0 Q
b0 P
bx O
bx N
bx M
bx L
bx K
bx J
bx I
bx H
bx G
bx F
bx E
bx D
b0 C
b0 B
xA
0@
b0 ?
b0 >
bx =
bx <
b0 ;
b0 :
b0 9
x8
bx 7
b0 6
bx 5
b0 4
x3
02
bx 1
b0 0
b0 /
x.
b0 -
b0 ,
x+
bx *
bx )
bx (
x'
bx &
bx %
bx $
x#
1"
0!
$end
#10000
b111100000000100000010000000100 %
b111100000000100000010000000100 *
b111100000000100000010000000100 u
b111100000000100000010000000100 *"
b0 [
b0 \
b0 ]
b0 ^
b0 $
b0 &
b0 )"
b0 1
b0 t
b0 ""
b0 =
b0 a
b0 v
b0 <
b0 Z
b0 w
0A
b0 D
b0 I
b0 s
b0 E
b0 J
b0 r
b0 F
b0 K
b0 q
b0 H
b0 M
b0 o
b0 G
b0 L
b0 p
03
b0 7
b0 T
b0 x
b0 5
b0 U
b0 y
0'
b0 )
b0 ~
b0 %"
b0 (
b0 !"
b0 &"
1!
#20000
0!
#30000
1!
#40000
0!
#50000
1!
#60000
0!
#70000
1!
#80000
0!
#90000
1!
#100000
0!
#110000
1!
#120000
0!
#130000
1!
#140000
0!
#150000
1!
#160000
0!
#170000
1!
#180000
0!
#190000
1!
#195000
b0 O
18
1+
0.
b10 >
b10 c
b10 k
0"
#200000
0!
#210000
b100000001000000000000000000 :
b100000001000000000000000000 h
b100000001000000000000000000 m
b100000001000000000000000000 d
b10 9
b10 i
b10 n
0+
1.
b1 >
b1 c
b1 k
b100101 ?
b100101 b
b100101 j
b110100010000100000010000000100 %
b110100010000100000010000000100 *
b110100010000100000010000000100 u
b110100010000100000010000000100 *"
b10 -
b10 g
b10 $"
1@
b10 [
b100 \
b10000 ]
b1111 ^
b100 $
b100 &
b100 )"
b100 1
b100 t
b100 ""
b111100000000100000010000000100 =
b111100000000100000010000000100 a
b111100000000100000010000000100 v
1A
b10 G
b10 L
b10 p
1!
#220000
0!
#230000
bx /
bx Y
bx '"
b10000000100 :
b10000000100 h
b10000000100 m
b100000001000000000000000000 ;
b100000001000000000000000000 f
b100000001000000000000000000 l
b10000000100 d
b10 0
b10 e
b10 #"
12
b100000001000000000000000000 N
b10 C
b10 P
b10 R
b10 V
b100000001000000000000000000 B
b100000001000000000000000000 Q
b100000001000000000000000000 S
b100000001000000000000000000 W
b110100000001110000000000000111 %
b110100000001110000000000000111 *
b110100000001110000000000000111 u
b110100000001110000000000000111 *"
b1101 ^
13
b10 D
b10 I
b10 s
b100000001000000000000000000 E
b100000001000000000000000000 J
b100000001000000000000000000 r
b100101 H
b100101 M
b100101 o
b1 G
b1 L
b1 p
b110100010000100000010000000100 =
b110100010000100000010000000100 a
b110100010000100000010000000100 v
b100 <
b100 Z
b100 w
b1000 $
b1000 &
b1000 )"
b1000 1
b1000 t
b1000 ""
1!
#240000
0!
#250000
b0 /
b0 Y
b0 '"
b100000001000000010000000100 B
b100000001000000010000000100 Q
b100000001000000010000000100 S
b100000001000000010000000100 W
b111 :
b111 h
b111 m
b0 ;
b0 f
b0 l
b110100000001010000000000000101 %
b110100000001010000000000000101 *
b110100000001010000000000000101 u
b110100000001010000000000000101 *"
b111 d
b111 9
b111 i
b111 n
b0 0
b0 e
b0 #"
b100000001000000010000000100 N
b100000001000000000000000000 4
b100000001000000000000000000 _
b100000001000000000000000000 {
b100000001000000000000000000 }
b10 6
b10 `
b10 z
b10 |
b111 [
b111 \
b0 ]
b1100 $
b1100 &
b1100 )"
b1100 1
b1100 t
b1100 ""
b110100000001110000000000000111 =
b110100000001110000000000000111 a
b110100000001110000000000000111 v
b1000 <
b1000 Z
b1000 w
b10000000100 E
b10000000100 J
b10000000100 r
b100000001000000000000000000 F
b100000001000000000000000000 K
b100000001000000000000000000 q
b10 7
b10 T
b10 x
b100000001000000000000000000 5
b100000001000000000000000000 U
b100000001000000000000000000 y
1'
1!
#260000
0!
#270000
b111 B
b111 Q
b111 S
b111 W
b101 :
b101 h
b101 m
b100000001000000010000000100 4
b100000001000000010000000100 _
b100000001000000010000000100 {
b100000001000000010000000100 }
b111 N
b111 C
b111 P
b111 R
b111 V
b101 d
b101 9
b101 i
b101 n
b110100000010000000000000001000 %
b110100000010000000000000001000 *
b110100000010000000000000001000 u
b110100000010000000000000001000 *"
b101 [
b101 \
b10 )
b10 ~
b10 %"
b100000001000000000000000000 (
b100000001000000000000000000 !"
b100000001000000000000000000 &"
b100000001000000010000000100 5
b100000001000000010000000100 U
b100000001000000010000000100 y
b111 D
b111 I
b111 s
b111 E
b111 J
b111 r
b0 F
b0 K
b0 q
b110100000001010000000000000101 =
b110100000001010000000000000101 a
b110100000001010000000000000101 v
b1100 <
b1100 Z
b1100 w
b10000 $
b10000 &
b10000 )"
b10000 1
b10000 t
b10000 ""
1!
#280000
0!
#290000
b101 B
b101 Q
b101 S
b101 W
b1000 :
b1000 h
b1000 m
b1111 %
b1111 *
b1111 u
b1111 *"
b1000 d
b1000 9
b1000 i
b1000 n
b101 N
b101 C
b101 P
b101 R
b101 V
b111 4
b111 _
b111 {
b111 }
b111 6
b111 `
b111 z
b111 |
b1000 [
b1000 \
b10100 $
b10100 &
b10100 )"
b10100 1
b10100 t
b10100 ""
b110100000010000000000000001000 =
b110100000010000000000000001000 a
b110100000010000000000000001000 v
b10000 <
b10000 Z
b10000 w
b101 D
b101 I
b101 s
b101 E
b101 J
b101 r
b111 7
b111 T
b111 x
b111 5
b111 U
b111 y
b100000001000000010000000100 (
b100000001000000010000000100 !"
b100000001000000010000000100 &"
1!
#300000
0!
#310000
b1000 B
b1000 Q
b1000 S
b1000 W
b0 :
b0 h
b0 m
08
b0 -
b0 g
b0 $"
1+
b0 >
b0 c
b0 k
b0 ?
b0 b
b0 j
b101 4
b101 _
b101 {
b101 }
b101 6
b101 `
b101 z
b101 |
b1000 N
b1000 C
b1000 P
b1000 R
b1000 V
b0 d
b0 9
b0 i
b0 n
b100001001000000000 %
b100001001000000000 *
b100001001000000000 u
b100001001000000000 *"
b0 [
b1111 \
b0 ^
b111 )
b111 ~
b111 %"
b111 (
b111 !"
b111 &"
b101 7
b101 T
b101 x
b101 5
b101 U
b101 y
b1000 D
b1000 I
b1000 s
b1000 E
b1000 J
b1000 r
b1111 =
b1111 a
b1111 v
b10100 <
b10100 Z
b10100 w
b11000 $
b11000 &
b11000 )"
b11000 1
b11000 t
b11000 ""
1!
#320000
0!
#330000
b100000001000000010000000100 :
b100000001000000010000000100 h
b100000001000000010000000100 m
b100000001000000010000000100 ,
b100000001000000010000000100 X
b100000001000000010000000100 ("
b1000 ;
b1000 f
b1000 l
18
b1000 d
0.
b10 >
b10 c
b10 k
b111000100001000000000100 %
b111000100001000000000100 *
b111000100001000000000100 u
b111000100001000000000100 *"
b10 -
b10 g
b10 $"
b10 9
b10 i
b10 n
0@
b0 C
b0 P
b0 R
b0 V
b0 B
b0 Q
b0 S
b0 W
b1000 4
b1000 _
b1000 {
b1000 }
b1000 6
b1000 `
b1000 z
b1000 |
b10 [
b0 \
b1000 ]
b11100 $
b11100 &
b11100 )"
b11100 1
b11100 t
b11100 ""
b100001001000000000 =
b100001001000000000 a
b100001001000000000 v
b11000 <
b11000 Z
b11000 w
0A
b0 D
b0 I
b0 s
b0 E
b0 J
b0 r
b0 H
b0 M
b0 o
b0 G
b0 L
b0 p
b1000 7
b1000 T
b1000 x
b1000 5
b1000 U
b1000 y
b101 )
b101 ~
b101 %"
b101 (
b101 !"
b101 &"
1!
#340000
0!
#350000
b111 /
b111 Y
b111 '"
b100000001000000010000000000 B
b100000001000000010000000000 Q
b100000001000000010000000000 S
b100000001000000010000000000 W
b100000001000000010000000000 :
b100000001000000010000000000 h
b100000001000000010000000000 m
b111 ;
b111 f
b111 l
b111 0
b111 e
b111 #"
1.
b0 4
b0 _
b0 {
b0 }
02
b0 6
b0 `
b0 z
b0 |
b100000001000000010000000000 O
1@
b10 C
b10 P
b10 R
b10 V
b0 d
b100001001000000010 %
b100001001000000010 *
b100001001000000010 u
b100001001000000010 *"
b100 \
b0 ]
b1000 )
b1000 ~
b1000 %"
b1000 (
b1000 !"
b1000 &"
03
b0 7
b0 T
b0 x
b0 5
b0 U
b0 y
1A
b10 D
b10 I
b10 s
b100000001000000010000000100 E
b100000001000000010000000100 J
b100000001000000010000000100 r
b1000 F
b1000 K
b1000 q
b10 G
b10 L
b10 p
b111000100001000000000100 =
b111000100001000000000100 a
b111000100001000000000100 v
b11100 <
b11100 Z
b11100 w
b100000 $
b100000 &
b100000 )"
b100000 1
b100000 t
b100000 ""
1!
#360000
0!
#370000
b10000000100000000000000000 :
b10000000100000000000000000 h
b10000000100000000000000000 m
b0 /
b0 Y
b0 '"
b10000000100000000000000000 B
b10000000100000000000000000 Q
b10000000100000000000000000 S
b10000000100000000000000000 W
b1000 ;
b1000 f
b1000 l
b1000 d
0.
b10 ?
b10 b
b10 j
b101000100001000000000110 %
b101000100001000000000110 *
b101000100001000000000110 u
b101000100001000000000110 *"
b0 0
b0 e
b0 #"
b10000000100000000000000000 O
b100000001000000010000000000 4
b100000001000000010000000000 _
b100000001000000010000000000 {
b100000001000000010000000000 }
12
b10 6
b10 `
b10 z
b10 |
b10 \
b1000 ]
b100100 $
b100100 &
b100100 )"
b100100 1
b100100 t
b100100 ""
b100001001000000010 =
b100001001000000010 a
b100001001000000010 v
b100000 <
b100000 Z
b100000 w
b100000001000000010000000000 E
b100000001000000010000000000 J
b100000001000000010000000000 r
b111 F
b111 K
b111 q
13
b10 7
b10 T
b10 x
b100000001000000010000000000 5
b100000001000000010000000000 U
b100000001000000010000000000 y
0'
b0 )
b0 ~
b0 %"
b0 (
b0 !"
b0 &"
1!
#380000
0!
#390000
b100000001000000000 :
b100000001000000000 h
b100000001000000000 m
b101 /
b101 Y
b101 '"
b100000001000000000 B
b100000001000000000 Q
b100000001000000000 S
b100000001000000000 W
b101 ;
b101 f
b101 l
b101 0
b101 e
b101 #"
1.
b100000001000000010000000000 ,
b100000001000000010000000000 X
b100000001000000010000000000 ("
b10000000100000000000000000 4
b10000000100000000000000000 _
b10000000100000000000000000 {
b10000000100000000000000000 }
b100000001000000000 O
b0 d
b0 %
b0 *
b0 u
b0 *"
b110 \
b0 ]
1'
b10 )
b10 ~
b10 %"
b100000001000000010000000000 (
b100000001000000010000000000 !"
b100000001000000010000000000 &"
b10000000100000000000000000 5
b10000000100000000000000000 U
b10000000100000000000000000 y
b10000000100000000000000000 E
b10000000100000000000000000 J
b10000000100000000000000000 r
b1000 F
b1000 K
b1000 q
b10 H
b10 M
b10 o
b101000100001000000000110 =
b101000100001000000000110 a
b101000100001000000000110 v
b100100 <
b100100 Z
b100100 w
b101000 $
b101000 &
b101000 )"
b101000 1
b101000 t
b101000 ""
1!
#400000
0!
#410000
b0 /
b0 Y
b0 '"
b1000000010000 B
b1000000010000 Q
b1000000010000 S
b1000000010000 W
b0 :
b0 h
b0 m
b0 ;
b0 f
b0 l
0.
b0 ?
b0 b
b0 j
b100001010011000000 %
b100001010011000000 *
b100001010011000000 u
b100001010011000000 *"
b0 -
b0 g
b0 $"
b0 0
b0 e
b0 #"
b0 9
b0 i
b0 n
b1000000010000 O
b100000001000000000 4
b100000001000000000 _
b100000001000000000 {
b100000001000000000 }
b0 ,
b0 X
b0 ("
b0 [
b0 \
b101100 $
b101100 &
b101100 )"
b101100 1
b101100 t
b101100 ""
b0 =
b0 a
b0 v
b101000 <
b101000 Z
b101000 w
b100000001000000000 E
b100000001000000000 J
b100000001000000000 r
b101 F
b101 K
b101 q
b100000001000000000 5
b100000001000000000 U
b100000001000000000 y
b10000000100000000000000000 (
b10000000100000000000000000 !"
b10000000100000000000000000 &"
1!
#420000
0!
#430000
b0 B
b0 Q
b0 S
b0 W
b1000000010000 :
b1000000010000 h
b1000000010000 m
b10011 ;
b10011 f
b10011 l
b100000001000000000 ,
b100000001000000000 X
b100000001000000000 ("
b10011 d
b1000000010000 4
b1000000010000 _
b1000000010000 {
b1000000010000 }
b0 O
b0 C
b0 P
b0 R
b0 V
b10 -
b10 g
b10 $"
b10 9
b10 i
b10 n
b1000000 %
b1000000 *
b1000000 u
b1000000 *"
b10 [
b10011 ]
b100000001000000000 (
b100000001000000000 !"
b100000001000000000 &"
b1000000010000 5
b1000000010000 U
b1000000010000 y
b0 D
b0 I
b0 s
b0 E
b0 J
b0 r
b0 F
b0 K
b0 q
b0 H
b0 M
b0 o
b100001010011000000 =
b100001010011000000 a
b100001010011000000 v
b101100 <
b101100 Z
b101100 w
b110000 $
b110000 &
b110000 )"
b110000 1
b110000 t
b110000 ""
1!
#440000
0!
#450000
b10000000100000000000000000000000 B
b10000000100000000000000000000000 Q
b10000000100000000000000000000000 S
b10000000100000000000000000000000 W
b0 :
b0 h
b0 m
b1 ;
b1 f
b1 l
b100001010000000011 %
b100001010000000011 *
b100001010000000011 u
b100001010000000011 *"
b0 -
b0 g
b0 $"
b1 d
b0 9
b0 i
b0 n
b10000000100000000000000000000000 O
b10 C
b10 P
b10 R
b10 V
b0 4
b0 _
b0 {
b0 }
b0 6
b0 `
b0 z
b0 |
b0 ,
b0 X
b0 ("
b0 [
b1 ]
b110100 $
b110100 &
b110100 )"
b110100 1
b110100 t
b110100 ""
b1000000 =
b1000000 a
b1000000 v
b110000 <
b110000 Z
b110000 w
b10 D
b10 I
b10 s
b1000000010000 E
b1000000010000 J
b1000000010000 r
b10011 F
b10011 K
b10011 q
b0 7
b0 T
b0 x
b0 5
b0 U
b0 y
b1000000010000 (
b1000000010000 !"
b1000000010000 &"
1!
#460000
0!
#470000
b0 B
b0 Q
b0 S
b0 W
b1000000010000 ,
b1000000010000 X
b1000000010000 ("
b10000000100000000000000000000000 :
b10000000100000000000000000000000 h
b10000000100000000000000000000000 m
b10000 ;
b10000 f
b10000 l
b11 ?
b11 b
b11 j
b10000000100000000000000000000000 4
b10000000100000000000000000000000 _
b10000000100000000000000000000000 {
b10000000100000000000000000000000 }
b10 6
b10 `
b10 z
b10 |
b0 O
b0 C
b0 P
b0 R
b0 V
b10 -
b10 g
b10 $"
b10000 d
b10 9
b10 i
b10 n
b1000000100001000000000111 %
b1000000100001000000000111 *
b1000000100001000000000111 u
b1000000100001000000000111 *"
b10 [
b11 \
b10000 ]
b0 )
b0 ~
b0 %"
b0 (
b0 !"
b0 &"
b10 7
b10 T
b10 x
b10000000100000000000000000000000 5
b10000000100000000000000000000000 U
b10000000100000000000000000000000 y
b0 D
b0 I
b0 s
b0 E
b0 J
b0 r
b1 F
b1 K
b1 q
b100001010000000011 =
b100001010000000011 a
b100001010000000011 v
b110100 <
b110100 Z
b110100 w
b111000 $
b111000 &
b111000 )"
b111000 1
b111000 t
b111000 ""
1!
#480000
0!
#490000
b1000 /
b1000 Y
b1000 '"
b11111111111111111000000010000000 B
b11111111111111111000000010000000 Q
b11111111111111111000000010000000 S
b11111111111111111000000010000000 W
b11111111111111111000000010000000 :
b11111111111111111000000010000000 h
b11111111111111111000000010000000 m
b1000 ;
b1000 f
b1000 l
b1000 0
b1000 e
b1000 #"
1.
bx %
bx *
bx u
bx *"
b0 d
b11111111111111111000000010000000 O
b10 C
b10 P
b10 R
b10 V
b0 4
b0 _
b0 {
b0 }
b0 6
b0 `
b0 z
b0 |
b10000000100000000000000000000000 ,
b10000000100000000000000000000000 X
b10000000100000000000000000000000 ("
b111 \
b0 ]
b111100 $
b111100 &
b111100 )"
b111100 1
b111100 t
b111100 ""
b1000000100001000000000111 =
b1000000100001000000000111 a
b1000000100001000000000111 v
b111000 <
b111000 Z
b111000 w
b10 D
b10 I
b10 s
b10000000100000000000000000000000 E
b10000000100000000000000000000000 J
b10000000100000000000000000000000 r
b10000 F
b10000 K
b10000 q
b11 H
b11 M
b11 o
b0 7
b0 T
b0 x
b0 5
b0 U
b0 y
b10 )
b10 ~
b10 %"
b10000000100000000000000000000000 (
b10000000100000000000000000000000 !"
b10000000100000000000000000000000 &"
1!
#500000
0!
#510000
b11111111111111111111111110000000 B
b11111111111111111111111110000000 Q
b11111111111111111111111110000000 S
b11111111111111111111111110000000 W
b0 :
b0 h
b0 m
b0 ;
b0 f
b0 l
b0 ,
b0 X
b0 ("
b0 /
b0 Y
b0 '"
08
0+
0.
b1 >
b1 c
b1 k
b0 ?
b0 b
b0 j
b11111111111111111000000010000000 4
b11111111111111111000000010000000 _
b11111111111111111000000010000000 {
b11111111111111111000000010000000 }
b10 6
b10 `
b10 z
b10 |
b11111111111111111111111110000000 O
bx -
bx g
bx $"
bx 0
bx e
bx #"
b0 9
b0 i
b0 n
bx [
bx \
bx ]
bx ^
b0 )
b0 ~
b0 %"
b0 (
b0 !"
b0 &"
b10 7
b10 T
b10 x
b11111111111111111000000010000000 5
b11111111111111111000000010000000 U
b11111111111111111000000010000000 y
b11111111111111111000000010000000 E
b11111111111111111000000010000000 J
b11111111111111111000000010000000 r
b1000 F
b1000 K
b1000 q
bx =
bx a
bx v
b111100 <
b111100 Z
b111100 w
b1000000 $
b1000000 &
b1000000 )"
b1000000 1
b1000000 t
b1000000 ""
1!
#520000
0!
#530000
b0 O
0@
b0 C
b0 P
b0 R
b0 V
b1000 B
b1000 Q
b1000 S
b1000 W
b11111111111111111111111110000000 4
b11111111111111111111111110000000 _
b11111111111111111111111110000000 {
b11111111111111111111111110000000 }
b1000100 $
b1000100 &
b1000100 )"
b1000100 1
b1000100 t
b1000100 ""
b1000000 <
b1000000 Z
b1000000 w
0A
b0 D
b0 I
b0 s
b0 E
b0 J
b0 r
b0 F
b0 K
b0 q
b0 H
b0 M
b0 o
b1 G
b1 L
b1 p
b11111111111111111111111110000000 5
b11111111111111111111111110000000 U
b11111111111111111111111110000000 y
b10 )
b10 ~
b10 %"
b11111111111111111000000010000000 (
b11111111111111111000000010000000 !"
b11111111111111111000000010000000 &"
1!
#540000
0!
#550000
b1000 4
b1000 _
b1000 {
b1000 }
02
b0 6
b0 `
b0 z
b0 |
b11111111111111111111111110000000 (
b11111111111111111111111110000000 !"
b11111111111111111111111110000000 &"
03
b0 7
b0 T
b0 x
b1000 5
b1000 U
b1000 y
b1000100 <
b1000100 Z
b1000100 w
b1001000 $
b1001000 &
b1001000 )"
b1001000 1
b1001000 t
b1001000 ""
1!
#560000
0!
#570000
b1001100 $
b1001100 &
b1001100 )"
b1001100 1
b1001100 t
b1001100 ""
b1001000 <
b1001000 Z
b1001000 w
0'
b0 )
b0 ~
b0 %"
b1000 (
b1000 !"
b1000 &"
1!
#580000
0!
#590000
b1001100 <
b1001100 Z
b1001100 w
b1010000 $
b1010000 &
b1010000 )"
b1010000 1
b1010000 t
b1010000 ""
1!
#600000
0!
#610000
b1010100 $
b1010100 &
b1010100 )"
b1010100 1
b1010100 t
b1010100 ""
b1010000 <
b1010000 Z
b1010000 w
1!
#620000
0!
#630000
b1010100 <
b1010100 Z
b1010100 w
b1011000 $
b1011000 &
b1011000 )"
b1011000 1
b1011000 t
b1011000 ""
1!
#640000
0!
#650000
b1011100 $
b1011100 &
b1011100 )"
b1011100 1
b1011100 t
b1011100 ""
b1011000 <
b1011000 Z
b1011000 w
1!
#660000
0!
#670000
b1011100 <
b1011100 Z
b1011100 w
b1100000 $
b1100000 &
b1100000 )"
b1100000 1
b1100000 t
b1100000 ""
1!
#680000
0!
#690000
b1100100 $
b1100100 &
b1100100 )"
b1100100 1
b1100100 t
b1100100 ""
b1100000 <
b1100000 Z
b1100000 w
1!
#700000
0!
#710000
b1100100 <
b1100100 Z
b1100100 w
b1101000 $
b1101000 &
b1101000 )"
b1101000 1
b1101000 t
b1101000 ""
1!
#720000
0!
#730000
b1101100 $
b1101100 &
b1101100 )"
b1101100 1
b1101100 t
b1101100 ""
b1101000 <
b1101000 Z
b1101000 w
1!
#740000
0!
#750000
b1101100 <
b1101100 Z
b1101100 w
b1110000 $
b1110000 &
b1110000 )"
b1110000 1
b1110000 t
b1110000 ""
1!
#760000
0!
#770000
b1110100 $
b1110100 &
b1110100 )"
b1110100 1
b1110100 t
b1110100 ""
b1110000 <
b1110000 Z
b1110000 w
1!
#780000
0!
#790000
b1110100 <
b1110100 Z
b1110100 w
b1111000 $
b1111000 &
b1111000 )"
b1111000 1
b1111000 t
b1111000 ""
1!
