YaoPad.srcs/sources_1/cpu/openmips_min_sopc_tb.vcd
$date
	Thu Nov 23 01:14:05 2017
$end
$version
	Icarus Verilog
$end
$timescale
	1ps
$end
$scope module openmips_min_sopc_tb $end
$scope module openmips_min_sopc0 $end
$var wire 1 ! clk $end
$var wire 32 " inst [31:0] $end
$var wire 32 # inst_addr [31:0] $end
$var wire 32 $ mem_addr_i [31:0] $end
$var wire 1 % mem_ce_i $end
$var wire 32 & mem_data_i [31:0] $end
$var wire 32 ' mem_data_o [31:0] $end
$var wire 4 ( mem_sel_i [3:0] $end
$var wire 1 ) mem_we_i $end
$var wire 1 * rom_ce $end
$var wire 1 + rst $end
$scope module cpu0 $end
$var wire 1 ! clk $end
$var wire 1 , div_annul $end
$var wire 32 - div_opdata1 [31:0] $end
$var wire 32 . div_opdata2 [31:0] $end
$var wire 1 / div_ready $end
$var wire 64 0 div_result [63:0] $end
$var wire 1 1 div_signed $end
$var wire 1 2 div_start $end
$var wire 8 3 ex_aluop_i [7:0] $end
$var wire 8 4 ex_aluop_o [7:0] $end
$var wire 3 5 ex_alusel_i [2:0] $end
$var wire 32 6 ex_hi_o [31:0] $end
$var wire 32 7 ex_inst_i [31:0] $end
$var wire 1 8 ex_is_in_delayslot_i $end
$var wire 32 9 ex_link_addr_i [31:0] $end
$var wire 32 : ex_lo_o [31:0] $end
$var wire 32 ; ex_mem_addr_o [31:0] $end
$var wire 32 < ex_reg1_i [31:0] $end
$var wire 32 = ex_reg2_i [31:0] $end
$var wire 32 > ex_reg2_o [31:0] $end
$var wire 5 ? ex_wd_i [4:0] $end
$var wire 5 @ ex_wd_o [4:0] $end
$var wire 32 A ex_wdata_o [31:0] $end
$var wire 1 B ex_whilo_o $end
$var wire 1 C ex_wreg_i $end
$var wire 1 D ex_wreg_o $end
$var wire 32 E hi_o [31:0] $end
$var wire 8 F id_aluop_o [7:0] $end
$var wire 3 G id_alusel_o [2:0] $end
$var wire 1 H id_branch_flag_o $end
$var wire 32 I id_branch_target_address_o [31:0] $end
$var wire 32 J id_inst_i [31:0] $end
$var wire 32 K id_inst_o [31:0] $end
$var wire 1 L id_is_in_delayslot_i $end
$var wire 1 M id_is_in_delayslot_o $end
$var wire 32 N id_link_addr_o [31:0] $end
$var wire 1 O id_next_inst_in_delayslot_o $end
$var wire 32 P id_pc_i [31:0] $end
$var wire 32 Q id_reg1_o [31:0] $end
$var wire 32 R id_reg2_o [31:0] $end
$var wire 5 S id_wd_o [4:0] $end
$var wire 1 T id_wreg_o $end
$var wire 32 U lo_o [31:0] $end
$var wire 8 V mem_aluop_i [7:0] $end
$var wire 32 W mem_hi_i [31:0] $end
$var wire 32 X mem_hi_o [31:0] $end
$var wire 32 Y mem_lo_i [31:0] $end
$var wire 32 Z mem_lo_o [31:0] $end
$var wire 32 [ mem_mem_addr_i [31:0] $end
$var wire 32 \ mem_reg2_i [31:0] $end
$var wire 5 ] mem_wd_i [4:0] $end
$var wire 5 ^ mem_wd_o [4:0] $end
$var wire 32 _ mem_wdata_i [31:0] $end
$var wire 32 ` mem_wdata_o [31:0] $end
$var wire 1 a mem_whilo_i $end
$var wire 1 b mem_whilo_o $end
$var wire 1 c mem_wreg_i $end
$var wire 1 d mem_wreg_o $end
$var wire 32 e pc [31:0] $end
$var wire 32 f ram_addr_o [31:0] $end
$var wire 1 % ram_ce_o $end
$var wire 32 g ram_data_i [31:0] $end
$var wire 32 h ram_data_o [31:0] $end
$var wire 4 i ram_sel_o [3:0] $end
$var wire 1 ) ram_we_o $end
$var wire 5 j reg1_addr [4:0] $end
$var wire 32 k reg1_data [31:0] $end
$var wire 1 l reg1_read $end
$var wire 5 m reg2_addr [4:0] $end
$var wire 32 n reg2_data [31:0] $end
$var wire 1 o reg2_read $end
$var wire 32 p rom_addr_o [31:0] $end
$var wire 1 * rom_ce_o $end
$var wire 32 q rom_data_i [31:0] $end
$var wire 1 + rst $end
$var wire 6 r stall [5:0] $end
$var wire 1 s stalleq_from_ex $end
$var wire 1 t stalleq_from_id $end
$var wire 32 u wb_hi_i [31:0] $end
$var wire 32 v wb_hi_o [31:0] $end
$var wire 32 w wb_lo_i [31:0] $end
$var wire 32 x wb_lo_o [31:0] $end
$var wire 5 y wb_wd_i [4:0] $end
$var wire 32 z wb_wdata_i [31:0] $end
$var wire 1 { wb_whilo_i $end
$var wire 1 | wb_whilo_o $end
$var wire 1 } wb_wreg_i $end
$scope module pc_rom0 $end
$var wire 1 H branch_flag_i $end
$var wire 32 ~ branch_target_address_i [31:0] $end
$var wire 1 ! clk $end
$var wire 1 + rst $end
$var wire 6 !" stall [5:0] $end
$var reg 1 "" ce $end
$var reg 32 #" pc [31:0] $end
$upscope $end
$scope module if_id0 $end
$var wire 1 ! clk $end
$var wire 32 $" if_inst [31:0] $end
$var wire 32 %" if_pc [31:0] $end
$var wire 1 + rst $end
$var wire 6 &" stall [5:0] $end
$var reg 32 '" id_inst [31:0] $end
$var reg 32 (" id_pc [31:0] $end
$upscope $end
$scope module id0 $end
$var wire 8 )" ex_aluop_i [7:0] $end
$var wire 5 *" ex_wd_i [4:0] $end
$var wire 32 +" ex_wdata_i [31:0] $end
$var wire 1 D ex_wreg_i $end
$var wire 32 ," inst_i [31:0] $end
$var wire 1 L is_in_delayslot_i $end
$var wire 5 -" mem_wd_i [4:0] $end
$var wire 32 ." mem_wdata_i [31:0] $end
$var wire 1 d mem_wreg_i $end
$var wire 32 /" next_pc_i [31:0] $end
$var wire 6 0" op1 [5:0] $end
$var wire 5 1" op2 [4:0] $end
$var wire 6 2" op3 [5:0] $end
$var wire 5 3" op4 [4:0] $end
$var wire 32 4" pc_i [31:0] $end
$var wire 1 5" pre_inst_is_load $end
$var wire 32 6" reg1_data_i [31:0] $end
$var wire 32 7" reg2_data_i [31:0] $end
$var wire 1 + rst $end
$var wire 1 t stallreq $end
$var reg 8 8" aluop_o [7:0] $end
$var reg 3 9" alusel_o [2:0] $end
$var reg 1 :" branch_flag_o $end
$var reg 32 ;" branch_target_address_o [31:0] $end
$var reg 32 <" immi [31:0] $end
$var reg 32 =" inst_o [31:0] $end
$var reg 1 >" is_in_delayslot_o $end
$var reg 32 ?" link_addr_o [31:0] $end
$var reg 1 @" next_inst_in_delayslot_o $end
$var reg 5 A" reg1_addr_o [4:0] $end
$var reg 32 B" reg1_o [31:0] $end
$var reg 1 C" reg1_read_o $end
$var reg 5 D" reg2_addr_o [4:0] $end
$var reg 32 E" reg2_o [31:0] $end
$var reg 1 F" reg2_read_o $end
$var reg 1 G" stallreq1 $end
$var reg 1 H" stallreq2 $end
$var reg 5 I" wd_o [4:0] $end
$var reg 1 J" wreg_o $end
$upscope $end
$scope module regfile0 $end
$var wire 1 ! clk $end
$var wire 5 K" raddr1 [4:0] $end
$var wire 5 L" raddr2 [4:0] $end
$var wire 1 l re1 $end
$var wire 1 o re2 $end
$var wire 1 + rst $end
$var wire 5 M" waddr [4:0] $end
$var wire 32 N" wdata [31:0] $end
$var wire 1 } we $end
$var reg 32 O" rdata1 [31:0] $end
$var reg 32 P" rdata2 [31:0] $end
$upscope $end
$scope module id_ex0 $end
$var wire 1 ! clk $end
$var wire 8 Q" id_aluop [7:0] $end
$var wire 3 R" id_alusel [2:0] $end
$var wire 32 S" id_inst [31:0] $end
$var wire 1 M id_is_in_delayslot $end
$var wire 32 T" id_link_addr [31:0] $end
$var wire 32 U" id_reg1 [31:0] $end
$var wire 32 V" id_reg2 [31:0] $end
$var wire 5 W" id_wd [4:0] $end
$var wire 1 T id_wreg $end
$var wire 1 O next_inst_in_delayslot_i $end
$var wire 1 + rst $end
$var wire 6 X" stall [5:0] $end
$var reg 8 Y" ex_aluop [7:0] $end
$var reg 3 Z" ex_alusel [2:0] $end
$var reg 32 [" ex_inst [31:0] $end
$var reg 1 \" ex_is_in_delayslot $end
$var reg 32 ]" ex_link_addr [31:0] $end
$var reg 32 ^" ex_reg1 [31:0] $end
$var reg 32 _" ex_reg2 [31:0] $end
$var reg 5 `" ex_wd [4:0] $end
$var reg 1 a" ex_wreg $end
$var reg 1 b" is_in_delayslot_o $end
$upscope $end
$scope module ex0 $end
$var wire 32 c" add_sum [31:0] $end
$var wire 8 d" aluop_i [7:0] $end
$var wire 8 e" aluop_o [7:0] $end
$var wire 3 f" alusel_i [2:0] $end
$var wire 1 / div_ready_i $end
$var wire 64 g" div_result_i [63:0] $end
$var wire 32 h" hi_i [31:0] $end
$var wire 32 i" inst_i [31:0] $end
$var wire 1 j" is_equal $end
$var wire 1 8 is_in_delayslot_i $end
$var wire 1 k" is_less $end
$var wire 1 l" is_overflow $end
$var wire 32 m" link_addr_i [31:0] $end
$var wire 32 n" lo_i [31:0] $end
$var wire 32 o" mem_addr_o [31:0] $end
$var wire 32 p" mem_hi_i [31:0] $end
$var wire 32 q" mem_lo_i [31:0] $end
$var wire 1 b mem_whilo_i $end
$var wire 64 r" mul_ans [63:0] $end
$var wire 32 s" mul_op1 [31:0] $end
$var wire 32 t" mul_op2 [31:0] $end
$var wire 32 u" reg1_i [31:0] $end
$var wire 32 v" reg1_i_not [31:0] $end
$var wire 32 w" reg2_i [31:0] $end
$var wire 32 x" reg2_i_mux [31:0] $end
$var wire 32 y" reg2_o [31:0] $end
$var wire 1 + rst $end
$var wire 32 z" wb_hi_i [31:0] $end
$var wire 32 {" wb_lo_i [31:0] $end
$var wire 1 | wb_whilo_i $end
$var wire 5 |" wd_i [4:0] $end
$var wire 1 C wreg_i $end
$var reg 32 }" arithres [31:0] $end
$var reg 32 ~" div_opdata1_o [31:0] $end
$var reg 32 !# div_opdata2_o [31:0] $end
$var reg 1 "# div_start_o $end
$var reg 32 ## hi [31:0] $end
$var reg 32 $# hi_o [31:0] $end
$var reg 32 %# lo [31:0] $end
$var reg 32 &# lo_o [31:0] $end
$var reg 32 '# logicres [31:0] $end
$var reg 32 (# moveres [31:0] $end
$var reg 64 )# mulres [63:0] $end
$var reg 32 *# shiftres [31:0] $end
$var reg 1 +# signed_div_o $end
$var reg 1 ,# stallreq $end
$var reg 5 -# wd_o [4:0] $end
$var reg 32 .# wdata_o [31:0] $end
$var reg 1 /# whilo_o $end
$var reg 1 0# wreg_o $end
$upscope $end
$scope module ex_mem0 $end
$var wire 1 ! clk $end
$var wire 8 1# ex_aluop [7:0] $end
$var wire 32 2# ex_hi [31:0] $end
$var wire 32 3# ex_lo [31:0] $end
$var wire 32 4# ex_mem_addr [31:0] $end
$var wire 32 5# ex_reg2 [31:0] $end
$var wire 5 6# ex_wd [4:0] $end
$var wire 32 7# ex_wdata [31:0] $end
$var wire 1 B ex_whilo $end
$var wire 1 D ex_wreg $end
$var wire 1 + rst $end
$var wire 6 8# stall [5:0] $end
$var reg 8 9# mem_aluop [7:0] $end
$var reg 32 :# mem_hi [31:0] $end
$var reg 32 ;# mem_lo [31:0] $end
$var reg 32 <# mem_mem_addr [31:0] $end
$var reg 32 =# mem_reg2 [31:0] $end
$var reg 5 ># mem_wd [4:0] $end
$var reg 32 ?# mem_wdata [31:0] $end
$var reg 1 @# mem_whilo $end
$var reg 1 A# mem_wreg $end
$upscope $end
$scope module mem0 $end
$var wire 2 B# addr_mod4 [1:0] $end
$var wire 8 C# aluop_i [7:0] $end
$var wire 32 D# hi_i [31:0] $end
$var wire 32 E# lo_i [31:0] $end
$var wire 32 F# mem_addr_i [31:0] $end
$var wire 32 G# mem_data_i [31:0] $end
$var wire 32 H# reg2_i [31:0] $end
$var wire 1 + rst $end
$var wire 5 I# wd_i [4:0] $end
$var wire 32 J# wdata_i [31:0] $end
$var wire 1 a whilo_i $end
$var wire 1 c wreg_i $end
$var reg 32 K# hi_o [31:0] $end
$var reg 32 L# lo_o [31:0] $end
$var reg 32 M# mem_addr_o [31:0] $end
$var reg 1 N# mem_ce_o $end
$var reg 32 O# mem_data_o [31:0] $end
$var reg 4 P# mem_sel_o [3:0] $end
$var reg 1 Q# mem_we_o $end
$var reg 5 R# wd_o [4:0] $end
$var reg 32 S# wdata_o [31:0] $end
$var reg 1 T# whilo_o $end
$var reg 1 U# wreg_o $end
$upscope $end
$scope module mem_wb0 $end
$var wire 1 ! clk $end
$var wire 32 V# mem_hi [31:0] $end
$var wire 32 W# mem_lo [31:0] $end
$var wire 5 X# mem_wd [4:0] $end
$var wire 32 Y# mem_wdata [31:0] $end
$var wire 1 b mem_whilo $end
$var wire 1 d mem_wreg $end
$var wire 1 + rst $end
$var wire 6 Z# stall [5:0] $end
$var reg 32 [# wb_hi [31:0] $end
$var reg 32 \# wb_lo [31:0] $end
$var reg 5 ]# wb_wd [4:0] $end
$var reg 32 ^# wb_wdata [31:0] $end
$var reg 1 _# wb_whilo $end
$var reg 1 `# wb_wreg $end
$upscope $end
$scope module hilo0 $end
$var wire 1 ! clk $end
$var wire 32 a# hi_i [31:0] $end
$var wire 32 b# lo_i [31:0] $end
$var wire 1 + rst $end
$var wire 1 { we $end
$var reg 32 c# hi_o [31:0] $end
$var reg 32 d# lo_o [31:0] $end
$upscope $end
$scope module ctrl0 $end
$var wire 1 + rst $end
$var wire 1 s stalleq_from_ex $end
$var wire 1 t stalleq_from_id $end
$var reg 6 e# stall [5:0] $end
$upscope $end
$scope module div0 $end
$var wire 1 , annul_i $end
$var wire 1 ! clk $end
$var wire 32 f# opdata1_i [31:0] $end
$var wire 32 g# opdata2_i [31:0] $end
$var wire 1 + rst $end
$var wire 1 1 signed_div_i $end
$var wire 1 2 start_i $end
$var wire 33 h# tempres [32:0] $end
$var reg 6 i# cnt [5:0] $end
$var reg 32 j# divider [31:0] $end
$var reg 1 k# ready_o $end
$var reg 65 l# result [64:0] $end
$var reg 64 m# result_o [63:0] $end
$var reg 2 n# state [1:0] $end
$upscope $end
$upscope $end
$scope module inst_rom0 $end
$var wire 32 o# addr [31:0] $end
$var wire 1 * ce $end
$var reg 32 p# inst [31:0] $end
$upscope $end
$scope module data_ram0 $end
$var wire 32 q# addr [31:0] $end
$var wire 1 % ce $end
$var wire 1 ! clk $end
$var wire 32 r# data_i [31:0] $end
$var wire 4 s# sel [3:0] $end
$var wire 1 ) we $end
$var reg 32 t# data_o [31:0] $end
$upscope $end
$upscope $end
$upscope $end
$enddefinitions $end
#0
$dumpvars
b0 t#
b0 s#
b0 r#
b0 q#
bx p#
bx o#
bx n#
bx m#
bx l#
xk#
bx j#
bx i#
bx h#
bx g#
bx f#
b0 e#
bx d#
bx c#
bx b#
bx a#
x`#
x_#
bx ^#
bx ]#
bx \#
bx [#
b0 Z#
b0 Y#
b0 X#
bx W#
bx V#
0U#
0T#
b0 S#
b0 R#
0Q#
b0 P#
b0 O#
0N#
b0 M#
bx L#
bx K#
bx J#
bx I#
bx H#
b0 G#
bx F#
bx E#
bx D#
bx C#
bx B#
xA#
x@#
bx ?#
bx >#
bx =#
bx <#
bx ;#
bx :#
bx 9#
b0 8#
b0 7#
b0 6#
bx 5#
bx 4#
b0 3#
b0 2#
bx 1#
00#
x/#
b0 .#
b0 -#
0,#
x+#
b0 *#
b0 )#
b0 (#
b0 '#
b0 &#
b0 %#
b0 $#
b0 ##
x"#
bx !#
bx ~"
b0 }"
bx |"
bz {"
bz z"
bx y"
bx x"
bx w"
bx v"
bx u"
bx t"
bx s"
bx r"
bx q"
bx p"
bx o"
bx n"
bx m"
xl"
xk"
xj"
bx i"
bx h"
bx g"
bx f"
bx e"
bx d"
bx c"
xb"
xa"
bx `"
bx _"
bx ^"
bx ]"
x\"
bx ["
bx Z"
bx Y"
b0 X"
b0 W"
b0 V"
b0 U"
b0 T"
b0 S"
b0 R"
b0 Q"
b0 P"
b0 O"
bx N"
bx M"
b0 L"
b0 K"
xJ"
b0 I"
0H"
0G"
xF"
b0 E"
b0 D"
xC"
b0 B"
b0 A"
0@"
b0 ?"
0>"
b0 ="
b0 <"
b0 ;"
0:"
b0 9"
b0 8"
b0 7"
b0 6"
x5"
bx 4"
bx 3"
bx 2"
bx 1"
bx 0"
bx /"
b0 ."
b0 -"
bx ,"
b0 +"
b0 *"
bx )"
bx ("
bx '"
b0 &"
bx %"
bx $"
bx #"
x""
b0 !"
b0 ~
x}
z|
x{
bx z
bx y
bz x
bx w
bz v
bx u
0t
0s
b0 r
bx q
bx p
xo
b0 n
b0 m
xl
b0 k
b0 j
b0 i
b0 h
b0 g
b0 f
bx e
0d
xc
0b
xa
b0 `
bx _
b0 ^
bx ]
bx \
bx [
bx Z
bx Y
bx X
bx W
bx V
bx U
xT
b0 S
b0 R
b0 Q
bx P
0O
b0 N
0M
xL
b0 K
bx J
b0 I
0H
b0 G
b0 F
bx E
0D
xC
xB
b0 A
b0 @
bx ?
bx >
bx =
bx <
bx ;
b0 :
bx 9
x8
bx 7
b0 6
bx 5
bx 4
bx 3
x2
x1
bx 0
x/
bx .
bx -
0,
1+
x*
0)
b0 (
b0 '
b0 &
0%
b0 $
bx #
bx "
0!
$end
#10000
b110100000000010001001000110100 p#
b110100000000010001001000110100 "
b110100000000010001001000110100 q
b110100000000010001001000110100 $"
0l"
b0 c"
b0 x"
b0 r"
b0 t"
b0 s"
05"
b0 0"
b0 1"
b0 2"
b0 3"
b100 /"
b0 ;
b0 o"
b0 4#
b0 v"
0k"
b0 B#
b0 h#
b0 #"
b0 e
b0 %"
b0 #
b0 p
b0 o#
b0 '"
b0 J
b0 ,"
b0 ("
b0 P
b0 4"
0b"
0L
b0 ]"
b0 9
b0 m"
0\"
08
0a"
0C
b0 `"
b0 ?
b0 |"
b0 ["
b0 7
b0 i"
b0 _"
b0 >
b0 y"
b0 5#
1j"
b0 =
b0 w"
b0 ^"
b0 <
b0 u"
b0 Y"
b0 4
b0 )"
b0 e"
b0 1#
b0 3
b0 d"
b0 Z"
b0 5
b0 f"
b0 9#
b0 V
b0 C#
b0 <#
b0 [
b0 F#
b0 =#
b0 \
b0 H#
0@#
0a
0A#
0c
b0 >#
b0 ]
b0 I#
b0 ?#
b0 _
b0 J#
0_#
0{
0`#
0}
b0 ]#
b0 y
b0 M"
b0 ^#
b0 z
b0 N"
b0 d#
b0 U
b0 n"
b0 c#
b0 E
b0 h"
b0 l#
b0 j#
b0 m#
b0 0
b0 g"
0k#
0/
b0 n#
1!
#20000
0!
#30000
1!
#40000
0!
#50000
1!
#60000
0!
#70000
1!
#80000
0!
#90000
1!
#100000
0!
#110000
1!
#120000
0!
#130000
1!
#140000
0!
#150000
1!
#160000
0!
#170000
1!
#180000
0!
#190000
1!
#195000
0/#
0B
0"#
02
b10 9"
b10 G
b10 R"
b1000 ?"
b1000 N
b1000 T"
1J"
1T
1F"
1o
0C"
0l
0+
#200000
0!
#210000
b1001000110100 E"
b1001000110100 R
b1001000110100 V"
b1 9"
b1 G
b1 R"
b100101 8"
b100101 F
b100101 Q"
b10101100000000010000000000000000 p#
b10101100000000010000000000000000 "
b10101100000000010000000000000000 q
b10101100000000010000000000000000 $"
b1 D"
b1 m
b1 L"
b1001000110100 <"
b1 I"
b1 S
b1 W"
0F"
0o
1C"
1l
b110100000000010001001000110100 ="
b110100000000010001001000110100 K
b110100000000010001001000110100 S"
10#
1D
b0 L#
b0 Z
b0 q"
b0 W#
b0 K#
b0 X
b0 p"
b0 V#
b1101 0"
b1000 1"
b110100 2"
b1 3"
b100 #"
b100 e
b100 %"
b100 #
b100 p
b100 o#
b110100000000010001001000110100 '"
b110100000000010001001000110100 J
b110100000000010001001000110100 ,"
b1000 ]"
b1000 9
b1000 m"
1a"
1C
b10 Z"
b10 5
b10 f"
b0 ;#
b0 Y
b0 E#
b0 :#
b0 W
b0 D#
1!
#220000
0!
#230000
bx P"
bx n
bx 7"
b1001000110100 .#
b1001000110100 A
b1001000110100 +"
b1001000110100 7#
b1001000110100 E"
b1001000110100 R
b1001000110100 V"
1F"
1o
b111 9"
b111 G
b111 R"
b11101011 8"
b11101011 F
b11101011 Q"
0J"
0T
1U#
1d
b1001000110100 '#
b1 -#
b1 @
b1 *"
b1 6#
b1100 ?"
b1100 N
b1100 T"
b0 <"
b10101100000000010000000000000000 ="
b10101100000000010000000000000000 K
b10101100000000010000000000000000 S"
b110100000000100001001000110100 p#
b110100000000100001001000110100 "
b110100000000100001001000110100 q
b110100000000100001001000110100 $"
b1001000110100 c"
b1001000110100 x"
b1001000110100 t"
b1001000110100 ;
b1001000110100 o"
b1001000110100 4#
1k"
b101011 0"
b0 1"
b0 2"
b1000 /"
b0 \#
b0 w
b0 b#
b0 [#
b0 u
b0 a#
1A#
1c
b110100000000010001001000110100 ["
b110100000000010001001000110100 7
b110100000000010001001000110100 i"
b1 `"
b1 ?
b1 |"
b1001000110100 _"
b1001000110100 >
b1001000110100 y"
b1001000110100 5#
0j"
b1001000110100 =
b1001000110100 w"
b100101 Y"
b100101 4
b100101 )"
b100101 e"
b100101 1#
b100101 3
b100101 d"
b1 Z"
b1 5
b1 f"
b10101100000000010000000000000000 '"
b10101100000000010000000000000000 J
b10101100000000010000000000000000 ,"
b100 ("
b100 P
b100 4"
b1000 #"
b1000 e
b1000 %"
b1000 #
b1000 p
b1000 o#
1!
#240000
0!
#250000
b0 P"
b0 n
b0 7"
b1 9"
b1 G
b1 R"
b100101 8"
b100101 F
b100101 Q"
b110100000000010000000000000000 p#
b110100000000010000000000000000 "
b110100000000010000000000000000 q
b110100000000010000000000000000 $"
b10 D"
b10 m
b10 L"
b10000 ?"
b10000 N
b10000 T"
b1001000110100 <"
1J"
1T
b10 I"
b10 S
b10 W"
0F"
0o
b110100000000100001001000110100 ="
b110100000000100001001000110100 K
b110100000000100001001000110100 S"
b0 '#
b0 .#
b0 A
b0 +"
b0 7#
00#
0D
b1001000110100 O#
b1001000110100 &
b1001000110100 h
b1001000110100 r#
b1001000110100 M#
b1001000110100 $
b1001000110100 f
b1001000110100 q#
b1001000110100 S#
b1001000110100 `
b1001000110100 ."
b1001000110100 Y#
b1 R#
b1 ^
b1 -"
b1 X#
b1101 0"
b1000 1"
b110100 2"
b10 3"
b1100 /"
b0 ;
b0 o"
b0 4#
b1100 #"
b1100 e
b1100 %"
b1100 #
b1100 p
b1100 o#
b110100000000100001001000110100 '"
b110100000000100001001000110100 J
b110100000000100001001000110100 ,"
b1000 ("
b1000 P
b1000 4"
b1100 ]"
b1100 9
b1100 m"
b10101100000000010000000000000000 ["
b10101100000000010000000000000000 7
b10101100000000010000000000000000 i"
0a"
0C
b11101011 Y"
b11101011 4
b11101011 )"
b11101011 e"
b11101011 1#
b11101011 3
b11101011 d"
b111 Z"
b111 5
b111 f"
b100101 9#
b100101 V
b100101 C#
b1001000110100 <#
b1001000110100 [
b1001000110100 F#
b1001000110100 =#
b1001000110100 \
b1001000110100 H#
b1 >#
b1 ]
b1 I#
b1001000110100 ?#
b1001000110100 _
b1001000110100 J#
1`#
1}
1!
#260000
0!
#270000
b1001000110100 .#
b1001000110100 A
b1001000110100 +"
b1001000110100 7#
b0 E"
b0 R
b0 V"
b1111 P#
b1111 (
b1111 i
b1111 s#
1N#
1%
1Q#
1)
b0 M#
b0 $
b0 f
b0 q#
b0 S#
b0 `
b0 ."
b0 Y#
0U#
0d
b1001000110100 '#
10#
1D
b10 -#
b10 @
b10 *"
b10 6#
b10100 ?"
b10100 N
b10100 T"
b0 <"
b1 I"
b1 S
b1 W"
b110100000000010000000000000000 ="
b110100000000010000000000000000 K
b110100000000010000000000000000 S"
b10001100000000010000000000000000 p#
b10001100000000010000000000000000 "
b10001100000000010000000000000000 q
b10001100000000010000000000000000 $"
b1001000110100 ;
b1001000110100 o"
b1001000110100 4#
b0 1"
b0 2"
b1 3"
b10000 /"
b1 ]#
b1 y
b1 M"
b1001000110100 ^#
b1001000110100 z
b1001000110100 N"
b11101011 9#
b11101011 V
b11101011 C#
b0 <#
b0 [
b0 F#
0A#
0c
b0 ?#
b0 _
b0 J#
b10000 ]"
b10000 9
b10000 m"
b110100000000100001001000110100 ["
b110100000000100001001000110100 7
b110100000000100001001000110100 i"
1a"
1C
b10 `"
b10 ?
b10 |"
b100101 Y"
b100101 4
b100101 )"
b100101 e"
b100101 1#
b100101 3
b100101 d"
b1 Z"
b1 5
b1 f"
b110100000000010000000000000000 '"
b110100000000010000000000000000 J
b110100000000010000000000000000 ,"
b1100 ("
b1100 P
b1100 4"
b10000 #"
b10000 e
b10000 %"
b10000 #
b10000 p
b10000 o#
1!
#280000
0!
#290000
b0 .#
b0 A
b0 +"
b0 7#
b111 9"
b111 G
b111 R"
b11100011 8"
b11100011 F
b11100011 Q"
b1 D"
b1 m
b1 L"
b10000001000100000000000000011 p#
b10000001000100000000000000011 "
b10000001000100000000000000011 q
b10000001000100000000000000011 $"
b11000 ?"
b11000 N
b11000 T"
b10001100000000010000000000000000 ="
b10001100000000010000000000000000 K
b10001100000000010000000000000000 S"
b1 -#
b1 @
b1 *"
b1 6#
b0 '#
b0 P#
b0 (
b0 i
b0 s#
0N#
0%
0Q#
0)
b1001000110100 M#
b1001000110100 $
b1001000110100 f
b1001000110100 q#
b1001000110100 S#
b1001000110100 `
b1001000110100 ."
b1001000110100 Y#
1U#
1d
b10 R#
b10 ^
b10 -"
b10 X#
b0 c"
b0 x"
b0 t"
b100011 0"
b10100 /"
b0 ;
b0 o"
b0 4#
0k"
b10100 #"
b10100 e
b10100 %"
b10100 #
b10100 p
b10100 o#
b10001100000000010000000000000000 '"
b10001100000000010000000000000000 J
b10001100000000010000000000000000 ,"
b10000 ("
b10000 P
b10000 4"
b10100 ]"
b10100 9
b10100 m"
b110100000000010000000000000000 ["
b110100000000010000000000000000 7
b110100000000010000000000000000 i"
b1 `"
b1 ?
b1 |"
b0 _"
b0 >
b0 y"
b0 5#
1j"
b0 =
b0 w"
b100101 9#
b100101 V
b100101 C#
b1001000110100 <#
b1001000110100 [
b1001000110100 F#
1A#
1c
b10 >#
b10 ]
b10 I#
b1001000110100 ?#
b1001000110100 _
b1001000110100 J#
0`#
0}
b0 ^#
b0 z
b0 N"
1!
#300000
0!
#310000
b111 e#
b111 r
b111 !"
b111 &"
b111 X"
b111 8#
b111 Z#
b1001000110100 E"
b1001000110100 R
b1001000110100 V"
1t
b1001000110100 P"
b1001000110100 n
b1001000110100 7"
b1001000110100 O"
b1001000110100 k
b1001000110100 6"
1G"
0:"
0H
0@"
0O
b0 ;"
b0 I
b0 ~
1F"
1o
0J"
0T
b110 9"
b110 G
b110 R"
b1001111 8"
b1001111 F
b1001111 Q"
b0 O#
b0 &
b0 h
b0 r#
b0 M#
b0 $
b0 f
b0 q#
b0 S#
b0 `
b0 ."
b0 Y#
b1 R#
b1 ^
b1 -"
b1 X#
b10 D"
b10 m
b10 L"
b11100 ?"
b11100 N
b11100 T"
b11 <"
b10 I"
b10 S
b10 W"
b1 A"
b1 j
b1 K"
b10000001000100000000000000011 ="
b10000001000100000000000000011 K
b10000001000100000000000000011 S"
b0 p#
b0 "
b0 q
b0 $"
15"
b100 0"
b11 2"
b10 3"
b11000 /"
1`#
1}
b10 ]#
b10 y
b10 M"
b1001000110100 ^#
b1001000110100 z
b1001000110100 N"
b0 <#
b0 [
b0 F#
b0 =#
b0 \
b0 H#
b1 >#
b1 ]
b1 I#
b0 ?#
b0 _
b0 J#
b11000 ]"
b11000 9
b11000 m"
b10001100000000010000000000000000 ["
b10001100000000010000000000000000 7
b10001100000000010000000000000000 i"
b11100011 Y"
b11100011 4
b11100011 )"
b11100011 e"
b11100011 1#
b11100011 3
b11100011 d"
b111 Z"
b111 5
b111 f"
b10000001000100000000000000011 '"
b10000001000100000000000000011 J
b10000001000100000000000000011 ,"
b10100 ("
b10100 P
b10100 4"
b11000 #"
b11000 e
b11000 %"
b11000 #
b11000 p
b11000 o#
1!
#320000
0!
#330000
1:"
1H
1@"
1O
b100100 ;"
b100100 I
b100100 ~
b1001000110100 B"
b1001000110100 Q
b1001000110100 U"
b1001000110100 S#
b1001000110100 `
b1001000110100 ."
b1001000110100 Y#
b0 e#
b0 r
b0 !"
b0 &"
b0 X"
b0 8#
b0 Z#
b1001000110100 t#
b1001000110100 '
b1001000110100 g
b1001000110100 G#
0J"
0T
1F"
1o
0t
0G"
00#
0D
b0 -#
b0 @
b0 *"
b0 6#
b1111 P#
b1111 (
b1111 i
b1111 s#
1N#
1%
b0 O"
b0 k
b0 6"
05"
b0 ]"
b0 9
b0 m"
0a"
0C
b0 `"
b0 ?
b0 |"
b0 ["
b0 7
b0 i"
b0 Y"
b0 4
b0 )"
b0 e"
b0 1#
b0 3
b0 d"
b0 Z"
b0 5
b0 f"
b11100011 9#
b11100011 V
b11100011 C#
b1 ]#
b1 y
b1 M"
b0 ^#
b0 z
b0 N"
1!
#340000
0!
