YaoPad.srcs/sources_1/cpu/openmips_min_sopc_tb.vcd
$date
	Wed Nov 22 14:40:10 2017
$end
$version
	Icarus Verilog
$end
$timescale
	1ps
$end
$scope module openmips_min_sopc_tb $end
$scope module openmips_min_sopc0 $end
$var wire 1 ! clk $end
$var wire 32 " inst [31:0] $end
$var wire 32 # inst_addr [31:0] $end
$var wire 1 $ rom_ce $end
$var wire 1 % rst $end
$scope module cpu0 $end
$var wire 1 ! clk $end
$var wire 1 & div_annul $end
$var wire 32 ' div_opdata1 [31:0] $end
$var wire 32 ( div_opdata2 [31:0] $end
$var wire 1 ) div_ready $end
$var wire 64 * div_result [63:0] $end
$var wire 1 + div_signed $end
$var wire 1 , div_start $end
$var wire 8 - ex_aluop_i [7:0] $end
$var wire 3 . ex_alusel_i [2:0] $end
$var wire 32 / ex_hi_o [31:0] $end
$var wire 32 0 ex_inst_o [31:0] $end
$var wire 1 1 ex_is_in_delayslot_i $end
$var wire 32 2 ex_link_addr_i [31:0] $end
$var wire 32 3 ex_lo_o [31:0] $end
$var wire 32 4 ex_reg1_i [31:0] $end
$var wire 32 5 ex_reg2_i [31:0] $end
$var wire 5 6 ex_wd_i [4:0] $end
$var wire 5 7 ex_wd_o [4:0] $end
$var wire 32 8 ex_wdata_o [31:0] $end
$var wire 1 9 ex_whilo_o $end
$var wire 1 : ex_wreg_i $end
$var wire 1 ; ex_wreg_o $end
$var wire 32 < hi_o [31:0] $end
$var wire 8 = id_aluop_o [7:0] $end
$var wire 3 > id_alusel_o [2:0] $end
$var wire 1 ? id_branch_flag_o $end
$var wire 32 @ id_branch_target_address_o [31:0] $end
$var wire 32 A id_inst_i [31:0] $end
$var wire 32 B id_inst_o [31:0] $end
$var wire 1 C id_is_in_delayslot_i $end
$var wire 1 D id_is_in_delayslot_o $end
$var wire 32 E id_link_addr_o [31:0] $end
$var wire 1 F id_next_inst_in_delayslot_o $end
$var wire 32 G id_pc_i [31:0] $end
$var wire 32 H id_reg1_o [31:0] $end
$var wire 32 I id_reg2_o [31:0] $end
$var wire 5 J id_wd_o [4:0] $end
$var wire 1 K id_wreg_o $end
$var wire 32 L lo_o [31:0] $end
$var wire 32 M mem_hi_i [31:0] $end
$var wire 32 N mem_hi_o [31:0] $end
$var wire 32 O mem_lo_i [31:0] $end
$var wire 32 P mem_lo_o [31:0] $end
$var wire 5 Q mem_wd_i [4:0] $end
$var wire 5 R mem_wd_o [4:0] $end
$var wire 32 S mem_wdata_i [31:0] $end
$var wire 32 T mem_wdata_o [31:0] $end
$var wire 1 U mem_whilo_i $end
$var wire 1 V mem_whilo_o $end
$var wire 1 W mem_wreg_i $end
$var wire 1 X mem_wreg_o $end
$var wire 32 Y pc [31:0] $end
$var wire 5 Z reg1_addr [4:0] $end
$var wire 32 [ reg1_data [31:0] $end
$var wire 1 \ reg1_read $end
$var wire 5 ] reg2_addr [4:0] $end
$var wire 32 ^ reg2_data [31:0] $end
$var wire 1 _ reg2_read $end
$var wire 1 ` reqstalleq_from_id $end
$var wire 32 a rom_addr_o [31:0] $end
$var wire 1 $ rom_ce_o $end
$var wire 32 b rom_data_i [31:0] $end
$var wire 1 % rst $end
$var wire 6 c stall [5:0] $end
$var wire 1 d stalleq_from_ex $end
$var wire 1 e stalleq_from_id $end
$var wire 32 f wb_hi_i [31:0] $end
$var wire 32 g wb_hi_o [31:0] $end
$var wire 32 h wb_lo_i [31:0] $end
$var wire 32 i wb_lo_o [31:0] $end
$var wire 5 j wb_wd_i [4:0] $end
$var wire 32 k wb_wdata_i [31:0] $end
$var wire 1 l wb_whilo_i $end
$var wire 1 m wb_whilo_o $end
$var wire 1 n wb_wreg_i $end
$scope module pc_rom0 $end
$var wire 1 ? branch_flag_i $end
$var wire 32 o branch_target_address_i [31:0] $end
$var wire 1 ! clk $end
$var wire 1 % rst $end
$var wire 6 p stall [5:0] $end
$var reg 1 q ce $end
$var reg 32 r pc [31:0] $end
$upscope $end
$scope module if_id0 $end
$var wire 1 ! clk $end
$var wire 32 s if_inst [31:0] $end
$var wire 32 t if_pc [31:0] $end
$var wire 1 % rst $end
$var wire 6 u stall [5:0] $end
$var reg 32 v id_inst [31:0] $end
$var reg 32 w id_pc [31:0] $end
$upscope $end
$scope module id0 $end
$var wire 5 x ex_wd_i [4:0] $end
$var wire 32 y ex_wdata_i [31:0] $end
$var wire 1 ; ex_wreg_i $end
$var wire 32 z inst_i [31:0] $end
$var wire 1 C is_in_delayslot_i $end
$var wire 5 { mem_wd_i [4:0] $end
$var wire 32 | mem_wdata_i [31:0] $end
$var wire 1 X mem_wreg_i $end
$var wire 32 } next_pc_i [31:0] $end
$var wire 6 ~ op1 [5:0] $end
$var wire 5 !" op2 [4:0] $end
$var wire 6 "" op3 [5:0] $end
$var wire 5 #" op4 [4:0] $end
$var wire 32 $" pc_i [31:0] $end
$var wire 32 %" reg1_data_i [31:0] $end
$var wire 32 &" reg2_data_i [31:0] $end
$var wire 1 % rst $end
$var reg 8 '" aluop_o [7:0] $end
$var reg 3 (" alusel_o [2:0] $end
$var reg 1 )" branch_flag_o $end
$var reg 32 *" branch_target_address_o [31:0] $end
$var reg 32 +" immi [31:0] $end
$var reg 32 ," inst_o [31:0] $end
$var reg 1 -" is_in_delayslot_o $end
$var reg 32 ." link_addr_o [31:0] $end
$var reg 1 /" next_inst_in_delayslot_o $end
$var reg 5 0" reg1_addr_o [4:0] $end
$var reg 32 1" reg1_o [31:0] $end
$var reg 1 2" reg1_read_o $end
$var reg 5 3" reg2_addr_o [4:0] $end
$var reg 32 4" reg2_o [31:0] $end
$var reg 1 5" reg2_read_o $end
$var reg 1 6" stallreq $end
$var reg 5 7" wd_o [4:0] $end
$var reg 1 8" wreg_o $end
$upscope $end
$scope module regfile0 $end
$var wire 1 ! clk $end
$var wire 5 9" raddr1 [4:0] $end
$var wire 5 :" raddr2 [4:0] $end
$var wire 1 \ re1 $end
$var wire 1 _ re2 $end
$var wire 1 % rst $end
$var wire 5 ;" waddr [4:0] $end
$var wire 32 <" wdata [31:0] $end
$var wire 1 n we $end
$var reg 32 =" rdata1 [31:0] $end
$var reg 32 >" rdata2 [31:0] $end
$upscope $end
$scope module id_ex0 $end
$var wire 1 ! clk $end
$var wire 8 ?" id_aluop [7:0] $end
$var wire 3 @" id_alusel [2:0] $end
$var wire 32 A" id_inst [31:0] $end
$var wire 1 D id_is_in_delayslot $end
$var wire 32 B" id_link_addr [31:0] $end
$var wire 32 C" id_reg1 [31:0] $end
$var wire 32 D" id_reg2 [31:0] $end
$var wire 5 E" id_wd [4:0] $end
$var wire 1 K id_wreg $end
$var wire 1 F next_inst_in_delayslot_i $end
$var wire 1 % rst $end
$var wire 6 F" stall [5:0] $end
$var reg 8 G" ex_aluop [7:0] $end
$var reg 3 H" ex_alusel [2:0] $end
$var reg 32 I" ex_inst [31:0] $end
$var reg 1 J" ex_is_in_delayslot $end
$var reg 32 K" ex_link_addr [31:0] $end
$var reg 32 L" ex_reg1 [31:0] $end
$var reg 32 M" ex_reg2 [31:0] $end
$var reg 5 N" ex_wd [4:0] $end
$var reg 1 O" ex_wreg $end
$var reg 1 P" is_in_delayslot_o $end
$upscope $end
$scope module ex0 $end
$var wire 32 Q" add_sum [31:0] $end
$var wire 8 R" aluop_i [7:0] $end
$var wire 8 S" aluop_o [7:0] $end
$var wire 3 T" alusel_i [2:0] $end
$var wire 1 ) div_ready_i $end
$var wire 64 U" div_result_i [63:0] $end
$var wire 32 V" hi_i [31:0] $end
$var wire 32 W" inst_i [31:0] $end
$var wire 1 X" is_equal $end
$var wire 1 1 is_in_delayslot_i $end
$var wire 1 Y" is_less $end
$var wire 1 Z" is_overflow $end
$var wire 32 [" link_addr_i [31:0] $end
$var wire 32 \" lo_i [31:0] $end
$var wire 32 ]" mem_addr_o [31:0] $end
$var wire 32 ^" mem_hi_i [31:0] $end
$var wire 32 _" mem_lo_i [31:0] $end
$var wire 1 V mem_whilo_i $end
$var wire 64 `" mul_ans [63:0] $end
$var wire 32 a" mul_op1 [31:0] $end
$var wire 32 b" mul_op2 [31:0] $end
$var wire 32 c" reg1_i [31:0] $end
$var wire 32 d" reg1_i_not [31:0] $end
$var wire 32 e" reg2_i [31:0] $end
$var wire 32 f" reg2_i_mux [31:0] $end
$var wire 32 g" reg2_o [31:0] $end
$var wire 1 % rst $end
$var wire 32 h" wb_hi_i [31:0] $end
$var wire 32 i" wb_lo_i [31:0] $end
$var wire 1 m wb_whilo_i $end
$var wire 5 j" wd_i [4:0] $end
$var wire 1 : wreg_i $end
$var reg 32 k" arithres [31:0] $end
$var reg 32 l" div_opdata1_o [31:0] $end
$var reg 32 m" div_opdata2_o [31:0] $end
$var reg 1 n" div_start_o $end
$var reg 32 o" hi [31:0] $end
$var reg 32 p" hi_o [31:0] $end
$var reg 32 q" lo [31:0] $end
$var reg 32 r" lo_o [31:0] $end
$var reg 32 s" logicres [31:0] $end
$var reg 32 t" moveres [31:0] $end
$var reg 64 u" mulres [63:0] $end
$var reg 32 v" shiftres [31:0] $end
$var reg 1 w" signed_div_o $end
$var reg 1 x" stallreq $end
$var reg 5 y" wd_o [4:0] $end
$var reg 32 z" wdata_o [31:0] $end
$var reg 1 {" whilo_o $end
$var reg 1 |" wreg_o $end
$upscope $end
$scope module ex_mem0 $end
$var wire 1 ! clk $end
$var wire 8 }" ex_aluop [7:0] $end
$var wire 32 ~" ex_hi [31:0] $end
$var wire 32 !# ex_lo [31:0] $end
$var wire 32 "# ex_mem_addr [31:0] $end
$var wire 32 ## ex_reg2 [31:0] $end
$var wire 5 $# ex_wd [4:0] $end
$var wire 32 %# ex_wdata [31:0] $end
$var wire 1 9 ex_whilo $end
$var wire 1 ; ex_wreg $end
$var wire 1 % rst $end
$var wire 6 &# stall [5:0] $end
$var reg 8 '# mem_aluop [7:0] $end
$var reg 32 (# mem_hi [31:0] $end
$var reg 32 )# mem_lo [31:0] $end
$var reg 32 *# mem_mem_addr [31:0] $end
$var reg 32 +# mem_reg2 [31:0] $end
$var reg 5 ,# mem_wd [4:0] $end
$var reg 32 -# mem_wdata [31:0] $end
$var reg 1 .# mem_whilo $end
$var reg 1 /# mem_wreg $end
$upscope $end
$scope module mem0 $end
$var wire 2 0# addr_mod4 [1:0] $end
$var wire 8 1# aluop_i [7:0] $end
$var wire 32 2# hi_i [31:0] $end
$var wire 32 3# lo_i [31:0] $end
$var wire 32 4# mem_addr_i [31:0] $end
$var wire 32 5# mem_data_i [31:0] $end
$var wire 32 6# reg2_i [31:0] $end
$var wire 1 % rst $end
$var wire 5 7# wd_i [4:0] $end
$var wire 32 8# wdata_i [31:0] $end
$var wire 1 U whilo_i $end
$var wire 1 W wreg_i $end
$var reg 32 9# hi_o [31:0] $end
$var reg 32 :# lo_o [31:0] $end
$var reg 32 ;# mem_addr_o [31:0] $end
$var reg 1 <# mem_ce_o $end
$var reg 32 =# mem_data_o [31:0] $end
$var reg 4 ># mem_sel_o [3:0] $end
$var reg 1 ?# mem_we_o $end
$var reg 5 @# wd_o [4:0] $end
$var reg 32 A# wdata_o [31:0] $end
$var reg 1 B# whilo_o $end
$var reg 1 C# wreg_o $end
$upscope $end
$scope module mem_wb0 $end
$var wire 1 ! clk $end
$var wire 32 D# mem_hi [31:0] $end
$var wire 32 E# mem_lo [31:0] $end
$var wire 5 F# mem_wd [4:0] $end
$var wire 32 G# mem_wdata [31:0] $end
$var wire 1 V mem_whilo $end
$var wire 1 X mem_wreg $end
$var wire 1 % rst $end
$var wire 6 H# stall [5:0] $end
$var reg 32 I# wb_hi [31:0] $end
$var reg 32 J# wb_lo [31:0] $end
$var reg 5 K# wb_wd [4:0] $end
$var reg 32 L# wb_wdata [31:0] $end
$var reg 1 M# wb_whilo $end
$var reg 1 N# wb_wreg $end
$upscope $end
$scope module hilo0 $end
$var wire 1 ! clk $end
$var wire 32 O# hi_i [31:0] $end
$var wire 32 P# lo_i [31:0] $end
$var wire 1 % rst $end
$var wire 1 l we $end
$var reg 32 Q# hi_o [31:0] $end
$var reg 32 R# lo_o [31:0] $end
$upscope $end
$scope module ctrl0 $end
$var wire 1 % rst $end
$var wire 1 d stalleq_from_ex $end
$var wire 1 e stalleq_from_id $end
$var reg 6 S# stall [5:0] $end
$upscope $end
$scope module div0 $end
$var wire 1 & annul_i $end
$var wire 1 ! clk $end
$var wire 32 T# opdata1_i [31:0] $end
$var wire 32 U# opdata2_i [31:0] $end
$var wire 1 % rst $end
$var wire 1 + signed_div_i $end
$var wire 1 , start_i $end
$var wire 33 V# tempres [32:0] $end
$var reg 6 W# cnt [5:0] $end
$var reg 32 X# divider [31:0] $end
$var reg 1 Y# ready_o $end
$var reg 65 Z# result [64:0] $end
$var reg 64 [# result_o [63:0] $end
$var reg 2 \# state [1:0] $end
$upscope $end
$upscope $end
$scope module inst_rom0 $end
$var wire 32 ]# addr [31:0] $end
$var wire 1 $ ce $end
$var reg 32 ^# inst [31:0] $end
$upscope $end
$upscope $end
$upscope $end
$enddefinitions $end
#0
$dumpvars
bx ^#
bx ]#
bx \#
bx [#
bx Z#
xY#
bx X#
bx W#
bx V#
bx U#
bx T#
b0 S#
bx R#
bx Q#
bx P#
bx O#
xN#
xM#
bx L#
bx K#
bx J#
bx I#
b0 H#
b0 G#
b0 F#
bx E#
bx D#
0C#
0B#
b0 A#
b0 @#
0?#
b0 >#
b0 =#
0<#
b0 ;#
bx :#
bx 9#
bx 8#
bx 7#
bz 6#
bz 5#
bz 4#
bx 3#
bx 2#
bz 1#
bz 0#
x/#
x.#
bx -#
bx ,#
bx +#
bx *#
bx )#
bx (#
bx '#
b0 &#
b0 %#
b0 $#
bz ##
bz "#
b0 !#
b0 ~"
bz }"
0|"
x{"
b0 z"
b0 y"
0x"
xw"
b0 v"
b0 u"
b0 t"
b0 s"
b0 r"
b0 q"
b0 p"
b0 o"
xn"
bx m"
bx l"
b0 k"
bx j"
bz i"
bz h"
bx g"
bx f"
bx e"
bx d"
bx c"
bx b"
bx a"
bx `"
bx _"
bx ^"
bx ]"
bx \"
bx ["
xZ"
xY"
xX"
bz W"
bx V"
bx U"
bx T"
bx S"
bx R"
bx Q"
xP"
xO"
bx N"
bx M"
bx L"
bx K"
xJ"
bx I"
bx H"
bx G"
b0 F"
b0 E"
b0 D"
b0 C"
b0 B"
b0 A"
b0 @"
b0 ?"
b0 >"
b0 ="
bx <"
bx ;"
b0 :"
b0 9"
x8"
b0 7"
06"
x5"
b0 4"
b0 3"
x2"
b0 1"
b0 0"
0/"
b0 ."
0-"
b0 ,"
b0 +"
b0 *"
0)"
b0 ("
b0 '"
b0 &"
b0 %"
bx $"
bx #"
bx ""
bx !"
bx ~
bx }
b0 |
b0 {
bx z
b0 y
b0 x
bx w
bx v
b0 u
bx t
bx s
bx r
xq
b0 p
b0 o
xn
zm
xl
bx k
bx j
bz i
bx h
bz g
bx f
ze
0d
b0 c
bx b
bx a
0`
x_
b0 ^
b0 ]
x\
b0 [
b0 Z
bx Y
0X
xW
0V
xU
b0 T
bx S
b0 R
bx Q
bx P
bx O
bx N
bx M
bx L
xK
b0 J
b0 I
b0 H
bx G
0F
b0 E
0D
xC
b0 B
bx A
b0 @
0?
b0 >
b0 =
bx <
0;
x:
x9
b0 8
b0 7
bx 6
bx 5
bx 4
b0 3
bx 2
x1
bx 0
b0 /
bx .
bx -
x,
x+
bx *
x)
bx (
bx '
0&
1%
x$
bx #
bx "
0!
$end
#10000
b110100000000111000000000000000 ^#
b110100000000111000000000000000 "
b110100000000111000000000000000 b
b110100000000111000000000000000 s
0Z"
b0 Q"
b0 f"
b0 `"
b0 b"
b0 a"
b0 ~
b0 !"
b0 ""
b0 #"
b100 }
b0 d"
0Y"
b0 V#
b0 r
b0 Y
b0 t
b0 #
b0 a
b0 ]#
b0 v
b0 A
b0 z
b0 w
b0 G
b0 $"
0P"
0C
b0 K"
b0 2
b0 ["
0J"
01
0O"
0:
b0 N"
b0 6
b0 j"
b0 I"
b0 0
b0 M"
b0 g"
1X"
b0 5
b0 e"
b0 L"
b0 4
b0 c"
b0 G"
b0 S"
b0 -
b0 R"
b0 H"
b0 .
b0 T"
b0 '#
b0 *#
b0 +#
0.#
0U
0/#
0W
b0 ,#
b0 Q
b0 7#
b0 -#
b0 S
b0 8#
0M#
0l
0N#
0n
b0 K#
b0 j
b0 ;"
b0 L#
b0 k
b0 <"
b0 R#
b0 L
b0 \"
b0 Q#
b0 <
b0 V"
b0 Z#
b0 X#
b0 [#
b0 *
b0 U"
0Y#
0)
b0 \#
1!
#20000
0!
#30000
1!
#40000
0!
#50000
1!
#60000
0!
#70000
1!
#80000
0!
#90000
1!
#100000
0!
#110000
1!
#120000
0!
#130000
1!
#140000
0!
#150000
1!
#160000
0!
#170000
1!
#180000
0!
#190000
1!
#195000
bz =#
bz ;#
0{"
09
0n"
0,
b10 ("
b10 >
b10 @"
b1000 ."
b1000 E
b1000 B"
18"
1K
15"
1_
02"
0\
0%
#200000
0!
#210000
b1000000000000000 4"
b1000000000000000 I
b1000000000000000 D"
b1 ("
b1 >
b1 @"
b100101 '"
b100101 =
b100101 ?"
b110001110000000000 ^#
b110001110000000000 "
b110001110000000000 b
b110001110000000000 s
b11 3"
b11 ]
b11 :"
b1000000000000000 +"
b11 7"
b11 J
b11 E"
05"
0_
12"
1\
b110100000000111000000000000000 ,"
b110100000000111000000000000000 B
b110100000000111000000000000000 A"
1|"
1;
b0 :#
b0 P
b0 _"
b0 E#
b0 9#
b0 N
b0 ^"
b0 D#
b1101 ~
b11 #"
b100 r
b100 Y
b100 t
b100 #
b100 a
b100 ]#
b110100000000111000000000000000 v
b110100000000111000000000000000 A
b110100000000111000000000000000 z
b1000 K"
b1000 2
b1000 ["
1O"
1:
b10 H"
b10 .
b10 T"
bz '#
bz *#
bz +#
b0 )#
b0 O
b0 3#
b0 (#
b0 M
b0 2#
1!
#220000
0!
#230000
bx >"
bx ^
bx &"
b1000000000000000 z"
b1000000000000000 8
b1000000000000000 y
b1000000000000000 %#
b1000000000000000 4"
b1000000000000000 I
b1000000000000000 D"
b10000 1"
b10000 H
b10000 C"
02"
0\
b10 ("
b10 >
b10 @"
b0 '"
b0 =
b0 ?"
15"
1_
1C#
1X
b1000000000000000 s"
b11 y"
b11 7
b11 x
b11 $#
b1100 ."
b1100 E
b1100 B"
b10000 +"
b110001110000000000 ,"
b110001110000000000 B
b110001110000000000 A"
b110100000000010000000000000001 ^#
b110100000000010000000000000001 "
b110100000000010000000000000001 b
b110100000000010000000000000001 s
b1000000000000000 Q"
b1000000000000000 f"
b1000000000000000 b"
1Y"
b0 ~
b10000 !"
b1000 }
b0 J#
b0 h
b0 P#
b0 I#
b0 f
b0 O#
1/#
1W
b110100000000111000000000000000 I"
b110100000000111000000000000000 0
b11 N"
b11 6
b11 j"
b1000000000000000 M"
b1000000000000000 g"
0X"
b1000000000000000 5
b1000000000000000 e"
b100101 G"
b100101 S"
b100101 -
b100101 R"
b1 H"
b1 .
b1 T"
b110001110000000000 v
b110001110000000000 A
b110001110000000000 z
b100 w
b100 G
b100 $"
b1000 r
b1000 Y
b1000 t
b1000 #
b1000 a
b1000 ]#
1!
#240000
0!
#250000
b0 >"
b0 ^
b0 &"
b1 4"
b1 I
b1 D"
b0 1"
b0 H
b0 C"
b1 ("
b1 >
b1 @"
b100101 '"
b100101 =
b100101 ?"
b10000000000000000000000000100 ^#
b10000000000000000000000000100 "
b10000000000000000000000000100 b
b10000000000000000000000000100 s
b1 3"
b1 ]
b1 :"
b10000 ."
b10000 E
b10000 B"
b1 +"
b1 7"
b1 J
b1 E"
05"
0_
12"
1\
b110100000000010000000000000001 ,"
b110100000000010000000000000001 B
b110100000000010000000000000001 A"
b10000000000000000000000000000000 v"
b0 s"
b10000000000000000000000000000000 z"
b10000000000000000000000000000000 8
b10000000000000000000000000000000 y
b10000000000000000000000000000000 %#
b1000000000000000 A#
b1000000000000000 T
b1000000000000000 |
b1000000000000000 G#
b11 @#
b11 R
b11 {
b11 F#
b10000000000000000000 `"
b10000 a"
b1101 ~
b0 !"
b1 ""
b1 #"
b1100 }
b10000 d"
b1100 r
b1100 Y
b1100 t
b1100 #
b1100 a
b1100 ]#
b110100000000010000000000000001 v
b110100000000010000000000000001 A
b110100000000010000000000000001 z
b1000 w
b1000 G
b1000 $"
b1100 K"
b1100 2
b1100 ["
b110001110000000000 I"
b110001110000000000 0
b10000 L"
b1000000000010000 Q"
b10000 4
b10000 c"
b0 G"
b0 S"
b0 -
b0 R"
b10 H"
b10 .
b10 T"
b11 ,#
b11 Q
b11 7#
b1000000000000000 -#
b1000000000000000 S
b1000000000000000 8#
1N#
1n
1!
#260000
0!
#270000
b0 4"
b0 I
b0 D"
1)"
1?
1/"
1F
b100000 *"
b100000 @
b100000 o
b0 3"
b0 ]
b0 :"
15"
1_
08"
0K
b110 ("
b110 >
b110 @"
b1001111 '"
b1001111 =
b1001111 ?"
b10000000000000000000000000000000 A#
b10000000000000000000000000000000 T
b10000000000000000000000000000000 |
b10000000000000000000000000000000 G#
b0 v"
b1 s"
b1 z"
b1 8
b1 y
b1 %#
b1 y"
b1 7
b1 x
b1 $#
b10100 ."
b10100 E
b10100 B"
b100 +"
b0 7"
b0 J
b0 E"
b10000000000000000000000000100 ,"
b10000000000000000000000000100 B
b10000000000000000000000000100 A"
b110100000000010000000000000010 ^#
b110100000000010000000000000010 "
b110100000000010000000000000010 b
b110100000000010000000000000010 s
b1 f"
b1 b"
b0 `"
b0 a"
b0 d"
b100 ~
b100 ""
b0 #"
b10000 }
b11 K#
b11 j
b11 ;"
b1000000000000000 L#
b1000000000000000 k
b1000000000000000 <"
b10000000000000000000000000000000 -#
b10000000000000000000000000000000 S
b10000000000000000000000000000000 8#
b10000 K"
b10000 2
b10000 ["
b110100000000010000000000000001 I"
b110100000000010000000000000001 0
b1 N"
b1 6
b1 j"
b1 M"
b1 g"
b1 5
b1 e"
b0 L"
b1 Q"
b0 4
b0 c"
b100101 G"
b100101 S"
b100101 -
b100101 R"
b1 H"
b1 .
b1 T"
b10000000000000000000000000100 v
b10000000000000000000000000100 A
b10000000000000000000000000100 z
b1100 w
b1100 G
b1100 $"
b10000 r
b10000 Y
b10000 t
b10000 #
b10000 a
b10000 ]#
1!
#280000
0!
#290000
b10 4"
b10 I
b10 D"
b1 ("
b1 >
b1 @"
b100101 '"
b100101 =
b100101 ?"
b110100000000010000000000000011 ^#
b110100000000010000000000000011 "
b110100000000010000000000000011 b
b110100000000010000000000000011 s
b1 3"
b1 ]
b1 :"
b11000 ."
b11000 E
b11000 B"
0/"
0F
0)"
0?
b0 *"
b0 @
b0 o
b10 +"
18"
1K
b1 7"
b1 J
b1 E"
05"
0_
b110100000000010000000000000010 ,"
b110100000000010000000000000010 B
b110100000000010000000000000010 A"
b0 s"
b10100 z"
b10100 8
b10100 y
b10100 %#
0|"
0;
b0 y"
b0 7
b0 x
b0 $#
b1 A#
b1 T
b1 |
b1 G#
b1 @#
b1 R
b1 {
b1 F#
b0 Q"
b0 f"
b0 b"
b1101 ~
b10 ""
b1 #"
b10100 }
0Y"
b100000 r
b100000 Y
b100000 t
b100000 #
b100000 a
b100000 ]#
b110100000000010000000000000010 v
b110100000000010000000000000010 A
b110100000000010000000000000010 z
b10000 w
b10000 G
b10000 $"
1P"
1C
b10100 K"
b10100 2
b10100 ["
b10000000000000000000000000100 I"
b10000000000000000000000000100 0
0O"
0:
b0 N"
b0 6
b0 j"
b0 M"
b0 g"
1X"
b0 5
b0 e"
b1001111 G"
b1001111 S"
b1001111 -
b1001111 R"
b110 H"
b110 .
b110 T"
b1 ,#
b1 Q
b1 7#
b1 -#
b1 S
b1 8#
b10000000000000000000000000000000 L#
b10000000000000000000000000000000 k
b10000000000000000000000000000000 <"
1!
#300000
0!
#310000
b11 4"
b11 I
b11 D"
b10100 A#
b10100 T
b10100 |
b10100 G#
0C#
0X
b0 @#
b0 R
b0 {
b0 F#
b10 s"
b10 z"
b10 8
b10 y
b10 %#
1|"
1;
b1 y"
b1 7
b1 x
b1 $#
b101000 ."
b101000 E
b101000 B"
b11 +"
b110100000000010000000000000011 ,"
b110100000000010000000000000011 B
b110100000000010000000000000011 A"
b100000100010000000000001010 ^#
b100000100010000000000001010 "
b100000100010000000000001010 b
b100000100010000000000001010 s
b10 Q"
b10 f"
b10 b"
1Y"
b11 ""
b100100 }
b1 K#
b1 j
b1 ;"
b1 L#
b1 k
b1 <"
0/#
0W
b0 ,#
b0 Q
b0 7#
b10100 -#
b10100 S
b10100 8#
0P"
0C
b11000 K"
b11000 2
b11000 ["
b110100000000010000000000000010 I"
b110100000000010000000000000010 0
1O"
1:
b1 N"
b1 6
b1 j"
b10 M"
b10 g"
0X"
b10 5
b10 e"
b100101 G"
b100101 S"
b100101 -
b100101 R"
b1 H"
b1 .
b1 T"
b110100000000010000000000000011 v
b110100000000010000000000000011 A
b110100000000010000000000000011 z
b100000 w
b100000 G
b100000 $"
b100100 r
b100100 Y
b100100 t
b100100 #
b100100 a
b100100 ]#
1!
#320000
0!
#330000
b11 z"
b11 8
b11 y
b11 %#
b1010 4"
b1010 I
b1010 D"
1)"
1?
1/"
1F
b1010000 *"
b1010000 @
b1010000 o
18"
1K
b110 ("
b110 >
b110 @"
b1001111 '"
b1001111 =
b1001111 ?"
b11111000010000000000011010 ^#
b11111000010000000000011010 "
b11111000010000000000011010 b
b11111000010000000000011010 s
b101100 ."
b101100 E
b101100 B"
b1010 +"
b11111 7"
b11111 J
b11111 E"
b100000100010000000000001010 ,"
b100000100010000000000001010 B
b100000100010000000000001010 A"
b11 s"
b10 A#
b10 T
b10 |
b10 G#
1C#
1X
b1 @#
b1 R
b1 {
b1 F#
b11 Q"
b11 f"
b11 b"
b1 ~
b1010 ""
b10001 #"
b101000 }
b101000 r
b101000 Y
b101000 t
b101000 #
b101000 a
b101000 ]#
b100000100010000000000001010 v
b100000100010000000000001010 A
b100000100010000000000001010 z
b100100 w
b100100 G
b100100 $"
b101000 K"
b101000 2
b101000 ["
b110100000000010000000000000011 I"
b110100000000010000000000000011 0
b11 M"
b11 g"
b11 5
b11 e"
1/#
1W
b1 ,#
b1 Q
b1 7#
b10 -#
b10 S
b10 8#
0N#
0n
b0 K#
b0 j
b0 ;"
b10100 L#
b10100 k
b10100 <"
1!
#340000
0!
#350000
b10 >"
b10 ^
b10 &"
bx ="
bx [
bx %"
b11 4"
b11 I
b11 D"
b101100 1"
b101100 H
b101100 C"
b100 ("
b100 >
b100 @"
b11010 '"
b11010 =
b11010 ?"
15"
1_
b11 A#
b11 T
b11 |
b11 G#
b0 s"
b101100 z"
b101100 8
b101100 y
b101100 %#
b11111 y"
b11111 7
b11111 x
b11111 $#
08"
0K
b110000 ."
b110000 E
b110000 B"
0/"
0F
0)"
0?
b0 *"
b0 @
b0 o
b0 +"
b0 7"
b0 J
b0 E"
b11111 0"
b11111 Z
b11111 9"
b11111000010000000000011010 ,"
b11111000010000000000011010 B
b11111000010000000000011010 A"
b110100000000010000000000000100 ^#
b110100000000010000000000000100 "
b110100000000010000000000000100 b
b110100000000010000000000000100 s
b1010 Q"
b1010 f"
b1010 b"
b0 ~
b11010 ""
b1 #"
b101100 }
1N#
1n
b1 K#
b1 j
b1 ;"
b10 L#
b10 k
b10 <"
b11 -#
b11 S
b11 8#
1P"
1C
b101100 K"
b101100 2
b101100 ["
b100000100010000000000001010 I"
b100000100010000000000001010 0
b11111 N"
b11111 6
b11111 j"
b1010 M"
b1010 g"
b1010 5
b1010 e"
b1001111 G"
b1001111 S"
b1001111 -
b1001111 R"
b110 H"
b110 .
b110 T"
b11111000010000000000011010 v
b11111000010000000000011010 A
b11111000010000000000011010 z
b101000 w
b101000 G
b101000 $"
b1010000 r
b1010000 Y
b1010000 t
b1010000 #
b1010000 a
b1010000 ]#
1!
#360000
0!
#370000
b0 ="
b0 [
b0 %"
b100 4"
b100 I
b100 D"
b0 1"
b0 H
b0 C"
b1 ("
b1 >
b1 @"
b100101 '"
b100101 =
b100101 ?"
b1111 S#
b1111 c
b1111 p
b1111 u
b1111 F"
b1111 &#
b1111 H#
b10000011000110000000000001010 ^#
b10000011000110000000000001010 "
b10000011000110000000000001010 b
b10000011000110000000000001010 s
b1011000 ."
b1011000 E
b1011000 B"
b100 +"
18"
1K
b1 7"
b1 J
b1 E"
b0 0"
b0 Z
b0 9"
05"
0_
b110100000000010000000000000100 ,"
b110100000000010000000000000100 B
b110100000000010000000000000100 A"
1{"
19
1w"
1+
b11 m"
b11 (
b11 U#
b101100 l"
b101100 '
b101100 T#
1n"
1,
b0 z"
b0 8
b0 y
b0 %#
0|"
0;
b0 y"
b0 7
b0 x
b0 $#
b101100 A#
b101100 T
b101100 |
b101100 G#
b11111 @#
b11111 R
b11111 {
b11111 F#
b0 >"
b0 ^
b0 &"
b11 f"
b11 b"
b10000100 `"
b101100 a"
b1101 ~
b100 ""
b1010100 }
b101100 d"
0Y"
1x"
1d
b1010100 r
b1010100 Y
b1010100 t
b1010100 #
b1010100 a
b1010100 ]#
b110100000000010000000000000100 v
b110100000000010000000000000100 A
b110100000000010000000000000100 z
b1010000 w
b1010000 G
b1010000 $"
0P"
0C
b110000 K"
b110000 2
b110000 ["
b11111000010000000000011010 I"
b11111000010000000000011010 0
0O"
0:
b0 N"
b0 6
b0 j"
b11 M"
b11 g"
b11 5
b11 e"
b101100 L"
b101111 Q"
b101100 4
b101100 c"
b11010 G"
b11010 S"
b11010 -
b11010 R"
b100 H"
b100 .
b100 T"
b11111 ,#
b11111 Q
b11111 7#
b101100 -#
b101100 S
b101100 8#
b11 L#
b11 k
b11 <"
1!
#380000
0!
