YaoPad.srcs/sources_1/cpu/openmips_min_sopc_tb.vcd
$date
	Mon Nov 27 14:01:35 2017
$end
$version
	Icarus Verilog
$end
$timescale
	1ps
$end
$scope module openmips_min_sopc_tb $end
$scope module openmips_min_sopc0 $end
$var wire 1 ! clk $end
$var wire 1 " rst $end
$var wire 1 # timer_int $end
$var wire 1 $ rom_ce $end
$var wire 1 % mem_we_i $end
$var wire 4 & mem_sel_i [3:0] $end
$var wire 32 ' mem_data_o [31:0] $end
$var wire 32 ( mem_data_i [31:0] $end
$var wire 1 ) mem_ce_i $end
$var wire 32 * mem_addr_i [31:0] $end
$var wire 6 + int [5:0] $end
$var wire 32 , inst_addr [31:0] $end
$var wire 32 - inst [31:0] $end
$scope module cpu0 $end
$var wire 1 ! clk $end
$var wire 1 . div_annul $end
$var wire 6 / int_i [5:0] $end
$var wire 32 0 rom_addr_o [31:0] $end
$var wire 1 " rst $end
$var wire 1 1 wb_wreg_i $end
$var wire 1 2 wb_whilo_i $end
$var wire 32 3 wb_wdata_i [31:0] $end
$var wire 5 4 wb_wd_i [4:0] $end
$var wire 32 5 wb_lo_i [31:0] $end
$var wire 32 6 wb_hi_i [31:0] $end
$var wire 5 7 wb_cp0_reg_write_addr_i [4:0] $end
$var wire 1 8 wb_cp0_reg_we_i $end
$var wire 32 9 wb_cp0_reg_data_i [31:0] $end
$var wire 1 # timer_int_o $end
$var wire 1 : stalleq_from_id $end
$var wire 1 ; stalleq_from_ex $end
$var wire 6 < stall [5:0] $end
$var wire 32 = rom_data_i [31:0] $end
$var wire 1 $ rom_ce_o $end
$var wire 1 > reg2_read $end
$var wire 32 ? reg2_data [31:0] $end
$var wire 5 @ reg2_addr [4:0] $end
$var wire 1 A reg1_read $end
$var wire 32 B reg1_data [31:0] $end
$var wire 5 C reg1_addr [4:0] $end
$var wire 1 % ram_we_o $end
$var wire 4 D ram_sel_o [3:0] $end
$var wire 32 E ram_data_o [31:0] $end
$var wire 32 F ram_data_i [31:0] $end
$var wire 1 ) ram_ce_o $end
$var wire 32 G ram_addr_o [31:0] $end
$var wire 32 H pc [31:0] $end
$var wire 32 I new_pc [31:0] $end
$var wire 1 J mem_wreg_o $end
$var wire 1 K mem_wreg_i $end
$var wire 1 L mem_whilo_o $end
$var wire 1 M mem_whilo_i $end
$var wire 32 N mem_wdata_o [31:0] $end
$var wire 32 O mem_wdata_i [31:0] $end
$var wire 5 P mem_wd_o [4:0] $end
$var wire 5 Q mem_wd_i [4:0] $end
$var wire 32 R mem_reg2_i [31:0] $end
$var wire 32 S mem_mem_addr_i [31:0] $end
$var wire 32 T mem_lo_o [31:0] $end
$var wire 32 U mem_lo_i [31:0] $end
$var wire 1 V mem_is_in_delayslot_o $end
$var wire 1 W mem_is_in_delayslot_i $end
$var wire 32 X mem_hi_o [31:0] $end
$var wire 32 Y mem_hi_i [31:0] $end
$var wire 32 Z mem_excepttype_o [31:0] $end
$var wire 32 [ mem_excepttype_i [31:0] $end
$var wire 32 \ mem_current_inst_addr_o [31:0] $end
$var wire 32 ] mem_current_inst_addr_i [31:0] $end
$var wire 5 ^ mem_cp0_reg_write_addr_o [4:0] $end
$var wire 5 _ mem_cp0_reg_write_addr_i [4:0] $end
$var wire 1 ` mem_cp0_reg_we_o $end
$var wire 1 a mem_cp0_reg_we_i $end
$var wire 32 b mem_cp0_reg_data_o [31:0] $end
$var wire 32 c mem_cp0_reg_data_i [31:0] $end
$var wire 32 d mem_cp0_epc_o [31:0] $end
$var wire 8 e mem_aluop_i [7:0] $end
$var wire 32 f lo_o [31:0] $end
$var wire 1 g id_wreg_o $end
$var wire 5 h id_wd_o [4:0] $end
$var wire 32 i id_reg2_o [31:0] $end
$var wire 32 j id_reg1_o [31:0] $end
$var wire 32 k id_pc_i [31:0] $end
$var wire 1 l id_next_inst_in_delayslot_o $end
$var wire 32 m id_link_addr_o [31:0] $end
$var wire 1 n id_is_in_delayslot_o $end
$var wire 1 o id_is_in_delayslot_i $end
$var wire 32 p id_inst_o [31:0] $end
$var wire 32 q id_inst_i [31:0] $end
$var wire 32 r id_excepttype_o [31:0] $end
$var wire 32 s id_current_inst_addr_o [31:0] $end
$var wire 32 t id_branch_target_address_o [31:0] $end
$var wire 1 u id_branch_flag_o $end
$var wire 3 v id_alusel_o [2:0] $end
$var wire 8 w id_aluop_o [7:0] $end
$var wire 32 x hi_o [31:0] $end
$var wire 1 y flush $end
$var wire 1 z ex_wreg_o $end
$var wire 1 { ex_wreg_i $end
$var wire 1 | ex_whilo_o $end
$var wire 32 } ex_wdata_o [31:0] $end
$var wire 5 ~ ex_wd_o [4:0] $end
$var wire 5 !" ex_wd_i [4:0] $end
$var wire 32 "" ex_reg2_o [31:0] $end
$var wire 32 #" ex_reg2_i [31:0] $end
$var wire 32 $" ex_reg1_i [31:0] $end
$var wire 32 %" ex_mem_addr_o [31:0] $end
$var wire 32 &" ex_lo_o [31:0] $end
$var wire 32 '" ex_link_addr_i [31:0] $end
$var wire 1 (" ex_is_in_delayslot_o $end
$var wire 1 )" ex_is_in_delayslot_i $end
$var wire 32 *" ex_inst_i [31:0] $end
$var wire 32 +" ex_hi_o [31:0] $end
$var wire 32 ," ex_excepttype_o [31:0] $end
$var wire 32 -" ex_excepttype_i [31:0] $end
$var wire 32 ." ex_current_inst_addr_o [31:0] $end
$var wire 32 /" ex_current_inst_addr_i [31:0] $end
$var wire 5 0" ex_cp0_reg_write_addr_o [4:0] $end
$var wire 1 1" ex_cp0_reg_we_o $end
$var wire 5 2" ex_cp0_reg_read_addr_o [4:0] $end
$var wire 32 3" ex_cp0_reg_data_o [31:0] $end
$var wire 3 4" ex_alusel_i [2:0] $end
$var wire 8 5" ex_aluop_o [7:0] $end
$var wire 8 6" ex_aluop_i [7:0] $end
$var wire 1 7" div_start $end
$var wire 1 8" div_signed $end
$var wire 64 9" div_result [63:0] $end
$var wire 1 :" div_ready $end
$var wire 32 ;" div_opdata2 [31:0] $end
$var wire 32 <" div_opdata1 [31:0] $end
$var wire 32 =" cp0_status_o [31:0] $end
$var wire 32 >" cp0_epc_o [31:0] $end
$var wire 32 ?" cp0_data_o [31:0] $end
$var wire 32 @" cp0_cause_o [31:0] $end
$scope module cp00 $end
$var wire 1 ! clk $end
$var wire 6 A" int_i [5:0] $end
$var wire 1 " rst $end
$var wire 1 8 we_i $end
$var wire 5 B" waddr_i [4:0] $end
$var wire 5 C" raddr_i [4:0] $end
$var wire 1 V is_in_delayslot_i $end
$var wire 32 D" excepttype_i [31:0] $end
$var wire 32 E" data_i [31:0] $end
$var wire 32 F" current_inst_addr_i [31:0] $end
$var reg 32 G" cause_o [31:0] $end
$var reg 32 H" compare_o [31:0] $end
$var reg 32 I" config_o [31:0] $end
$var reg 32 J" count_o [31:0] $end
$var reg 32 K" data_o [31:0] $end
$var reg 32 L" epc_o [31:0] $end
$var reg 32 M" prid_o [31:0] $end
$var reg 32 N" status_o [31:0] $end
$var reg 1 # timer_int_o $end
$upscope $end
$scope module ctrl0 $end
$var wire 1 " rst $end
$var wire 1 : stalleq_from_id $end
$var wire 1 ; stalleq_from_ex $end
$var wire 32 O" excepttype_i [31:0] $end
$var wire 32 P" cp0_epc_i [31:0] $end
$var reg 1 y flush $end
$var reg 32 Q" new_pc [31:0] $end
$var reg 6 R" stall [5:0] $end
$upscope $end
$scope module div0 $end
$var wire 1 . annul_i $end
$var wire 1 ! clk $end
$var wire 1 " rst $end
$var wire 33 S" tempres [32:0] $end
$var wire 1 7" start_i $end
$var wire 1 8" signed_div_i $end
$var wire 32 T" opdata2_i [31:0] $end
$var wire 32 U" opdata1_i [31:0] $end
$var reg 6 V" cnt [5:0] $end
$var reg 32 W" divider [31:0] $end
$var reg 1 :" ready_o $end
$var reg 65 X" result [64:0] $end
$var reg 64 Y" result_o [63:0] $end
$var reg 2 Z" state [1:0] $end
$upscope $end
$scope module ex0 $end
$var wire 8 [" aluop_o [7:0] $end
$var wire 32 \" cp0_reg_data_i [31:0] $end
$var wire 32 ]" current_inst_addr_o [31:0] $end
$var wire 1 :" div_ready_i $end
$var wire 64 ^" div_result_i [63:0] $end
$var wire 1 (" is_in_delayslot_o $end
$var wire 1 _" is_overflow $end
$var wire 32 `" reg2_o [31:0] $end
$var wire 1 " rst $end
$var wire 1 { wreg_i $end
$var wire 5 a" wd_i [4:0] $end
$var wire 1 2 wb_whilo_i $end
$var wire 32 b" wb_lo_i [31:0] $end
$var wire 32 c" wb_hi_i [31:0] $end
$var wire 5 d" wb_cp0_reg_write_addr [4:0] $end
$var wire 1 8 wb_cp0_reg_we $end
$var wire 32 e" wb_cp0_reg_data [31:0] $end
$var wire 32 f" reg2_i_mux [31:0] $end
$var wire 32 g" reg2_i [31:0] $end
$var wire 32 h" reg1_i_not [31:0] $end
$var wire 32 i" reg1_i [31:0] $end
$var wire 32 j" mul_op2 [31:0] $end
$var wire 32 k" mul_op1 [31:0] $end
$var wire 64 l" mul_ans [63:0] $end
$var wire 1 L mem_whilo_i $end
$var wire 32 m" mem_lo_i [31:0] $end
$var wire 32 n" mem_hi_i [31:0] $end
$var wire 5 o" mem_cp0_reg_write_addr [4:0] $end
$var wire 1 ` mem_cp0_reg_we $end
$var wire 32 p" mem_cp0_reg_data [31:0] $end
$var wire 32 q" mem_addr_o [31:0] $end
$var wire 32 r" lo_i [31:0] $end
$var wire 32 s" link_addr_i [31:0] $end
$var wire 1 t" is_less $end
$var wire 1 )" is_in_delayslot_i $end
$var wire 1 u" is_equal $end
$var wire 32 v" inst_i [31:0] $end
$var wire 32 w" hi_i [31:0] $end
$var wire 32 x" excepttype_o [31:0] $end
$var wire 32 y" excepttype_i [31:0] $end
$var wire 32 z" current_inst_addr_i [31:0] $end
$var wire 3 {" alusel_i [2:0] $end
$var wire 8 |" aluop_i [7:0] $end
$var wire 32 }" add_sum [31:0] $end
$var reg 32 ~" arithres [31:0] $end
$var reg 32 !# cp0_reg_data_o [31:0] $end
$var reg 5 "# cp0_reg_read_addr_o [4:0] $end
$var reg 1 1" cp0_reg_we_o $end
$var reg 5 ## cp0_reg_write_addr_o [4:0] $end
$var reg 32 $# div_opdata1_o [31:0] $end
$var reg 32 %# div_opdata2_o [31:0] $end
$var reg 1 7" div_start_o $end
$var reg 32 &# hi [31:0] $end
$var reg 32 '# hi_o [31:0] $end
$var reg 32 (# lo [31:0] $end
$var reg 32 )# lo_o [31:0] $end
$var reg 32 *# logicres [31:0] $end
$var reg 32 +# moveres [31:0] $end
$var reg 64 ,# mulres [63:0] $end
$var reg 1 -# ovassert $end
$var reg 32 .# shiftres [31:0] $end
$var reg 1 8" signed_div_o $end
$var reg 1 ; stallreq $end
$var reg 1 /# trapassert $end
$var reg 5 0# wd_o [4:0] $end
$var reg 32 1# wdata_o [31:0] $end
$var reg 1 | whilo_o $end
$var reg 1 z wreg_o $end
$upscope $end
$scope module ex_mem0 $end
$var wire 1 ! clk $end
$var wire 8 2# ex_aluop [7:0] $end
$var wire 32 3# ex_cp0_reg_data [31:0] $end
$var wire 1 1" ex_cp0_reg_we $end
$var wire 5 4# ex_cp0_reg_write_addr [4:0] $end
$var wire 32 5# ex_current_inst_addr [31:0] $end
$var wire 32 6# ex_excepttype [31:0] $end
$var wire 32 7# ex_hi [31:0] $end
$var wire 1 (" ex_is_in_delayslot $end
$var wire 32 8# ex_lo [31:0] $end
$var wire 32 9# ex_mem_addr [31:0] $end
$var wire 32 :# ex_reg2 [31:0] $end
$var wire 5 ;# ex_wd [4:0] $end
$var wire 32 <# ex_wdata [31:0] $end
$var wire 1 | ex_whilo $end
$var wire 1 z ex_wreg $end
$var wire 1 y flush $end
$var wire 1 " rst $end
$var wire 6 =# stall [5:0] $end
$var reg 8 ># mem_aluop [7:0] $end
$var reg 32 ?# mem_cp0_reg_data [31:0] $end
$var reg 1 a mem_cp0_reg_we $end
$var reg 5 @# mem_cp0_reg_write_addr [4:0] $end
$var reg 32 A# mem_current_inst_addr [31:0] $end
$var reg 32 B# mem_excepttype [31:0] $end
$var reg 32 C# mem_hi [31:0] $end
$var reg 1 W mem_is_in_delayslot $end
$var reg 32 D# mem_lo [31:0] $end
$var reg 32 E# mem_mem_addr [31:0] $end
$var reg 32 F# mem_reg2 [31:0] $end
$var reg 5 G# mem_wd [4:0] $end
$var reg 32 H# mem_wdata [31:0] $end
$var reg 1 M mem_whilo $end
$var reg 1 K mem_wreg $end
$upscope $end
$scope module hilo0 $end
$var wire 1 ! clk $end
$var wire 1 " rst $end
$var wire 1 2 we $end
$var wire 32 I# lo_i [31:0] $end
$var wire 32 J# hi_i [31:0] $end
$var reg 32 K# hi_o [31:0] $end
$var reg 32 L# lo_o [31:0] $end
$upscope $end
$scope module id0 $end
$var wire 32 M# current_inst_addr_o [31:0] $end
$var wire 8 N# ex_aluop_i [7:0] $end
$var wire 5 O# ex_wd_i [4:0] $end
$var wire 32 P# ex_wdata_i [31:0] $end
$var wire 1 z ex_wreg_i $end
$var wire 6 Q# int_i [5:0] $end
$var wire 1 " rst $end
$var wire 1 : stallreq $end
$var wire 1 R# timer_int_o $end
$var wire 32 S# reg2_data_i [31:0] $end
$var wire 32 T# reg1_data_i [31:0] $end
$var wire 1 U# pre_inst_is_load $end
$var wire 32 V# pc_i [31:0] $end
$var wire 5 W# op4 [4:0] $end
$var wire 6 X# op3 [5:0] $end
$var wire 5 Y# op2 [4:0] $end
$var wire 6 Z# op1 [5:0] $end
$var wire 32 [# next_pc_i [31:0] $end
$var wire 1 J mem_wreg_i $end
$var wire 32 \# mem_wdata_i [31:0] $end
$var wire 5 ]# mem_wd_i [4:0] $end
$var wire 1 o is_in_delayslot_i $end
$var wire 32 ^# inst_i [31:0] $end
$var wire 32 _# excepttype_o [31:0] $end
$var reg 8 `# aluop_o [7:0] $end
$var reg 3 a# alusel_o [2:0] $end
$var reg 1 u branch_flag_o $end
$var reg 32 b# branch_target_address_o [31:0] $end
$var reg 1 c# except_eret $end
$var reg 1 d# except_syscall $end
$var reg 32 e# immi [31:0] $end
$var reg 32 f# inst_o [31:0] $end
$var reg 1 g# instvalid $end
$var reg 1 n is_in_delayslot_o $end
$var reg 32 h# link_addr_o [31:0] $end
$var reg 1 l next_inst_in_delayslot_o $end
$var reg 5 i# reg1_addr_o [4:0] $end
$var reg 32 j# reg1_o [31:0] $end
$var reg 1 A reg1_read_o $end
$var reg 5 k# reg2_addr_o [4:0] $end
$var reg 32 l# reg2_o [31:0] $end
$var reg 1 > reg2_read_o $end
$var reg 1 m# stallreq1 $end
$var reg 1 n# stallreq2 $end
$var reg 5 o# wd_o [4:0] $end
$var reg 1 g wreg_o $end
$upscope $end
$scope module id_ex0 $end
$var wire 1 ! clk $end
$var wire 1 y flush $end
$var wire 8 p# id_aluop [7:0] $end
$var wire 3 q# id_alusel [2:0] $end
$var wire 32 r# id_current_inst_addr [31:0] $end
$var wire 32 s# id_excepttype [31:0] $end
$var wire 32 t# id_inst [31:0] $end
$var wire 1 n id_is_in_delayslot $end
$var wire 32 u# id_link_addr [31:0] $end
$var wire 32 v# id_reg1 [31:0] $end
$var wire 32 w# id_reg2 [31:0] $end
$var wire 5 x# id_wd [4:0] $end
$var wire 1 g id_wreg $end
$var wire 1 l next_inst_in_delayslot_i $end
$var wire 1 " rst $end
$var wire 6 y# stall [5:0] $end
$var reg 8 z# ex_aluop [7:0] $end
$var reg 3 {# ex_alusel [2:0] $end
$var reg 32 |# ex_current_inst_addr [31:0] $end
$var reg 32 }# ex_excepttype [31:0] $end
$var reg 32 ~# ex_inst [31:0] $end
$var reg 1 )" ex_is_in_delayslot $end
$var reg 32 !$ ex_link_addr [31:0] $end
$var reg 32 "$ ex_reg1 [31:0] $end
$var reg 32 #$ ex_reg2 [31:0] $end
$var reg 5 $$ ex_wd [4:0] $end
$var reg 1 { ex_wreg $end
$var reg 1 o is_in_delayslot_o $end
$upscope $end
$scope module if_id0 $end
$var wire 1 ! clk $end
$var wire 1 y flush $end
$var wire 1 " rst $end
$var wire 6 %$ stall [5:0] $end
$var wire 32 &$ if_pc [31:0] $end
$var wire 32 '$ if_inst [31:0] $end
$var reg 32 ($ id_inst [31:0] $end
$var reg 32 )$ id_pc [31:0] $end
$upscope $end
$scope module mem0 $end
$var wire 8 *$ aluop_i [7:0] $end
$var wire 32 +$ cp0_cause_i [31:0] $end
$var wire 32 ,$ cp0_epc_i [31:0] $end
$var wire 32 -$ cp0_epc_o [31:0] $end
$var wire 32 .$ cp0_reg_data_i [31:0] $end
$var wire 1 a cp0_reg_we_i $end
$var wire 5 /$ cp0_reg_write_addr_i [4:0] $end
$var wire 32 0$ cp0_status_i [31:0] $end
$var wire 32 1$ current_inst_addr_i [31:0] $end
$var wire 32 2$ current_inst_addr_o [31:0] $end
$var wire 32 3$ excepttype_i [31:0] $end
$var wire 32 4$ hi_i [31:0] $end
$var wire 1 W is_in_delayslot_i $end
$var wire 1 V is_in_delayslot_o $end
$var wire 32 5$ lo_i [31:0] $end
$var wire 32 6$ mem_addr_i [31:0] $end
$var wire 1 % mem_we_o $end
$var wire 32 7$ reg2_i [31:0] $end
$var wire 1 " rst $end
$var wire 5 8$ wd_i [4:0] $end
$var wire 32 9$ wdata_i [31:0] $end
$var wire 1 M whilo_i $end
$var wire 1 K wreg_i $end
$var wire 5 :$ wb_cp0_reg_write_addr_i [4:0] $end
$var wire 1 8 wb_cp0_reg_we_i $end
$var wire 32 ;$ wb_cp0_reg_data_i [31:0] $end
$var wire 32 <$ mem_data_i [31:0] $end
$var wire 2 =$ addr_mod4 [1:0] $end
$var reg 32 >$ cp0_cause [31:0] $end
$var reg 32 ?$ cp0_epc [31:0] $end
$var reg 32 @$ cp0_reg_data_o [31:0] $end
$var reg 1 ` cp0_reg_we_o $end
$var reg 5 A$ cp0_reg_write_addr_o [4:0] $end
$var reg 32 B$ cp0_status [31:0] $end
$var reg 32 C$ excepttype_o [31:0] $end
$var reg 32 D$ hi_o [31:0] $end
$var reg 32 E$ lo_o [31:0] $end
$var reg 32 F$ mem_addr_o [31:0] $end
$var reg 1 ) mem_ce_o $end
$var reg 32 G$ mem_data_o [31:0] $end
$var reg 4 H$ mem_sel_o [3:0] $end
$var reg 1 I$ mem_we $end
$var reg 5 J$ wd_o [4:0] $end
$var reg 32 K$ wdata_o [31:0] $end
$var reg 1 L whilo_o $end
$var reg 1 J wreg_o $end
$upscope $end
$scope module mem_wb0 $end
$var wire 1 ! clk $end
$var wire 1 y flush $end
$var wire 32 L$ mem_cp0_reg_data [31:0] $end
$var wire 1 ` mem_cp0_reg_we $end
$var wire 5 M$ mem_cp0_reg_write_addr [4:0] $end
$var wire 32 N$ mem_hi [31:0] $end
$var wire 32 O$ mem_lo [31:0] $end
$var wire 5 P$ mem_wd [4:0] $end
$var wire 32 Q$ mem_wdata [31:0] $end
$var wire 1 L mem_whilo $end
$var wire 1 J mem_wreg $end
$var wire 1 " rst $end
$var wire 6 R$ stall [5:0] $end
$var reg 32 S$ wb_cp0_reg_data [31:0] $end
$var reg 1 8 wb_cp0_reg_we $end
$var reg 5 T$ wb_cp0_reg_write_addr [4:0] $end
$var reg 32 U$ wb_hi [31:0] $end
$var reg 32 V$ wb_lo [31:0] $end
$var reg 5 W$ wb_wd [4:0] $end
$var reg 32 X$ wb_wdata [31:0] $end
$var reg 1 2 wb_whilo $end
$var reg 1 1 wb_wreg $end
$upscope $end
$scope module pc_rom0 $end
$var wire 1 u branch_flag_i $end
$var wire 32 Y$ branch_target_address_i [31:0] $end
$var wire 1 ! clk $end
$var wire 1 y flush $end
$var wire 32 Z$ new_pc [31:0] $end
$var wire 1 " rst $end
$var wire 6 [$ stall [5:0] $end
$var reg 1 $ ce $end
$var reg 32 \$ pc [31:0] $end
$upscope $end
$scope module regfile0 $end
$var wire 1 ! clk $end
$var wire 5 ]$ raddr1 [4:0] $end
$var wire 5 ^$ raddr2 [4:0] $end
$var wire 1 A re1 $end
$var wire 1 > re2 $end
$var wire 1 " rst $end
$var wire 5 _$ waddr [4:0] $end
$var wire 32 `$ wdata [31:0] $end
$var wire 1 1 we $end
$var reg 32 a$ rdata1 [31:0] $end
$var reg 32 b$ rdata2 [31:0] $end
$upscope $end
$upscope $end
$scope module data_ram0 $end
$var wire 32 c$ addr [31:0] $end
$var wire 1 ) ce $end
$var wire 1 ! clk $end
$var wire 32 d$ data_i [31:0] $end
$var wire 4 e$ sel [3:0] $end
$var wire 1 % we $end
$var reg 32 f$ data_o [31:0] $end
$upscope $end
$scope module inst_rom0 $end
$var wire 32 g$ addr [31:0] $end
$var wire 1 $ ce $end
$var reg 32 h$ inst [31:0] $end
$upscope $end
$upscope $end
$upscope $end
$enddefinitions $end
#0
$dumpvars
bx h$
bx g$
b0 f$
b0 e$
b0 d$
b0 c$
b0 b$
b0 a$
bx `$
bx _$
b0 ^$
b0 ]$
bx \$
b0 [$
b0 Z$
b0 Y$
bx X$
bx W$
bx V$
bx U$
bx T$
bx S$
b0 R$
b0 Q$
b0 P$
bx O$
bx N$
b0 M$
b0 L$
b0 K$
b0 J$
0I$
b0 H$
b0 G$
b0 F$
bx E$
bx D$
b0 C$
b0 B$
b0 A$
b0 @$
b0 ?$
b0 >$
bx =$
b0 <$
bx ;$
bx :$
bx 9$
bx 8$
bx 7$
bx 6$
bx 5$
bx 4$
bx 3$
bx 2$
bx 1$
bx 0$
bx /$
bx .$
b0 -$
bx ,$
bx +$
bx *$
bx )$
bx ($
bx '$
bx &$
b0 %$
bx $$
bx #$
bx "$
bx !$
bx ~#
bx }#
bx |#
bx {#
bx z#
b0 y#
b0 x#
b0 w#
b0 v#
b0 u#
b0 t#
b0x00xx00000000 s#
bx r#
b0 q#
b0 p#
b0 o#
0n#
0m#
b0 l#
b0 k#
b0 j#
b0 i#
b0 h#
xg#
b0 f#
b0 e#
xd#
xc#
b0 b#
b0 a#
b0 `#
b0x00xx00000000 _#
bx ^#
b0 ]#
b0 \#
bx [#
bx Z#
bx Y#
bx X#
bx W#
bx V#
xU#
b0 T#
b0 S#
zR#
bz Q#
b0 P#
b0 O#
bx N#
bx M#
bx L#
bx K#
bx J#
bx I#
bx H#
bx G#
bx F#
bx E#
bx D#
bx C#
bx B#
bx A#
bx @#
bx ?#
bx >#
b0 =#
b0 <#
b0 ;#
bx :#
bx 9#
b0 8#
b0 7#
bx00000000 6#
bx 5#
b0 4#
b0 3#
bx 2#
b0 1#
b0 0#
x/#
b0 .#
x-#
b0 ,#
b0 +#
b0 *#
b0 )#
b0 (#
b0 '#
b0 &#
bx %#
bx $#
b0 ##
bx "#
b0 !#
b0 ~"
bx }"
bx |"
bx {"
bx z"
bx y"
bx00000000 x"
bx w"
bx v"
xu"
xt"
bx s"
bx r"
bx q"
b0 p"
b0 o"
bx n"
bx m"
bx l"
bx k"
bx j"
bx i"
bx h"
bx g"
bx f"
bx e"
bx d"
bx c"
bx b"
bx a"
bx `"
x_"
bx ^"
bx ]"
b0 \"
bx ["
bx Z"
bx Y"
bx X"
bx W"
bx V"
bx U"
bx T"
bx S"
b0 R"
b0 Q"
b0 P"
b0 O"
bx N"
bx M"
bx L"
b0 K"
bx J"
bx I"
bx H"
bx G"
bx F"
bx E"
b0 D"
bx C"
bx B"
b0x A"
bx @"
b0 ?"
bx >"
bx ="
bx <"
bx ;"
x:"
bx 9"
x8"
x7"
bx 6"
bx 5"
bx 4"
b0 3"
bx 2"
01"
b0 0"
bx /"
bx ."
bx -"
bx00000000 ,"
b0 +"
bx *"
x)"
x("
bx '"
b0 &"
bx %"
bx $"
bx #"
bx ""
bx !"
b0 ~
b0 }
x|
x{
0z
0y
bx x
b0 w
b0 v
0u
b0 t
bx s
b0x00xx00000000 r
bx q
b0 p
xo
0n
b0 m
0l
bx k
b0 j
b0 i
b0 h
xg
bx f
bx e
b0 d
bx c
b0 b
xa
0`
bx _
b0 ^
bx ]
bx \
bx [
b0 Z
bx Y
bx X
xW
xV
bx U
bx T
bx S
bx R
bx Q
b0 P
bx O
b0 N
xM
0L
xK
0J
b0 I
bx H
b0 G
b0 F
b0 E
b0 D
b0 C
b0 B
xA
b0 @
b0 ?
x>
bx =
b0 <
0;
0:
bx 9
x8
bx 7
bx 6
bx 5
bx 4
bx 3
x2
x1
bx 0
b0x /
0.
bx -
bx ,
b0x +
b0 *
0)
b0 (
b0 '
b0 &
0%
x$
x#
1"
0!
$end
#10000
b110100000000010000000100000000 -
b110100000000010000000100000000 =
b110100000000010000000100000000 '$
b110100000000010000000100000000 h$
0/#
0-#
0U#
0_"
b0 W#
b0 X#
b0 Y#
b0 Z#
b0 ,"
b0 x"
b0 6#
b0 %"
b0 q"
b0 9#
b0 l"
b0 j"
0t"
b0 }"
b0 f"
b0 k"
b0 h"
b0 =$
b0 S"
b0 ,
b0 0
b0 g$
b0 H
b0 &$
b0 \$
b0 q
b0 ^#
b0 ($
b100 [#
b0 s
b0 M#
b0 r#
b0 k
b0 V#
b0 )$
0o
b0 ."
b0 ]"
b0 5#
b0 /"
b0 z"
b0 |#
b0 -"
b0 y"
b0 }#
b0 '"
b0 s"
b0 !$
0("
0)"
0{
b0 !"
b0 a"
b0 $$
b0 *"
b0 v"
b0 ~#
1u"
b0 ""
b0 `"
b0 :#
b0 #"
b0 g"
b0 #$
b0 $"
b0 i"
b0 "$
b0 5"
b0 ["
b0 2#
b0 N#
b0 6"
b0 |"
b0 z#
b0 4"
b0 {"
b0 {#
0V
0W
b0 \
b0 F"
b0 2$
b0 ]
b0 A#
b0 1$
b0 [
b0 B#
b0 3$
b0 c
b0 ?#
b0 .$
0a
b0 _
b0 @#
b0 /$
b0 e
b0 >#
b0 *$
b0 S
b0 E#
b0 6$
b0 R
b0 F#
b0 7$
0M
0K
b0 Q
b0 G#
b0 8$
b0 O
b0 H#
b0 9$
b0 9
b0 E"
b0 e"
b0 ;$
b0 S$
08
b0 7
b0 B"
b0 d"
b0 :$
b0 T$
02
01
b0 4
b0 W$
b0 _$
b0 3
b0 X$
b0 `$
b0 f
b0 r"
b0 L#
b0 x
b0 w"
b0 K#
b0 X"
b0 W"
b0 9"
b0 Y"
b0 ^"
0:"
b0 Z"
b0 +
b0 /
b0 A"
0#
b10011000000000100000010 M"
b10000000000000000 I"
b0 >"
b0 L"
b0 ,$
b0 @"
b0 G"
b0 +$
b10000000000000000000000000000 ="
b10000000000000000000000000000 N"
b10000000000000000000000000000 0$
b0 H"
b0 J"
1!
#20000
0!
#30000
b10000000000000000 I"
b10000000000000000000000000000 ="
b10000000000000000000000000000 N"
b10000000000000000000000000000 0$
1!
#40000
0!
#50000
b10000000000000000 I"
b10000000000000000000000000000 ="
b10000000000000000000000000000 N"
b10000000000000000000000000000 0$
1!
#60000
0!
#70000
b10000000000000000 I"
b10000000000000000000000000000 ="
b10000000000000000000000000000 N"
b10000000000000000000000000000 0$
1!
#80000
0!
#90000
b10000000000000000 I"
b10000000000000000000000000000 ="
b10000000000000000000000000000 N"
b10000000000000000000000000000 0$
1!
#100000
0!
#110000
b10000000000000000 I"
b10000000000000000000000000000 ="
b10000000000000000000000000000 N"
b10000000000000000000000000000 0$
1!
#120000
0!
#130000
b10000000000000000 I"
b10000000000000000000000000000 ="
b10000000000000000000000000000 N"
b10000000000000000000000000000 0$
1!
#140000
0!
#150000
b10000000000000000 I"
b10000000000000000000000000000 ="
b10000000000000000000000000000 N"
b10000000000000000000000000000 0$
1!
#160000
0!
#170000
b10000000000000000 I"
b10000000000000000000000000000 ="
b10000000000000000000000000000 N"
b10000000000000000000000000000 0$
1!
#180000
0!
#190000
b10000000000000000 I"
b10000000000000000000000000000 ="
b10000000000000000000000000000 N"
b10000000000000000000000000000 0$
1!
#195000
0|
07"
b10 v
b10 a#
b10 q#
0d#
b0 r
b0 _#
b0 s#
0c#
1g#
b1000 m
b1000 h#
b1000 u#
1g
1>
0A
b10000000000000000000000000000 B$
0"
#200000
0!
#210000
b100000000 i
b100000000 l#
b100000000 w#
b1 v
b1 a#
b1 q#
b100101 w
b100101 `#
b100101 p#
b1000000000000000001000 -
b1000000000000000001000 =
b1000000000000000001000 '$
b1000000000000000001000 h$
b1 @
b1 k#
b1 ^$
b100000000 e#
b1 h
b1 o#
b1 x#
0>
1A
b110100000000010000000100000000 p
b110100000000010000000100000000 f#
b110100000000010000000100000000 t#
1z
b0 T
b0 m"
b0 E$
b0 O$
b0 X
b0 n"
b0 D$
b0 N$
b1 W#
b100 Y#
b1101 Z#
b100 ,
b100 0
b100 g$
b100 H
b100 &$
b100 \$
b110100000000010000000100000000 q
b110100000000010000000100000000 ^#
b110100000000010000000100000000 ($
b1000 '"
b1000 s"
b1000 !$
1{
b10 4"
b10 {"
b10 {#
b0 U
b0 D#
b0 5$
b0 Y
b0 C#
b0 4$
b1 J"
1!
#220000
0!
