YaoPad.srcs/sources_1/cpu/openmips_min_sopc_tb.vcd
$date
	Sat Nov 18 01:04:11 2017
$end
$version
	Icarus Verilog
$end
$timescale
	1ps
$end
$scope module openmips_min_sopc_tb $end
$scope module openmips_min_sopc0 $end
$var wire 1 ! clk $end
$var wire 32 " inst [31:0] $end
$var wire 32 # inst_addr [31:0] $end
$var wire 1 $ rom_ce $end
$var wire 1 % rst $end
$scope module cpu0 $end
$var wire 1 ! clk $end
$var wire 8 & ex_aluop_i [7:0] $end
$var wire 3 ' ex_alusel_i [2:0] $end
$var wire 32 ( ex_reg1_i [31:0] $end
$var wire 32 ) ex_reg2_i [31:0] $end
$var wire 5 * ex_wd_i [4:0] $end
$var wire 5 + ex_wd_o [4:0] $end
$var wire 32 , ex_wdata_o [31:0] $end
$var wire 1 - ex_wreg_i $end
$var wire 1 . ex_wreg_o $end
$var wire 8 / id_aluop_o [7:0] $end
$var wire 3 0 id_alusel_o [2:0] $end
$var wire 32 1 id_inst_i [31:0] $end
$var wire 32 2 id_pc_i [31:0] $end
$var wire 32 3 id_reg1_o [31:0] $end
$var wire 32 4 id_reg2_o [31:0] $end
$var wire 5 5 id_wd_o [4:0] $end
$var wire 1 6 id_wreg_o $end
$var wire 5 7 mem_wd_i [4:0] $end
$var wire 5 8 mem_wd_o [4:0] $end
$var wire 32 9 mem_wdata_i [31:0] $end
$var wire 32 : mem_wdata_o [31:0] $end
$var wire 1 ; mem_wreg_i $end
$var wire 1 < mem_wreg_o $end
$var wire 32 = pc [31:0] $end
$var wire 5 > reg1_addr [4:0] $end
$var wire 32 ? reg1_data [31:0] $end
$var wire 1 @ reg1_read $end
$var wire 5 A reg2_addr [4:0] $end
$var wire 32 B reg2_data [31:0] $end
$var wire 1 C reg2_read $end
$var wire 32 D rom_addr_o [31:0] $end
$var wire 1 $ rom_ce_o $end
$var wire 32 E rom_data_i [31:0] $end
$var wire 1 % rst $end
$var wire 5 F wb_wd_i [4:0] $end
$var wire 32 G wb_wdata_i [31:0] $end
$var wire 1 H wb_wreg_i $end
$scope module pc_rom0 $end
$var wire 1 ! clk $end
$var wire 1 % rst $end
$var reg 1 I ce $end
$var reg 32 J pc [31:0] $end
$upscope $end
$scope module if_id0 $end
$var wire 1 ! clk $end
$var wire 32 K if_inst [31:0] $end
$var wire 32 L if_pc [31:0] $end
$var wire 1 % rst $end
$var reg 32 M id_inst [31:0] $end
$var reg 32 N id_pc [31:0] $end
$upscope $end
$scope module id0 $end
$var wire 5 O ex_wd_i [4:0] $end
$var wire 32 P ex_wdata_i [31:0] $end
$var wire 1 . ex_wreg_i $end
$var wire 32 Q inst_i [31:0] $end
$var wire 5 R mem_wd_i [4:0] $end
$var wire 32 S mem_wdata_i [31:0] $end
$var wire 1 < mem_wreg_i $end
$var wire 6 T op1 [5:0] $end
$var wire 5 U op2 [4:0] $end
$var wire 6 V op3 [5:0] $end
$var wire 5 W op4 [4:0] $end
$var wire 32 X pc_i [31:0] $end
$var wire 32 Y reg1_data_i [31:0] $end
$var wire 32 Z reg2_data_i [31:0] $end
$var wire 1 % rst $end
$var reg 8 [ aluop_o [7:0] $end
$var reg 3 \ alusel_o [2:0] $end
$var reg 32 ] immi [31:0] $end
$var reg 5 ^ reg1_addr_o [4:0] $end
$var reg 32 _ reg1_o [31:0] $end
$var reg 1 ` reg1_read_o $end
$var reg 5 a reg2_addr_o [4:0] $end
$var reg 32 b reg2_o [31:0] $end
$var reg 1 c reg2_read_o $end
$var reg 5 d wd_o [4:0] $end
$var reg 1 e wreg_o $end
$upscope $end
$scope module regfile0 $end
$var wire 1 ! clk $end
$var wire 5 f raddr1 [4:0] $end
$var wire 5 g raddr2 [4:0] $end
$var wire 1 @ re1 $end
$var wire 1 C re2 $end
$var wire 1 % rst $end
$var wire 5 h waddr [4:0] $end
$var wire 32 i wdata [31:0] $end
$var wire 1 H we $end
$var reg 32 j rdata1 [31:0] $end
$var reg 32 k rdata2 [31:0] $end
$upscope $end
$scope module id_ex0 $end
$var wire 1 ! clk $end
$var wire 8 l id_aluop [7:0] $end
$var wire 3 m id_alusel [2:0] $end
$var wire 32 n id_reg1 [31:0] $end
$var wire 32 o id_reg2 [31:0] $end
$var wire 5 p id_wd [4:0] $end
$var wire 1 6 id_wreg $end
$var wire 1 % rst $end
$var reg 8 q ex_aluop [7:0] $end
$var reg 3 r ex_alusel [2:0] $end
$var reg 32 s ex_reg1 [31:0] $end
$var reg 32 t ex_reg2 [31:0] $end
$var reg 5 u ex_wd [4:0] $end
$var reg 1 v ex_wreg $end
$upscope $end
$scope module ex0 $end
$var wire 8 w aluop_i [7:0] $end
$var wire 3 x alusel_i [2:0] $end
$var wire 32 y reg1_i [31:0] $end
$var wire 32 z reg2_i [31:0] $end
$var wire 1 % rst $end
$var wire 5 { wd_i [4:0] $end
$var wire 1 - wreg_i $end
$var reg 32 | logicres [31:0] $end
$var reg 32 } shiftres [31:0] $end
$var reg 5 ~ wd_o [4:0] $end
$var reg 32 !" wdata_o [31:0] $end
$var reg 1 "" wreg_o $end
$upscope $end
$scope module ex_mem0 $end
$var wire 1 ! clk $end
$var wire 5 #" ex_wd [4:0] $end
$var wire 32 $" ex_wdata [31:0] $end
$var wire 1 . ex_wreg $end
$var wire 1 % rst $end
$var reg 5 %" mem_wd [4:0] $end
$var reg 32 &" mem_wdata [31:0] $end
$var reg 1 '" mem_wreg $end
$upscope $end
$scope module mem0 $end
$var wire 1 % rst $end
$var wire 5 (" wd_i [4:0] $end
$var wire 32 )" wdata_i [31:0] $end
$var wire 1 ; wreg_i $end
$var reg 5 *" wd_o [4:0] $end
$var reg 32 +" wdata_o [31:0] $end
$var reg 1 ," wreg_o $end
$upscope $end
$scope module mem_wb0 $end
$var wire 1 ! clk $end
$var wire 5 -" mem_wd [4:0] $end
$var wire 32 ." mem_wdata [31:0] $end
$var wire 1 < mem_wreg $end
$var wire 1 % rst $end
$var reg 5 /" wb_wd [4:0] $end
$var reg 32 0" wb_wdata [31:0] $end
$var reg 1 1" wb_wreg $end
$upscope $end
$upscope $end
$scope module inst_rom0 $end
$var wire 32 2" addr [31:0] $end
$var wire 1 $ ce $end
$var reg 32 3" inst [31:0] $end
$upscope $end
$upscope $end
$upscope $end
$enddefinitions $end
#0
$dumpvars
bx 3"
bx 2"
x1"
bx 0"
bx /"
b0 ."
b0 -"
0,"
b0 +"
b0 *"
bx )"
bx ("
x'"
bx &"
bx %"
b0 $"
b0 #"
0""
b0 !"
b0 ~
bx }
bx |
bx {
bx z
bx y
bx x
bx w
xv
bx u
bx t
bx s
bx r
bx q
b0 p
b0 o
b0 n
b0 m
b0 l
b0 k
b0 j
bx i
bx h
b0 g
b0 f
xe
b0 d
xc
b0 b
b0 a
x`
b0 _
b0 ^
b0 ]
b0 \
b0 [
b0 Z
b0 Y
bx X
bx W
bx V
bx U
bx T
b0 S
b0 R
bx Q
b0 P
b0 O
bx N
bx M
bx L
bx K
bx J
xI
xH
bx G
bx F
bx E
bx D
xC
b0 B
b0 A
x@
b0 ?
b0 >
bx =
0<
x;
b0 :
bx 9
b0 8
bx 7
x6
b0 5
b0 4
b0 3
bx 2
bx 1
b0 0
b0 /
0.
x-
b0 ,
b0 +
bx *
bx )
bx (
bx '
bx &
1%
x$
bx #
bx "
0!
$end
#10000
b111100000000100000010000000100 3"
b111100000000100000010000000100 "
b111100000000100000010000000100 E
b111100000000100000010000000100 K
b0 T
b0 U
b0 V
b0 W
b0 J
b0 =
b0 L
b0 #
b0 D
b0 2"
b0 M
b0 1
b0 Q
b0 N
b0 2
b0 X
0v
0-
b0 u
b0 *
b0 {
b0 t
b0 )
b0 z
b0 s
b0 (
b0 y
b0 q
b0 &
b0 w
b0 r
b0 '
b0 x
0'"
0;
b0 %"
b0 7
b0 ("
b0 &"
b0 9
b0 )"
01"
0H
b0 /"
b0 F
b0 h
b0 0"
b0 G
b0 i
1!
#20000
0!
#30000
1!
#40000
0!
#50000
1!
#60000
0!
#70000
1!
#80000
0!
#90000
1!
#100000
0!
#110000
1!
#120000
0!
#130000
1!
#140000
0!
#150000
1!
#160000
0!
#170000
1!
#180000
0!
#190000
1!
#195000
b0 }
1e
16
1c
1C
0`
0@
b10 \
b10 0
b10 m
0%
#200000
0!
#210000
b100000001000000000000000000 b
b100000001000000000000000000 4
b100000001000000000000000000 o
b100000001000000000000000000 ]
b10 d
b10 5
b10 p
0c
0C
1`
1@
b1 \
b1 0
b1 m
b100101 [
b100101 /
b100101 l
b110100010000100000010000000100 3"
b110100010000100000010000000100 "
b110100010000100000010000000100 E
b110100010000100000010000000100 K
b10 a
b10 A
b10 g
1""
1.
b1111 T
b10000 U
b100 V
b10 W
b100 J
b100 =
b100 L
b100 #
b100 D
b100 2"
b111100000000100000010000000100 M
b111100000000100000010000000100 1
b111100000000100000010000000100 Q
1v
1-
b10 r
b10 '
b10 x
1!
#220000
0!
#230000
bx j
bx ?
bx Y
b10000000100 b
b10000000100 4
b10000000100 o
b100000001000000000000000000 _
b100000001000000000000000000 3
b100000001000000000000000000 n
b10000000100 ]
b10 ^
b10 >
b10 f
1,"
1<
b100000001000000000000000000 |
b10 ~
b10 +
b10 O
b10 #"
b100000001000000000000000000 !"
b100000001000000000000000000 ,
b100000001000000000000000000 P
b100000001000000000000000000 $"
b110100000001110000000000000111 3"
b110100000001110000000000000111 "
b110100000001110000000000000111 E
b110100000001110000000000000111 K
b1101 T
1'"
1;
b10 u
b10 *
b10 {
b100000001000000000000000000 t
b100000001000000000000000000 )
b100000001000000000000000000 z
b100101 q
b100101 &
b100101 w
b1 r
b1 '
b1 x
b110100010000100000010000000100 M
b110100010000100000010000000100 1
b110100010000100000010000000100 Q
b100 N
b100 2
b100 X
b1000 J
b1000 =
b1000 L
b1000 #
b1000 D
b1000 2"
1!
#240000
0!
#250000
b0 j
b0 ?
b0 Y
b100000001000000010000000100 !"
b100000001000000010000000100 ,
b100000001000000010000000100 P
b100000001000000010000000100 $"
b111 b
b111 4
b111 o
b0 _
b0 3
b0 n
b110100000001010000000000000101 3"
b110100000001010000000000000101 "
b110100000001010000000000000101 E
b110100000001010000000000000101 K
b111 ]
b111 d
b111 5
b111 p
b0 ^
b0 >
b0 f
b100000001000000010000000100 |
b100000001000000000000000000 +"
b100000001000000000000000000 :
b100000001000000000000000000 S
b100000001000000000000000000 ."
b10 *"
b10 8
b10 R
b10 -"
b0 U
b111 V
b111 W
b1100 J
b1100 =
b1100 L
b1100 #
b1100 D
b1100 2"
b110100000001110000000000000111 M
b110100000001110000000000000111 1
b110100000001110000000000000111 Q
b1000 N
b1000 2
b1000 X
b10000000100 t
b10000000100 )
b10000000100 z
b100000001000000000000000000 s
b100000001000000000000000000 (
b100000001000000000000000000 y
b10 %"
b10 7
b10 ("
b100000001000000000000000000 &"
b100000001000000000000000000 9
b100000001000000000000000000 )"
11"
1H
1!
#260000
0!
#270000
b111 !"
b111 ,
b111 P
b111 $"
b101 b
b101 4
b101 o
b100000001000000010000000100 +"
b100000001000000010000000100 :
b100000001000000010000000100 S
b100000001000000010000000100 ."
b111 |
b111 ~
b111 +
b111 O
b111 #"
b101 ]
b101 d
b101 5
b101 p
b110100000010000000000000001000 3"
b110100000010000000000000001000 "
b110100000010000000000000001000 E
b110100000010000000000000001000 K
b101 V
b101 W
b10 /"
b10 F
b10 h
b100000001000000000000000000 0"
b100000001000000000000000000 G
b100000001000000000000000000 i
b100000001000000010000000100 &"
b100000001000000010000000100 9
b100000001000000010000000100 )"
b111 u
b111 *
b111 {
b111 t
b111 )
b111 z
b0 s
b0 (
b0 y
b110100000001010000000000000101 M
b110100000001010000000000000101 1
b110100000001010000000000000101 Q
b1100 N
b1100 2
b1100 X
b10000 J
b10000 =
b10000 L
b10000 #
b10000 D
b10000 2"
1!
#280000
0!
#290000
b101 !"
b101 ,
b101 P
b101 $"
b1000 b
b1000 4
b1000 o
b1111 3"
b1111 "
b1111 E
b1111 K
b1000 ]
b1000 d
b1000 5
b1000 p
b101 |
b101 ~
b101 +
b101 O
b101 #"
b111 +"
b111 :
b111 S
b111 ."
b111 *"
b111 8
b111 R
b111 -"
b1000 V
b1000 W
b10100 J
b10100 =
b10100 L
b10100 #
b10100 D
b10100 2"
b110100000010000000000000001000 M
b110100000010000000000000001000 1
b110100000010000000000000001000 Q
b10000 N
b10000 2
b10000 X
b101 u
b101 *
b101 {
b101 t
b101 )
b101 z
b111 %"
b111 7
b111 ("
b111 &"
b111 9
b111 )"
b100000001000000010000000100 0"
b100000001000000010000000100 G
b100000001000000010000000100 i
1!
#300000
0!
#310000
b1000 !"
b1000 ,
b1000 P
b1000 $"
b0 b
b0 4
b0 o
0e
06
b0 a
b0 A
b0 g
1c
1C
b0 \
b0 0
b0 m
b0 [
b0 /
b0 l
b101 +"
b101 :
b101 S
b101 ."
b101 *"
b101 8
b101 R
b101 -"
b1000 |
b1000 ~
b1000 +
b1000 O
b1000 #"
b0 ]
b0 d
b0 5
b0 p
b100001001000000000 3"
b100001001000000000 "
b100001001000000000 E
b100001001000000000 K
b0 T
b1111 V
b0 W
b111 /"
b111 F
b111 h
b111 0"
b111 G
b111 i
b101 %"
b101 7
b101 ("
b101 &"
b101 9
b101 )"
b1000 u
b1000 *
b1000 {
b1000 t
b1000 )
b1000 z
b1111 M
b1111 1
b1111 Q
b10100 N
b10100 2
b10100 X
b11000 J
b11000 =
b11000 L
b11000 #
b11000 D
b11000 2"
1!
#320000
0!
#330000
b100000001000000010000000100 b
b100000001000000010000000100 4
b100000001000000010000000100 o
b100000001000000010000000100 k
b100000001000000010000000100 B
b100000001000000010000000100 Z
b1000 _
b1000 3
b1000 n
1e
16
b1000 ]
0`
0@
b10 \
b10 0
b10 m
b111000100001000000000100 3"
b111000100001000000000100 "
b111000100001000000000100 E
b111000100001000000000100 K
b10 a
b10 A
b10 g
b10 d
b10 5
b10 p
0""
0.
b0 ~
b0 +
b0 O
b0 #"
b0 !"
b0 ,
b0 P
b0 $"
b1000 +"
b1000 :
b1000 S
b1000 ."
b1000 *"
b1000 8
b1000 R
b1000 -"
b1000 U
b0 V
b10 W
b11100 J
b11100 =
b11100 L
b11100 #
b11100 D
b11100 2"
b100001001000000000 M
b100001001000000000 1
b100001001000000000 Q
b11000 N
b11000 2
b11000 X
0v
0-
b0 u
b0 *
b0 {
b0 t
b0 )
b0 z
b0 q
b0 &
b0 w
b0 r
b0 '
b0 x
b1000 %"
b1000 7
b1000 ("
b1000 &"
b1000 9
b1000 )"
b101 /"
b101 F
b101 h
b101 0"
b101 G
b101 i
1!
#340000
0!
#350000
b111 j
b111 ?
b111 Y
b100000001000000010000000000 !"
b100000001000000010000000000 ,
b100000001000000010000000000 P
b100000001000000010000000000 $"
b100000001000000010000000000 b
b100000001000000010000000000 4
b100000001000000010000000000 o
b111 _
b111 3
b111 n
b111 ^
b111 >
b111 f
1`
1@
b0 +"
b0 :
b0 S
b0 ."
0,"
0<
b0 *"
b0 8
b0 R
b0 -"
b100000001000000010000000000 }
1""
1.
b10 ~
b10 +
b10 O
b10 #"
b0 ]
b100001001000000010 3"
b100001001000000010 "
b100001001000000010 E
b100001001000000010 K
b0 U
b100 V
b1000 /"
b1000 F
b1000 h
b1000 0"
b1000 G
b1000 i
0'"
0;
b0 %"
b0 7
b0 ("
b0 &"
b0 9
b0 )"
1v
1-
b10 u
b10 *
b10 {
b100000001000000010000000100 t
b100000001000000010000000100 )
b100000001000000010000000100 z
b1000 s
b1000 (
b1000 y
b10 r
b10 '
b10 x
b111000100001000000000100 M
b111000100001000000000100 1
b111000100001000000000100 Q
b11100 N
b11100 2
b11100 X
b100000 J
b100000 =
b100000 L
b100000 #
b100000 D
b100000 2"
1!
#360000
0!
#370000
b10000000100000000000000000 b
b10000000100000000000000000 4
b10000000100000000000000000 o
b0 j
b0 ?
b0 Y
b10000000100000000000000000 !"
b10000000100000000000000000 ,
b10000000100000000000000000 P
b10000000100000000000000000 $"
b1000 _
b1000 3
b1000 n
b1000 ]
0`
0@
b10 [
b10 /
b10 l
b101000100001000000000110 3"
b101000100001000000000110 "
b101000100001000000000110 E
b101000100001000000000110 K
b0 ^
b0 >
b0 f
b10000000100000000000000000 }
b100000001000000010000000000 +"
b100000001000000010000000000 :
b100000001000000010000000000 S
b100000001000000010000000000 ."
1,"
1<
b10 *"
b10 8
b10 R
b10 -"
b1000 U
b10 V
b100100 J
b100100 =
b100100 L
b100100 #
b100100 D
b100100 2"
b100001001000000010 M
b100001001000000010 1
b100001001000000010 Q
b100000 N
b100000 2
b100000 X
b100000001000000010000000000 t
b100000001000000010000000000 )
b100000001000000010000000000 z
b111 s
b111 (
b111 y
1'"
1;
b10 %"
b10 7
b10 ("
b100000001000000010000000000 &"
b100000001000000010000000000 9
b100000001000000010000000000 )"
01"
0H
b0 /"
b0 F
b0 h
b0 0"
b0 G
b0 i
1!
#380000
0!
#390000
b100000001000000000 b
b100000001000000000 4
b100000001000000000 o
b101 j
b101 ?
b101 Y
b100000001000000000 !"
b100000001000000000 ,
b100000001000000000 P
b100000001000000000 $"
b101 _
b101 3
b101 n
b101 ^
b101 >
b101 f
1`
1@
b100000001000000010000000000 k
b100000001000000010000000000 B
b100000001000000010000000000 Z
b10000000100000000000000000 +"
b10000000100000000000000000 :
b10000000100000000000000000 S
b10000000100000000000000000 ."
b100000001000000000 }
b0 ]
b0 3"
b0 "
b0 E
b0 K
b0 U
b110 V
11"
1H
b10 /"
b10 F
b10 h
b100000001000000010000000000 0"
b100000001000000010000000000 G
b100000001000000010000000000 i
b10000000100000000000000000 &"
b10000000100000000000000000 9
b10000000100000000000000000 )"
b10000000100000000000000000 t
b10000000100000000000000000 )
b10000000100000000000000000 z
b1000 s
b1000 (
b1000 y
b10 q
b10 &
b10 w
b101000100001000000000110 M
b101000100001000000000110 1
b101000100001000000000110 Q
b100100 N
b100100 2
b100100 X
b101000 J
b101000 =
b101000 L
b101000 #
b101000 D
b101000 2"
1!
#400000
0!
#410000
b0 j
b0 ?
b0 Y
b1000000010000 !"
b1000000010000 ,
b1000000010000 P
b1000000010000 $"
b0 b
b0 4
b0 o
b0 _
b0 3
b0 n
0`
0@
b0 [
b0 /
b0 l
b100001010011000000 3"
b100001010011000000 "
b100001010011000000 E
b100001010011000000 K
b0 a
b0 A
b0 g
b0 ^
b0 >
b0 f
b0 d
b0 5
b0 p
b1000000010000 }
b100000001000000000 +"
b100000001000000000 :
b100000001000000000 S
b100000001000000000 ."
b0 k
b0 B
b0 Z
b0 V
b0 W
b101100 J
b101100 =
b101100 L
b101100 #
b101100 D
b101100 2"
b0 M
b0 1
b0 Q
b101000 N
b101000 2
b101000 X
b100000001000000000 t
b100000001000000000 )
b100000001000000000 z
b101 s
b101 (
b101 y
b100000001000000000 &"
b100000001000000000 9
b100000001000000000 )"
b10000000100000000000000000 0"
b10000000100000000000000000 G
b10000000100000000000000000 i
1!
#420000
0!
#430000
b0 !"
b0 ,
b0 P
b0 $"
b100000001000000000 k
b100000001000000000 B
b100000001000000000 Z
b1000000010000 b
b1000000010000 4
b1000000010000 o
b10011 _
b10011 3
b10011 n
b10011 ]
b1000000010000 +"
b1000000010000 :
b1000000010000 S
b1000000010000 ."
b0 }
b0 ~
b0 +
b0 O
b0 #"
b10 a
b10 A
b10 g
b10 d
b10 5
b10 p
b1000000 3"
b1000000 "
b1000000 E
b1000000 K
b10011 U
b10 W
b100000001000000000 0"
b100000001000000000 G
b100000001000000000 i
b1000000010000 &"
b1000000010000 9
b1000000010000 )"
b0 u
b0 *
b0 {
b0 t
b0 )
b0 z
b0 s
b0 (
b0 y
b0 q
b0 &
b0 w
b100001010011000000 M
b100001010011000000 1
b100001010011000000 Q
b101100 N
b101100 2
b101100 X
b110000 J
b110000 =
b110000 L
b110000 #
b110000 D
b110000 2"
1!
#440000
0!
#450000
b10000000100000000000000000000000 !"
b10000000100000000000000000000000 ,
b10000000100000000000000000000000 P
b10000000100000000000000000000000 $"
b0 b
b0 4
b0 o
b1 _
b1 3
b1 n
b100001010000000011 3"
b100001010000000011 "
b100001010000000011 E
b100001010000000011 K
b0 a
b0 A
b0 g
b1 ]
b0 d
b0 5
b0 p
b10000000100000000000000000000000 }
b10 ~
b10 +
b10 O
b10 #"
b0 +"
b0 :
b0 S
b0 ."
b0 *"
b0 8
b0 R
b0 -"
b0 k
b0 B
b0 Z
b1 U
b0 W
b110100 J
b110100 =
b110100 L
b110100 #
b110100 D
b110100 2"
b1000000 M
b1000000 1
b1000000 Q
b110000 N
b110000 2
b110000 X
b10 u
b10 *
b10 {
b1000000010000 t
b1000000010000 )
b1000000010000 z
b10011 s
b10011 (
b10011 y
b0 %"
b0 7
b0 ("
b0 &"
b0 9
b0 )"
b1000000010000 0"
b1000000010000 G
b1000000010000 i
1!
#460000
0!
#470000
b0 !"
b0 ,
b0 P
b0 $"
b1000000010000 k
b1000000010000 B
b1000000010000 Z
b10000000100000000000000000000000 b
b10000000100000000000000000000000 4
b10000000100000000000000000000000 o
b10000 _
b10000 3
b10000 n
b11 [
b11 /
b11 l
b10000000100000000000000000000000 +"
b10000000100000000000000000000000 :
b10000000100000000000000000000000 S
b10000000100000000000000000000000 ."
b10 *"
b10 8
b10 R
b10 -"
b0 }
b0 ~
b0 +
b0 O
b0 #"
b10 a
b10 A
b10 g
b10000 ]
b10 d
b10 5
b10 p
b1000000100001000000000111 3"
b1000000100001000000000111 "
b1000000100001000000000111 E
b1000000100001000000000111 K
b10000 U
b11 V
b10 W
b0 /"
b0 F
b0 h
b0 0"
b0 G
b0 i
b10 %"
b10 7
b10 ("
b10000000100000000000000000000000 &"
b10000000100000000000000000000000 9
b10000000100000000000000000000000 )"
b0 u
b0 *
b0 {
b0 t
b0 )
b0 z
b1 s
b1 (
b1 y
b100001010000000011 M
b100001010000000011 1
b100001010000000011 Q
b110100 N
b110100 2
b110100 X
b111000 J
b111000 =
b111000 L
b111000 #
b111000 D
b111000 2"
1!
#480000
0!
#490000
b1000 j
b1000 ?
b1000 Y
b1000000010000000 !"
b1000000010000000 ,
b1000000010000000 P
b1000000010000000 $"
b1000000010000000 b
b1000000010000000 4
b1000000010000000 o
b1000 _
b1000 3
b1000 n
b1000 ^
b1000 >
b1000 f
1`
1@
bx 3"
bx "
bx E
bx K
b0 ]
b1000000010000000 }
b10 ~
b10 +
b10 O
b10 #"
b0 +"
b0 :
b0 S
b0 ."
b0 *"
b0 8
b0 R
b0 -"
b10000000100000000000000000000000 k
b10000000100000000000000000000000 B
b10000000100000000000000000000000 Z
b0 U
b111 V
b111100 J
b111100 =
b111100 L
b111100 #
b111100 D
b111100 2"
b1000000100001000000000111 M
b1000000100001000000000111 1
b1000000100001000000000111 Q
b111000 N
b111000 2
b111000 X
b10 u
b10 *
b10 {
b10000000100000000000000000000000 t
b10000000100000000000000000000000 )
b10000000100000000000000000000000 z
b10000 s
b10000 (
b10000 y
b11 q
b11 &
b11 w
b0 %"
b0 7
b0 ("
b0 &"
b0 9
b0 )"
b10 /"
b10 F
b10 h
b10000000100000000000000000000000 0"
b10000000100000000000000000000000 G
b10000000100000000000000000000000 i
1!
#500000
0!
#510000
b10000000 !"
b10000000 ,
b10000000 P
b10000000 $"
b0 k
b0 B
b0 Z
b0 j
b0 ?
b0 Y
b0 b
b0 4
b0 o
b0 _
b0 3
b0 n
0e
06
0c
0C
0`
0@
b1 \
b1 0
b1 m
b0 [
b0 /
b0 l
b1000000010000000 +"
b1000000010000000 :
b1000000010000000 S
b1000000010000000 ."
b10 *"
b10 8
b10 R
b10 -"
b10000000 }
bx a
bx A
bx g
bx ^
bx >
bx f
b0 d
b0 5
b0 p
bx T
bx U
bx V
bx W
b0 /"
b0 F
b0 h
b0 0"
b0 G
b0 i
b10 %"
b10 7
b10 ("
b1000000010000000 &"
b1000000010000000 9
b1000000010000000 )"
b1000000010000000 t
b1000000010000000 )
b1000000010000000 z
b1000 s
b1000 (
b1000 y
bx M
bx 1
bx Q
b111100 N
b111100 2
b111100 X
b1000000 J
b1000000 =
b1000000 L
b1000000 #
b1000000 D
b1000000 2"
1!
#520000
0!
#530000
b0 }
0""
0.
b0 ~
b0 +
b0 O
b0 #"
b1000 !"
b1000 ,
b1000 P
b1000 $"
b10000000 +"
b10000000 :
b10000000 S
b10000000 ."
b1000100 J
b1000100 =
b1000100 L
b1000100 #
b1000100 D
b1000100 2"
b1000000 N
b1000000 2
b1000000 X
0v
0-
b0 u
b0 *
b0 {
b0 t
b0 )
b0 z
b0 s
b0 (
b0 y
b0 q
b0 &
b0 w
b1 r
b1 '
b1 x
b10000000 &"
b10000000 9
b10000000 )"
b10 /"
b10 F
b10 h
b1000000010000000 0"
b1000000010000000 G
b1000000010000000 i
1!
#540000
0!
#550000
b1000 +"
b1000 :
b1000 S
b1000 ."
0,"
0<
b0 *"
b0 8
b0 R
b0 -"
b10000000 0"
b10000000 G
b10000000 i
0'"
0;
b0 %"
b0 7
b0 ("
b1000 &"
b1000 9
b1000 )"
b1000100 N
b1000100 2
b1000100 X
b1001000 J
b1001000 =
b1001000 L
b1001000 #
b1001000 D
b1001000 2"
1!
#560000
0!
#570000
b1001100 J
b1001100 =
b1001100 L
b1001100 #
b1001100 D
b1001100 2"
b1001000 N
b1001000 2
b1001000 X
01"
0H
b0 /"
b0 F
b0 h
b1000 0"
b1000 G
b1000 i
1!
#580000
0!
#590000
b1001100 N
b1001100 2
b1001100 X
b1010000 J
b1010000 =
b1010000 L
b1010000 #
b1010000 D
b1010000 2"
1!
#600000
0!
#610000
b1010100 J
b1010100 =
b1010100 L
b1010100 #
b1010100 D
b1010100 2"
b1010000 N
b1010000 2
b1010000 X
1!
#620000
0!
#630000
b1010100 N
b1010100 2
b1010100 X
b1011000 J
b1011000 =
b1011000 L
b1011000 #
b1011000 D
b1011000 2"
1!
#640000
0!
#650000
b1011100 J
b1011100 =
b1011100 L
b1011100 #
b1011100 D
b1011100 2"
b1011000 N
b1011000 2
b1011000 X
1!
#660000
0!
#670000
b1011100 N
b1011100 2
b1011100 X
b1100000 J
b1100000 =
b1100000 L
b1100000 #
b1100000 D
b1100000 2"
1!
#680000
0!
#690000
b1100100 J
b1100100 =
b1100100 L
b1100100 #
b1100100 D
b1100100 2"
b1100000 N
b1100000 2
b1100000 X
1!
#700000
0!
#710000
b1100100 N
b1100100 2
b1100100 X
b1101000 J
b1101000 =
b1101000 L
b1101000 #
b1101000 D
b1101000 2"
1!
#720000
0!
#730000
b1101100 J
b1101100 =
b1101100 L
b1101100 #
b1101100 D
b1101100 2"
b1101000 N
b1101000 2
b1101000 X
1!
#740000
0!
#750000
b1101100 N
b1101100 2
b1101100 X
b1110000 J
b1110000 =
b1110000 L
b1110000 #
b1110000 D
b1110000 2"
1!
#760000
0!
#770000
b1110100 J
b1110100 =
b1110100 L
b1110100 #
b1110100 D
b1110100 2"
b1110000 N
b1110000 2
b1110000 X
1!
#780000
0!
#790000
b1110100 N
b1110100 2
b1110100 X
b1111000 J
b1111000 =
b1111000 L
b1111000 #
b1111000 D
b1111000 2"
1!
