YaoPad.srcs/sources_1/cpu/openmips_min_sopc_tb.vcd
$date
	Sun Nov 19 12:40:38 2017
$end
$version
	Icarus Verilog
$end
$timescale
	1ps
$end
$scope module openmips_min_sopc_tb $end
$scope module openmips_min_sopc0 $end
$var wire 1 ! clk $end
$var wire 1 " rst $end
$var wire 1 # rom_ce $end
$var wire 32 $ inst_addr [31:0] $end
$var wire 32 % inst [31:0] $end
$scope module cpu0 $end
$var wire 1 ! clk $end
$var wire 1 & div_annul $end
$var wire 32 ' rom_addr_o [31:0] $end
$var wire 1 " rst $end
$var wire 1 ( stalleq_from_id $end
$var wire 32 ) wb_hi_o [31:0] $end
$var wire 32 * wb_lo_o [31:0] $end
$var wire 1 + wb_whilo_o $end
$var wire 1 , wb_wreg_i $end
$var wire 1 - wb_whilo_i $end
$var wire 32 . wb_wdata_i [31:0] $end
$var wire 5 / wb_wd_i [4:0] $end
$var wire 32 0 wb_lo_i [31:0] $end
$var wire 32 1 wb_hi_i [31:0] $end
$var wire 1 2 stalleq_from_ex $end
$var wire 6 3 stall [5:0] $end
$var wire 32 4 rom_data_i [31:0] $end
$var wire 1 # rom_ce_o $end
$var wire 1 5 reqstalleq_from_id $end
$var wire 1 6 reg2_read $end
$var wire 32 7 reg2_data [31:0] $end
$var wire 5 8 reg2_addr [4:0] $end
$var wire 1 9 reg1_read $end
$var wire 32 : reg1_data [31:0] $end
$var wire 5 ; reg1_addr [4:0] $end
$var wire 32 < pc [31:0] $end
$var wire 1 = mem_wreg_o $end
$var wire 1 > mem_wreg_i $end
$var wire 1 ? mem_whilo_o $end
$var wire 1 @ mem_whilo_i $end
$var wire 32 A mem_wdata_o [31:0] $end
$var wire 32 B mem_wdata_i [31:0] $end
$var wire 5 C mem_wd_o [4:0] $end
$var wire 5 D mem_wd_i [4:0] $end
$var wire 32 E mem_lo_o [31:0] $end
$var wire 32 F mem_lo_i [31:0] $end
$var wire 32 G mem_hi_o [31:0] $end
$var wire 32 H mem_hi_i [31:0] $end
$var wire 32 I lo_o [31:0] $end
$var wire 1 J id_wreg_o $end
$var wire 5 K id_wd_o [4:0] $end
$var wire 32 L id_reg2_o [31:0] $end
$var wire 32 M id_reg1_o [31:0] $end
$var wire 32 N id_pc_i [31:0] $end
$var wire 32 O id_inst_i [31:0] $end
$var wire 3 P id_alusel_o [2:0] $end
$var wire 8 Q id_aluop_o [7:0] $end
$var wire 32 R hi_o [31:0] $end
$var wire 1 S ex_wreg_o $end
$var wire 1 T ex_wreg_i $end
$var wire 1 U ex_whilo_o $end
$var wire 32 V ex_wdata_o [31:0] $end
$var wire 5 W ex_wd_o [4:0] $end
$var wire 5 X ex_wd_i [4:0] $end
$var wire 32 Y ex_reg2_i [31:0] $end
$var wire 32 Z ex_reg1_i [31:0] $end
$var wire 32 [ ex_lo_o [31:0] $end
$var wire 32 \ ex_hi_o [31:0] $end
$var wire 3 ] ex_alusel_i [2:0] $end
$var wire 8 ^ ex_aluop_i [7:0] $end
$var wire 1 _ div_start $end
$var wire 1 ` div_signed $end
$var wire 64 a div_result [63:0] $end
$var wire 1 b div_ready $end
$var wire 32 c div_opdata2 [31:0] $end
$var wire 32 d div_opdata1 [31:0] $end
$scope module ctrl0 $end
$var wire 1 " rst $end
$var wire 1 ( stalleq_from_id $end
$var wire 1 2 stalleq_from_ex $end
$var reg 6 e stall [5:0] $end
$upscope $end
$scope module div0 $end
$var wire 1 & annul_i $end
$var wire 1 ! clk $end
$var wire 1 " rst $end
$var wire 33 f tempres [32:0] $end
$var wire 1 _ start_i $end
$var wire 1 ` signed_div_i $end
$var wire 32 g opdata2_i [31:0] $end
$var wire 32 h opdata1_i [31:0] $end
$var reg 6 i cnt [5:0] $end
$var reg 32 j divider [31:0] $end
$var reg 1 b ready_o $end
$var reg 65 k result [64:0] $end
$var reg 64 l result_o [63:0] $end
$var reg 2 m state [1:0] $end
$upscope $end
$scope module ex0 $end
$var wire 1 b div_ready_i $end
$var wire 64 n div_result_i [63:0] $end
$var wire 1 o is_overflow $end
$var wire 1 " rst $end
$var wire 32 p wb_hi_i [31:0] $end
$var wire 32 q wb_lo_i [31:0] $end
$var wire 1 + wb_whilo_i $end
$var wire 1 T wreg_i $end
$var wire 5 r wd_i [4:0] $end
$var wire 32 s reg2_i_mux [31:0] $end
$var wire 32 t reg2_i [31:0] $end
$var wire 32 u reg1_i_not [31:0] $end
$var wire 32 v reg1_i [31:0] $end
$var wire 32 w mul_op2 [31:0] $end
$var wire 32 x mul_op1 [31:0] $end
$var wire 64 y mul_ans [63:0] $end
$var wire 1 ? mem_whilo_i $end
$var wire 32 z mem_lo_i [31:0] $end
$var wire 32 { mem_hi_i [31:0] $end
$var wire 32 | lo_i [31:0] $end
$var wire 1 } is_less $end
$var wire 1 ~ is_equal $end
$var wire 32 !" hi_i [31:0] $end
$var wire 3 "" alusel_i [2:0] $end
$var wire 8 #" aluop_i [7:0] $end
$var wire 32 $" add_sum [31:0] $end
$var reg 32 %" arithres [31:0] $end
$var reg 32 &" div_opdata1_o [31:0] $end
$var reg 32 '" div_opdata2_o [31:0] $end
$var reg 1 _ div_start_o $end
$var reg 32 (" hi [31:0] $end
$var reg 32 )" hi_o [31:0] $end
$var reg 32 *" lo [31:0] $end
$var reg 32 +" lo_o [31:0] $end
$var reg 32 ," logicres [31:0] $end
$var reg 32 -" moveres [31:0] $end
$var reg 64 ." mulres [63:0] $end
$var reg 32 /" shiftres [31:0] $end
$var reg 1 ` signed_div_o $end
$var reg 1 2 stallreq $end
$var reg 5 0" wd_o [4:0] $end
$var reg 32 1" wdata_o [31:0] $end
$var reg 1 U whilo_o $end
$var reg 1 S wreg_o $end
$upscope $end
$scope module ex_mem0 $end
$var wire 1 ! clk $end
$var wire 32 2" ex_hi [31:0] $end
$var wire 32 3" ex_lo [31:0] $end
$var wire 5 4" ex_wd [4:0] $end
$var wire 32 5" ex_wdata [31:0] $end
$var wire 1 U ex_whilo $end
$var wire 1 S ex_wreg $end
$var wire 1 " rst $end
$var wire 6 6" stall [5:0] $end
$var reg 32 7" mem_hi [31:0] $end
$var reg 32 8" mem_lo [31:0] $end
$var reg 5 9" mem_wd [4:0] $end
$var reg 32 :" mem_wdata [31:0] $end
$var reg 1 @ mem_whilo $end
$var reg 1 > mem_wreg $end
$upscope $end
$scope module hilo0 $end
$var wire 1 ! clk $end
$var wire 1 " rst $end
$var wire 1 - we $end
$var wire 32 ;" lo_i [31:0] $end
$var wire 32 <" hi_i [31:0] $end
$var reg 32 =" hi_o [31:0] $end
$var reg 32 >" lo_o [31:0] $end
$upscope $end
$scope module id0 $end
$var wire 5 ?" ex_wd_i [4:0] $end
$var wire 32 @" ex_wdata_i [31:0] $end
$var wire 1 S ex_wreg_i $end
$var wire 1 " rst $end
$var wire 32 A" reg2_data_i [31:0] $end
$var wire 32 B" reg1_data_i [31:0] $end
$var wire 32 C" pc_i [31:0] $end
$var wire 5 D" op4 [4:0] $end
$var wire 6 E" op3 [5:0] $end
$var wire 5 F" op2 [4:0] $end
$var wire 6 G" op1 [5:0] $end
$var wire 1 = mem_wreg_i $end
$var wire 32 H" mem_wdata_i [31:0] $end
$var wire 5 I" mem_wd_i [4:0] $end
$var wire 32 J" inst_i [31:0] $end
$var reg 8 K" aluop_o [7:0] $end
$var reg 3 L" alusel_o [2:0] $end
$var reg 32 M" immi [31:0] $end
$var reg 5 N" reg1_addr_o [4:0] $end
$var reg 32 O" reg1_o [31:0] $end
$var reg 1 9 reg1_read_o $end
$var reg 5 P" reg2_addr_o [4:0] $end
$var reg 32 Q" reg2_o [31:0] $end
$var reg 1 6 reg2_read_o $end
$var reg 1 5 stallreq $end
$var reg 5 R" wd_o [4:0] $end
$var reg 1 J wreg_o $end
$upscope $end
$scope module id_ex0 $end
$var wire 1 ! clk $end
$var wire 8 S" id_aluop [7:0] $end
$var wire 3 T" id_alusel [2:0] $end
$var wire 32 U" id_reg1 [31:0] $end
$var wire 32 V" id_reg2 [31:0] $end
$var wire 5 W" id_wd [4:0] $end
$var wire 1 J id_wreg $end
$var wire 1 " rst $end
$var wire 6 X" stall [5:0] $end
$var reg 8 Y" ex_aluop [7:0] $end
$var reg 3 Z" ex_alusel [2:0] $end
$var reg 32 [" ex_reg1 [31:0] $end
$var reg 32 \" ex_reg2 [31:0] $end
$var reg 5 ]" ex_wd [4:0] $end
$var reg 1 T ex_wreg $end
$upscope $end
$scope module if_id0 $end
$var wire 1 ! clk $end
$var wire 1 " rst $end
$var wire 6 ^" stall [5:0] $end
$var wire 32 _" if_pc [31:0] $end
$var wire 32 `" if_inst [31:0] $end
$var reg 32 a" id_inst [31:0] $end
$var reg 32 b" id_pc [31:0] $end
$upscope $end
$scope module mem0 $end
$var wire 32 c" hi_i [31:0] $end
$var wire 32 d" lo_i [31:0] $end
$var wire 1 " rst $end
$var wire 5 e" wd_i [4:0] $end
$var wire 32 f" wdata_i [31:0] $end
$var wire 1 @ whilo_i $end
$var wire 1 > wreg_i $end
$var reg 32 g" hi_o [31:0] $end
$var reg 32 h" lo_o [31:0] $end
$var reg 5 i" wd_o [4:0] $end
$var reg 32 j" wdata_o [31:0] $end
$var reg 1 ? whilo_o $end
$var reg 1 = wreg_o $end
$upscope $end
$scope module mem_wb0 $end
$var wire 1 ! clk $end
$var wire 32 k" mem_hi [31:0] $end
$var wire 32 l" mem_lo [31:0] $end
$var wire 5 m" mem_wd [4:0] $end
$var wire 32 n" mem_wdata [31:0] $end
$var wire 1 ? mem_whilo $end
$var wire 1 = mem_wreg $end
$var wire 1 " rst $end
$var wire 6 o" stall [5:0] $end
$var reg 32 p" wb_hi [31:0] $end
$var reg 32 q" wb_lo [31:0] $end
$var reg 5 r" wb_wd [4:0] $end
$var reg 32 s" wb_wdata [31:0] $end
$var reg 1 - wb_whilo $end
$var reg 1 , wb_wreg $end
$upscope $end
$scope module pc_rom0 $end
$var wire 1 ! clk $end
$var wire 1 " rst $end
$var wire 6 t" stall [5:0] $end
$var reg 1 # ce $end
$var reg 32 u" pc [31:0] $end
$upscope $end
$scope module regfile0 $end
$var wire 1 ! clk $end
$var wire 5 v" raddr1 [4:0] $end
$var wire 5 w" raddr2 [4:0] $end
$var wire 1 9 re1 $end
$var wire 1 6 re2 $end
$var wire 1 " rst $end
$var wire 5 x" waddr [4:0] $end
$var wire 32 y" wdata [31:0] $end
$var wire 1 , we $end
$var reg 32 z" rdata1 [31:0] $end
$var reg 32 {" rdata2 [31:0] $end
$upscope $end
$upscope $end
$scope module inst_rom0 $end
$var wire 32 |" addr [31:0] $end
$var wire 1 # ce $end
$var reg 32 }" inst [31:0] $end
$upscope $end
$upscope $end
$upscope $end
$enddefinitions $end
#0
$dumpvars
bx }"
bx |"
b0 {"
b0 z"
bx y"
bx x"
b0 w"
b0 v"
bx u"
b0 t"
bx s"
bx r"
bx q"
bx p"
b0 o"
b0 n"
b0 m"
bx l"
bx k"
b0 j"
b0 i"
bx h"
bx g"
bx f"
bx e"
bx d"
bx c"
bx b"
bx a"
bx `"
bx _"
b0 ^"
bx ]"
bx \"
bx ["
bx Z"
bx Y"
b0 X"
b0 W"
b0 V"
b0 U"
b0 T"
b0 S"
b0 R"
b0 Q"
b0 P"
b0 O"
b0 N"
b0 M"
b0 L"
b0 K"
bx J"
b0 I"
b0 H"
bx G"
bx F"
bx E"
bx D"
bx C"
b0 B"
b0 A"
b0 @"
b0 ?"
bx >"
bx ="
bx <"
bx ;"
bx :"
bx 9"
bx 8"
bx 7"
b0 6"
b0 5"
b0 4"
b0 3"
b0 2"
b0 1"
b0 0"
b0 /"
b0 ."
b0 -"
b0 ,"
b0 +"
b0 *"
b0 )"
b0 ("
bx '"
bx &"
b0 %"
bx $"
bx #"
bx ""
bx !"
x~
x}
bx |
bx {
bx z
bx y
bx x
bx w
bx v
bx u
bx t
bx s
bx r
bz q
bz p
xo
bx n
bx m
bx l
bx k
bx j
bx i
bx h
bx g
bx f
b0 e
bx d
bx c
xb
bx a
x`
x_
bx ^
bx ]
b0 \
b0 [
bx Z
bx Y
bx X
b0 W
b0 V
xU
xT
0S
bx R
b0 Q
b0 P
bx O
bx N
b0 M
b0 L
b0 K
xJ
bx I
bx H
bx G
bx F
bx E
bx D
b0 C
bx B
b0 A
x@
0?
x>
0=
bx <
b0 ;
b0 :
x9
b0 8
b0 7
x6
05
bx 4
b0 3
02
bx 1
bx 0
bx /
bx .
x-
x,
z+
bz *
bz )
z(
bx '
0&
bx %
bx $
x#
1"
0!
$end
#10000
b110100000000101111111111111111 %
b110100000000101111111111111111 4
b110100000000101111111111111111 `"
b110100000000101111111111111111 }"
0o
b0 D"
b0 E"
b0 F"
b0 G"
b0 y
b0 w
b0 $"
b0 s
b0 x
0}
b0 u
b0 f
b0 $
b0 '
b0 |"
b0 <
b0 _"
b0 u"
b0 O
b0 J"
b0 a"
b0 N
b0 C"
b0 b"
0T
b0 X
b0 r
b0 ]"
1~
b0 Y
b0 t
b0 \"
b0 Z
b0 v
b0 ["
b0 ^
b0 #"
b0 Y"
b0 ]
b0 ""
b0 Z"
0@
0>
b0 D
b0 9"
b0 e"
b0 B
b0 :"
b0 f"
0-
0,
b0 /
b0 r"
b0 x"
b0 .
b0 s"
b0 y"
b0 I
b0 |
b0 >"
b0 R
b0 !"
b0 ="
b0 k
b0 j
b0 a
b0 l
b0 n
0b
b0 m
1!
#20000
0!
#30000
1!
#40000
0!
#50000
1!
#60000
0!
#70000
1!
#80000
0!
#90000
1!
#100000
0!
#110000
1!
#120000
0!
#130000
1!
#140000
0!
#150000
1!
#160000
0!
#170000
1!
#180000
0!
#190000
1!
#195000
0U
0_
b10 P
b10 L"
b10 T"
1J
16
09
0"
#200000
0!
#210000
b1111111111111111 L
b1111111111111111 Q"
b1111111111111111 V"
b1 P
b1 L"
b1 T"
b100101 Q
b100101 K"
b100101 S"
b100001010000000000 %
b100001010000000000 4
b100001010000000000 `"
b100001010000000000 }"
b10 8
b10 P"
b10 w"
b1111111111111111 M"
b10 K
b10 R"
b10 W"
06
19
1S
b0 E
b0 z
b0 h"
b0 l"
b0 G
b0 {
b0 g"
b0 k"
b10 D"
b111111 E"
b11111 F"
b1101 G"
b100 $
b100 '
b100 |"
b100 <
b100 _"
b100 u"
b110100000000101111111111111111 O
b110100000000101111111111111111 J"
b110100000000101111111111111111 a"
1T
b10 ]
b10 ""
b10 Z"
b0 F
b0 8"
b0 d"
b0 H
b0 7"
b0 c"
1!
#220000
0!
#230000
bx 7
bx A"
bx {"
b1111111111111111 V
b1111111111111111 1"
b1111111111111111 5"
b1111111111111111 @"
b1111111111111111 L
b1111111111111111 Q"
b1111111111111111 V"
b10000 M
b10000 O"
b10000 U"
09
b10 P
b10 L"
b10 T"
b0 Q
b0 K"
b0 S"
16
1=
b1111111111111111 ,"
b10 W
b10 0"
b10 4"
b10 ?"
b10000 M"
b110100010000101111111111110001 %
b110100010000101111111111110001 4
b110100010000101111111111110001 `"
b110100010000101111111111110001 }"
b1111111111111111 w
1}
b1111111111111111 $"
b1111111111111111 s
b0 E"
b10000 F"
b0 G"
b0 0
b0 ;"
b0 q"
b0 1
b0 <"
b0 p"
1>
b10 X
b10 r
b10 ]"
0~
b1111111111111111 Y
b1111111111111111 t
b1111111111111111 \"
b100101 ^
b100101 #"
b100101 Y"
b1 ]
b1 ""
b1 Z"
b100001010000000000 O
b100001010000000000 J"
b100001010000000000 a"
b100 N
b100 C"
b100 b"
b1000 $
b1000 '
b1000 |"
b1000 <
b1000 _"
b1000 u"
1!
#240000
0!
#250000
b0 7
b0 A"
b0 {"
bx :
bx B"
bx z"
b1111111111110001 L
b1111111111110001 Q"
b1111111111110001 V"
b11111111111111110000000000000000 M
b11111111111111110000000000000000 O"
b11111111111111110000000000000000 U"
b1 P
b1 L"
b1 T"
b100101 Q
b100101 K"
b100101 S"
b110100000000110000000000010001 %
b110100000000110000000000010001 4
b110100000000110000000000010001 `"
b110100000000110000000000010001 }"
b10 K
b10 R"
b10 W"
b1111111111110001 M"
b10 ;
b10 N"
b10 v"
06
19
b11111111111111110000000000000000 /"
b0 ,"
b11111111111111110000000000000000 V
b11111111111111110000000000000000 1"
b11111111111111110000000000000000 5"
b11111111111111110000000000000000 @"
b1111111111111111 A
b1111111111111111 H"
b1111111111111111 j"
b1111111111111111 n"
b10 C
b10 I"
b10 i"
b10 m"
b110001 E"
b11111 F"
b1101 G"
b11111111111111110000 y
b10000 x
b10000 u
b1100 $
b1100 '
b1100 |"
b1100 <
b1100 _"
b1100 u"
b110100010000101111111111110001 O
b110100010000101111111111110001 J"
b110100010000101111111111110001 a"
b1000 N
b1000 C"
b1000 b"
b10000000000001111 $"
b10000 Z
b10000 v
b10000 ["
b0 ^
b0 #"
b0 Y"
b10 ]
b10 ""
b10 Z"
b10 D
b10 9"
b10 e"
b1111111111111111 B
b1111111111111111 :"
b1111111111111111 f"
1,
1!
#260000
0!
#270000
b10001 L
b10001 Q"
b10001 V"
b0 M
b0 O"
b0 U"
b0 :
b0 B"
b0 z"
b11111111111111110000000000000000 A
b11111111111111110000000000000000 H"
b11111111111111110000000000000000 j"
b11111111111111110000000000000000 n"
b0 /"
b11111111111111111111111111110001 ,"
b11111111111111111111111111110001 V
b11111111111111111111111111110001 1"
b11111111111111111111111111110001 5"
b11111111111111111111111111110001 @"
b10001 M"
b11 K
b11 R"
b11 W"
b0 ;
b0 N"
b0 v"
b10000110000000000011010 %
b10000110000000000011010 4
b10000110000000000011010 `"
b10000110000000000011010 }"
0o
b1111111111110001 w
b1111111111110001 s
b111111111111000000000000000011110000000000000000 y
b11111111111111110000000000000000 x
0}
b11111111111111110000000000000000 u
b11 D"
b10001 E"
b0 F"
b10 /
b10 r"
b10 x"
b1111111111111111 .
b1111111111111111 s"
b1111111111111111 y"
b11111111111111110000000000000000 B
b11111111111111110000000000000000 :"
b11111111111111110000000000000000 f"
b1111111111110001 Y
b1111111111110001 t
b1111111111110001 \"
b11111111111111111111111111110001 $"
b11111111111111110000000000000000 Z
b11111111111111110000000000000000 v
b11111111111111110000000000000000 ["
b100101 ^
b100101 #"
b100101 Y"
b1 ]
b1 ""
b1 Z"
b110100000000110000000000010001 O
b110100000000110000000000010001 J"
b110100000000110000000000010001 a"
b1100 N
b1100 C"
b1100 b"
b10000 $
b10000 '
b10000 |"
b10000 <
b10000 _"
b10000 u"
1!
#280000
0!
#290000
bx 7
bx A"
bx {"
b11111111111111110000000000000000 :
b11111111111111110000000000000000 B"
b11111111111111110000000000000000 z"
b10001 V
b10001 1"
b10001 5"
b10001 @"
b10001 L
b10001 Q"
b10001 V"
b11111111111111111111111111110001 M
b11111111111111111111111111110001 O"
b11111111111111111111111111110001 U"
0J
b100 P
b100 L"
b100 T"
b11010 Q
b11010 K"
b11010 S"
16
b11 8
b11 P"
b11 w"
b0 K
b0 R"
b0 W"
b10000110000000000011011 %
b10000110000000000011011 4
b10000110000000000011011 `"
b10000110000000000011011 }"
b0 M"
b10 ;
b10 N"
b10 v"
b11 W
b11 0"
b11 4"
b11 ?"
b10001 ,"
b11111111111111111111111111110001 A
b11111111111111111111111111110001 H"
b11111111111111111111111111110001 j"
b11111111111111111111111111110001 n"
b11010 E"
b0 G"
b10001 w
b10001 s
b0 y
b0 x
1}
b0 u
b10100 $
b10100 '
b10100 |"
b10100 <
b10100 _"
b10100 u"
b10000110000000000011010 O
b10000110000000000011010 J"
b10000110000000000011010 a"
b10000 N
b10000 C"
b10000 b"
b11 X
b11 r
b11 ]"
b10001 Y
b10001 t
b10001 \"
b10001 $"
b0 Z
b0 v
b0 ["
b11111111111111111111111111110001 B
b11111111111111111111111111110001 :"
b11111111111111111111111111110001 f"
b11111111111111110000000000000000 .
b11111111111111110000000000000000 s"
b11111111111111110000000000000000 y"
1!
#300000
0!
#310000
b1111 3
b1111 e
b1111 6"
b1111 X"
b1111 ^"
b1111 o"
b1111 t"
b11011 Q
b11011 K"
b11011 S"
b10001 A
b10001 H"
b10001 j"
b10001 n"
b11 C
b11 I"
b11 i"
b11 m"
1U
1`
b10001 c
b10001 g
b10001 '"
b11111111111111111111111111110001 d
b11111111111111111111111111110001 h
b11111111111111111111111111110001 &"
1_
b0 ,"
b0 V
b0 1"
b0 5"
b0 @"
0S
b0 W
b0 0"
b0 4"
b0 ?"
b11111111111111111111111111110001 :
b11111111111111111111111111110001 B"
b11111111111111111111111111110001 z"
b0 M"
0J
b0 K
b0 R"
b0 W"
16
b11000100000000000011010 %
b11000100000000000011010 4
b11000100000000000011010 `"
b11000100000000000011010 }"
b1000011111111111111111111111100000001 y
b11111111111111111111111111110001 x
0}
b11111111111111111111111111110001 u
12
b11011 E"
b11111111111111111111111111110001 .
b11111111111111111111111111110001 s"
b11111111111111111111111111110001 y"
b11 D
b11 9"
b11 e"
b10001 B
b10001 :"
b10001 f"
0T
b0 X
b0 r
b0 ]"
b10 $"
b11111111111111111111111111110001 Z
b11111111111111111111111111110001 v
b11111111111111111111111111110001 ["
b11010 ^
b11010 #"
b11010 Y"
b100 ]
b100 ""
b100 Z"
b10000110000000000011011 O
b10000110000000000011011 J"
b10000110000000000011011 a"
b10100 N
b10100 C"
b10100 b"
b11000 $
b11000 '
b11000 |"
b11000 <
b11000 _"
b11000 u"
1!
#320000
0!
#330000
b0 M"
0J
b0 K
b0 R"
b0 W"
16
b0 A
b0 H"
b0 j"
b0 n"
0=
b0 C
b0 I"
b0 i"
b0 m"
b10001 7
b10001 A"
b10001 {"
0>
b0 D
b0 9"
b0 e"
b0 B
b0 :"
b0 f"
b11 /
b11 r"
b11 x"
b10001 .
b10001 s"
b10001 y"
b1 m
b111111111111111111111111111101111 f
b10001 j
b11110 k
b0 i
1!
#340000
0!
#350000
b1 i
b111100 k
0,
b0 /
b0 r"
b0 x"
b0 .
b0 s"
b0 y"
1!
#360000
0!
#370000
b10 i
b1111000 k
1!
#380000
0!
#390000
b11 i
b11110000 k
1!
#400000
0!
#410000
b100 i
b111100000 k
1!
#420000
0!
#430000
b101 i
b1111000000 k
1!
#440000
0!
#450000
b110 i
b11110000000 k
1!
#460000
0!
#470000
b111 i
b111100000000 k
1!
#480000
0!
#490000
b1000 i
b1111000000000 k
1!
#500000
0!
#510000
b1001 i
b11110000000000 k
1!
#520000
0!
#530000
b1010 i
b111100000000000 k
1!
#540000
0!
#550000
b1011 i
b1111000000000000 k
1!
#560000
0!
#570000
b1100 i
b11110000000000000 k
1!
#580000
0!
#590000
b1101 i
b111100000000000000 k
1!
#600000
0!
#610000
b1110 i
b1111000000000000000 k
1!
#620000
0!
#630000
b1111 i
b11110000000000000000 k
1!
#640000
0!
#650000
b10000 i
b111100000000000000000 k
1!
#660000
0!
#670000
b10001 i
b1111000000000000000000 k
1!
#680000
0!
#690000
b10010 i
b11110000000000000000000 k
1!
#700000
0!
#710000
b10011 i
b111100000000000000000000 k
1!
#720000
0!
#730000
b10100 i
b1111000000000000000000000 k
1!
#740000
0!
#750000
b10101 i
b11110000000000000000000000 k
1!
#760000
0!
#770000
b10110 i
b111100000000000000000000000 k
1!
#780000
0!
#790000
b10111 i
b1111000000000000000000000000 k
1!
#800000
0!
#810000
b11000 i
b11110000000000000000000000000 k
1!
#820000
0!
#830000
b11001 i
b111100000000000000000000000000 k
1!
#840000
0!
#850000
b11010 i
b1111000000000000000000000000000 k
1!
#860000
0!
#870000
b11011 i
b11110000000000000000000000000000 k
1!
#880000
0!
#890000
b111111111111111111111111111110000 f
b11100 i
b111100000000000000000000000000000 k
1!
#900000
0!
#910000
b111111111111111111111111111110010 f
b11101 i
b1111000000000000000000000000000000 k
1!
#920000
0!
#930000
b111111111111111111111111111110110 f
b11110 i
b11110000000000000000000000000000000 k
1!
#940000
0!
#950000
b111111111111111111111111111111110 f
b11111 i
b111100000000000000000000000000000000 k
1!
#960000
0!
#970000
b1101 f
b100000 i
b1111000000000000000000000000000000000 k
1!
#980000
0!
#990000
b11 m
b11111111111111111111111111010001 f
b11111111111111111111111111110001000000000000000000000000000000000 k
1!
#1000000
0!
#1010000
b0 3
b0 e
b0 6"
b0 X"
b0 ^"
b0 o"
b0 t"
b11111111111111111111111111110001 \
b11111111111111111111111111110001 )"
b11111111111111111111111111110001 2"
0_
02
b1111111111111111111111111111000100000000000000000000000000000000 a
b1111111111111111111111111111000100000000000000000000000000000000 l
b1111111111111111111111111111000100000000000000000000000000000000 n
1b
1!
#1020000
0!
#1030000
b11111111111111111111111111110001 L
b11111111111111111111111111110001 Q"
b11111111111111111111111111110001 V"
b10001 M
b10001 O"
b10001 U"
b11111111111111111111111111110001 7
b11111111111111111111111111110001 A"
b11111111111111111111111111110001 {"
b10001 :
b10001 B"
b10001 z"
b11111111111111111111111111110001 ("
b1111 3
b1111 e
b1111 6"
b1111 X"
b1111 ^"
b1111 o"
b1111 t"
b11010 Q
b11010 K"
b11010 S"
b11111111111111111111111111110001 G
b11111111111111111111111111110001 {
b11111111111111111111111111110001 g"
b11111111111111111111111111110001 k"
1?
0`
1_
b10 8
b10 P"
b10 w"
b0 M"
0J
b0 K
b0 R"
b0 W"
b11 ;
b11 N"
b11 v"
16
bx %
bx 4
bx `"
bx }"
12
b10 D"
b11010 E"
b0 m
0b
b11111111111111111111111111110001 H
b11111111111111111111111111110001 7"
b11111111111111111111111111110001 c"
1@
b11011 ^
b11011 #"
b11011 Y"
b11000100000000000011010 O
b11000100000000000011010 J"
b11000100000000000011010 a"
b11000 N
b11000 C"
b11000 b"
b11100 $
b11100 '
b11100 |"
b11100 <
b11100 _"
b11100 u"
1!
#1040000
0!
#1050000
b0 ("
0?
b0 \
b0 )"
b0 2"
1_
b111111111111111111111111111110000 f
0@
b11111111111111111111111111110001 1
b11111111111111111111111111110001 <"
b11111111111111111111111111110001 p"
1-
b1 m
b111111111111111111111111111100010 k
b0 i
b0 a
b0 l
b0 n
1!
#1060000
0!
#1070000
b111111111111111111111111111110010 f
b11111111111111111111111111110001 ("
b1 i
b1111111111111111111111111111000100 k
b11111111111111111111111111110001 R
b11111111111111111111111111110001 !"
b11111111111111111111111111110001 ="
0-
1!
#1080000
0!
#1090000
b111111111111111111111111111110110 f
b10 i
b11111111111111111111111111110001000 k
1!
#1100000
0!
#1110000
b111111111111111111111111111111110 f
b11 i
b111111111111111111111111111100010000 k
1!
#1120000
0!
#1130000
b1110 f
b100 i
b1111111111111111111111111111000100000 k
1!
#1140000
0!
#1150000
b1100 f
b101 i
b1110111111111111111111111110001000001 k
1!
#1160000
0!
#1170000
b1000 f
b110 i
b1100111111111111111111111100010000011 k
1!
#1180000
0!
#1190000
b0 f
b111 i
b1000111111111111111111111000100000111 k
1!
#1200000
0!
#1210000
b111111111111111111111111111110000 f
b1000 i
b111111111111111111110001000001111 k
1!
#1220000
0!
#1230000
b111111111111111111111111111110010 f
b1001 i
b1111111111111111111100010000011110 k
1!
#1240000
0!
#1250000
b111111111111111111111111111110110 f
b1010 i
b11111111111111111111000100000111100 k
1!
#1260000
0!
#1270000
b111111111111111111111111111111110 f
b1011 i
b111111111111111111110001000001111000 k
1!
#1280000
0!
#1290000
b1110 f
b1100 i
b1111111111111111111100010000011110000 k
1!
#1300000
0!
#1310000
b1100 f
b1101 i
b1110111111111111111000100000111100001 k
1!
#1320000
0!
#1330000
b1000 f
b1110 i
b1100111111111111110001000001111000011 k
1!
#1340000
0!
#1350000
b0 f
b1111 i
b1000111111111111100010000011110000111 k
1!
#1360000
0!
#1370000
b111111111111111111111111111110000 f
b10000 i
b111111111111000100000111100001111 k
1!
#1380000
0!
#1390000
b111111111111111111111111111110010 f
b10001 i
b1111111111110001000001111000011110 k
1!
#1400000
0!
#1410000
b111111111111111111111111111110110 f
b10010 i
b11111111111100010000011110000111100 k
1!
#1420000
0!
#1430000
b111111111111111111111111111111110 f
b10011 i
b111111111111000100000111100001111000 k
1!
#1440000
0!
#1450000
b1110 f
b10100 i
b1111111111110001000001111000011110000 k
1!
#1460000
0!
#1470000
b1100 f
b10101 i
b1110111111100010000011110000111100001 k
1!
#1480000
0!
#1490000
b1000 f
b10110 i
b1100111111000100000111100001111000011 k
1!
#1500000
0!
#1510000
b0 f
b10111 i
b1000111110001000001111000011110000111 k
1!
#1520000
0!
#1530000
b111111111111111111111111111110000 f
b11000 i
b111100010000011110000111100001111 k
1!
#1540000
0!
#1550000
b111111111111111111111111111110010 f
b11001 i
b1111000100000111100001111000011110 k
1!
#1560000
0!
#1570000
b111111111111111111111111111110110 f
b11010 i
b11110001000001111000011110000111100 k
1!
#1580000
0!
#1590000
b111111111111111111111111111111110 f
b11011 i
b111100010000011110000111100001111000 k
1!
#1600000
0!
#1610000
b1101 f
b11100 i
b1111000100000111100001111000011110000 k
1!
#1620000
0!
#1630000
b1001 f
b11101 i
b1101001000001111000011110000111100001 k
1!
#1640000
0!
#1650000
b1 f
b11110 i
b1001010000011110000111100001111000011 k
1!
#1660000
0!
#1670000
b111111111111111111111111111110010 f
b11111 i
b1100000111100001111000011110000111 k
1!
#1680000
0!
#1690000
b111111111111111111111111111110101 f
b100000 i
b11000001111000011110000111100001110 k
1!
#1700000
0!
#1710000
b11 m
1!
#1720000
0!
#1730000
b0 3
b0 e
b0 6"
b0 X"
b0 ^"
b0 o"
b0 t"
b1111000011110000111100001110 [
b1111000011110000111100001110 +"
b1111000011110000111100001110 3"
b11 \
b11 )"
b11 2"
0_
02
b1100001111000011110000111100001110 a
b1100001111000011110000111100001110 l
b1100001111000011110000111100001110 n
1b
1!
#1740000
0!
