YaoPad.srcs/sources_1/cpu/openmips_min_sopc_tb.vcd
$date
	Wed Nov 22 12:51:37 2017
$end
$version
	Icarus Verilog
$end
$timescale
	1ps
$end
$scope module openmips_min_sopc_tb $end
$scope module openmips_min_sopc0 $end
$var wire 1 ! clk $end
$var wire 32 " inst [31:0] $end
$var wire 32 # inst_addr [31:0] $end
$var wire 1 $ rom_ce $end
$var wire 1 % rst $end
$scope module cpu0 $end
$var wire 1 ! clk $end
$var wire 1 & div_annul $end
$var wire 32 ' div_opdata1 [31:0] $end
$var wire 32 ( div_opdata2 [31:0] $end
$var wire 1 ) div_ready $end
$var wire 64 * div_result [63:0] $end
$var wire 1 + div_signed $end
$var wire 1 , div_start $end
$var wire 8 - ex_aluop_i [7:0] $end
$var wire 3 . ex_alusel_i [2:0] $end
$var wire 32 / ex_hi_o [31:0] $end
$var wire 32 0 ex_inst_o [31:0] $end
$var wire 32 1 ex_lo_o [31:0] $end
$var wire 32 2 ex_reg1_i [31:0] $end
$var wire 32 3 ex_reg2_i [31:0] $end
$var wire 5 4 ex_wd_i [4:0] $end
$var wire 5 5 ex_wd_o [4:0] $end
$var wire 32 6 ex_wdata_o [31:0] $end
$var wire 1 7 ex_whilo_o $end
$var wire 1 8 ex_wreg_i $end
$var wire 1 9 ex_wreg_o $end
$var wire 32 : hi_o [31:0] $end
$var wire 8 ; id_aluop_o [7:0] $end
$var wire 3 < id_alusel_o [2:0] $end
$var wire 32 = id_inst_i [31:0] $end
$var wire 32 > id_inst_o [31:0] $end
$var wire 32 ? id_pc_i [31:0] $end
$var wire 32 @ id_reg1_o [31:0] $end
$var wire 32 A id_reg2_o [31:0] $end
$var wire 5 B id_wd_o [4:0] $end
$var wire 1 C id_wreg_o $end
$var wire 32 D lo_o [31:0] $end
$var wire 32 E mem_hi_i [31:0] $end
$var wire 32 F mem_hi_o [31:0] $end
$var wire 32 G mem_lo_i [31:0] $end
$var wire 32 H mem_lo_o [31:0] $end
$var wire 5 I mem_wd_i [4:0] $end
$var wire 5 J mem_wd_o [4:0] $end
$var wire 32 K mem_wdata_i [31:0] $end
$var wire 32 L mem_wdata_o [31:0] $end
$var wire 1 M mem_whilo_i $end
$var wire 1 N mem_whilo_o $end
$var wire 1 O mem_wreg_i $end
$var wire 1 P mem_wreg_o $end
$var wire 32 Q pc [31:0] $end
$var wire 5 R reg1_addr [4:0] $end
$var wire 32 S reg1_data [31:0] $end
$var wire 1 T reg1_read $end
$var wire 5 U reg2_addr [4:0] $end
$var wire 32 V reg2_data [31:0] $end
$var wire 1 W reg2_read $end
$var wire 1 X reqstalleq_from_id $end
$var wire 32 Y rom_addr_o [31:0] $end
$var wire 1 $ rom_ce_o $end
$var wire 32 Z rom_data_i [31:0] $end
$var wire 1 % rst $end
$var wire 6 [ stall [5:0] $end
$var wire 1 \ stalleq_from_ex $end
$var wire 1 ] stalleq_from_id $end
$var wire 32 ^ wb_hi_i [31:0] $end
$var wire 32 _ wb_hi_o [31:0] $end
$var wire 32 ` wb_lo_i [31:0] $end
$var wire 32 a wb_lo_o [31:0] $end
$var wire 5 b wb_wd_i [4:0] $end
$var wire 32 c wb_wdata_i [31:0] $end
$var wire 1 d wb_whilo_i $end
$var wire 1 e wb_whilo_o $end
$var wire 1 f wb_wreg_i $end
$scope module pc_rom0 $end
$var wire 1 ! clk $end
$var wire 1 % rst $end
$var wire 6 g stall [5:0] $end
$var reg 1 h ce $end
$var reg 32 i pc [31:0] $end
$upscope $end
$scope module if_id0 $end
$var wire 1 ! clk $end
$var wire 32 j if_inst [31:0] $end
$var wire 32 k if_pc [31:0] $end
$var wire 1 % rst $end
$var wire 6 l stall [5:0] $end
$var reg 32 m id_inst [31:0] $end
$var reg 32 n id_pc [31:0] $end
$upscope $end
$scope module id0 $end
$var wire 5 o ex_wd_i [4:0] $end
$var wire 32 p ex_wdata_i [31:0] $end
$var wire 1 9 ex_wreg_i $end
$var wire 32 q inst_i [31:0] $end
$var wire 5 r mem_wd_i [4:0] $end
$var wire 32 s mem_wdata_i [31:0] $end
$var wire 1 P mem_wreg_i $end
$var wire 6 t op1 [5:0] $end
$var wire 5 u op2 [4:0] $end
$var wire 6 v op3 [5:0] $end
$var wire 5 w op4 [4:0] $end
$var wire 32 x pc_i [31:0] $end
$var wire 32 y reg1_data_i [31:0] $end
$var wire 32 z reg2_data_i [31:0] $end
$var wire 1 % rst $end
$var reg 8 { aluop_o [7:0] $end
$var reg 3 | alusel_o [2:0] $end
$var reg 32 } immi [31:0] $end
$var reg 32 ~ inst_o [31:0] $end
$var reg 5 !" reg1_addr_o [4:0] $end
$var reg 32 "" reg1_o [31:0] $end
$var reg 1 #" reg1_read_o $end
$var reg 5 $" reg2_addr_o [4:0] $end
$var reg 32 %" reg2_o [31:0] $end
$var reg 1 &" reg2_read_o $end
$var reg 1 '" stallreq $end
$var reg 5 (" wd_o [4:0] $end
$var reg 1 )" wreg_o $end
$upscope $end
$scope module regfile0 $end
$var wire 1 ! clk $end
$var wire 5 *" raddr1 [4:0] $end
$var wire 5 +" raddr2 [4:0] $end
$var wire 1 T re1 $end
$var wire 1 W re2 $end
$var wire 1 % rst $end
$var wire 5 ," waddr [4:0] $end
$var wire 32 -" wdata [31:0] $end
$var wire 1 f we $end
$var reg 32 ." rdata1 [31:0] $end
$var reg 32 /" rdata2 [31:0] $end
$upscope $end
$scope module id_ex0 $end
$var wire 1 ! clk $end
$var wire 8 0" id_aluop [7:0] $end
$var wire 3 1" id_alusel [2:0] $end
$var wire 32 2" id_inst [31:0] $end
$var wire 32 3" id_reg1 [31:0] $end
$var wire 32 4" id_reg2 [31:0] $end
$var wire 5 5" id_wd [4:0] $end
$var wire 1 C id_wreg $end
$var wire 1 % rst $end
$var wire 6 6" stall [5:0] $end
$var reg 8 7" ex_aluop [7:0] $end
$var reg 3 8" ex_alusel [2:0] $end
$var reg 32 9" ex_inst [31:0] $end
$var reg 32 :" ex_reg1 [31:0] $end
$var reg 32 ;" ex_reg2 [31:0] $end
$var reg 5 <" ex_wd [4:0] $end
$var reg 1 =" ex_wreg $end
$upscope $end
$scope module ex0 $end
$var wire 32 >" add_sum [31:0] $end
$var wire 8 ?" aluop_i [7:0] $end
$var wire 8 @" aluop_o [7:0] $end
$var wire 3 A" alusel_i [2:0] $end
$var wire 1 ) div_ready_i $end
$var wire 64 B" div_result_i [63:0] $end
$var wire 32 C" hi_i [31:0] $end
$var wire 32 D" inst_i [31:0] $end
$var wire 1 E" is_equal $end
$var wire 1 F" is_less $end
$var wire 1 G" is_overflow $end
$var wire 32 H" lo_i [31:0] $end
$var wire 32 I" mem_addr_o [31:0] $end
$var wire 32 J" mem_hi_i [31:0] $end
$var wire 32 K" mem_lo_i [31:0] $end
$var wire 1 N mem_whilo_i $end
$var wire 64 L" mul_ans [63:0] $end
$var wire 32 M" mul_op1 [31:0] $end
$var wire 32 N" mul_op2 [31:0] $end
$var wire 32 O" reg1_i [31:0] $end
$var wire 32 P" reg1_i_not [31:0] $end
$var wire 32 Q" reg2_i [31:0] $end
$var wire 32 R" reg2_i_mux [31:0] $end
$var wire 32 S" reg2_o [31:0] $end
$var wire 1 % rst $end
$var wire 32 T" wb_hi_i [31:0] $end
$var wire 32 U" wb_lo_i [31:0] $end
$var wire 1 e wb_whilo_i $end
$var wire 5 V" wd_i [4:0] $end
$var wire 1 8 wreg_i $end
$var reg 32 W" arithres [31:0] $end
$var reg 32 X" div_opdata1_o [31:0] $end
$var reg 32 Y" div_opdata2_o [31:0] $end
$var reg 1 Z" div_start_o $end
$var reg 32 [" hi [31:0] $end
$var reg 32 \" hi_o [31:0] $end
$var reg 32 ]" lo [31:0] $end
$var reg 32 ^" lo_o [31:0] $end
$var reg 32 _" logicres [31:0] $end
$var reg 32 `" moveres [31:0] $end
$var reg 64 a" mulres [63:0] $end
$var reg 32 b" shiftres [31:0] $end
$var reg 1 c" signed_div_o $end
$var reg 1 d" stallreq $end
$var reg 5 e" wd_o [4:0] $end
$var reg 32 f" wdata_o [31:0] $end
$var reg 1 g" whilo_o $end
$var reg 1 h" wreg_o $end
$upscope $end
$scope module ex_mem0 $end
$var wire 1 ! clk $end
$var wire 8 i" ex_aluop [7:0] $end
$var wire 32 j" ex_hi [31:0] $end
$var wire 32 k" ex_lo [31:0] $end
$var wire 32 l" ex_mem_addr [31:0] $end
$var wire 32 m" ex_reg2 [31:0] $end
$var wire 5 n" ex_wd [4:0] $end
$var wire 32 o" ex_wdata [31:0] $end
$var wire 1 7 ex_whilo $end
$var wire 1 9 ex_wreg $end
$var wire 1 % rst $end
$var wire 6 p" stall [5:0] $end
$var reg 8 q" mem_aluop [7:0] $end
$var reg 32 r" mem_hi [31:0] $end
$var reg 32 s" mem_lo [31:0] $end
$var reg 32 t" mem_mem_addr [31:0] $end
$var reg 32 u" mem_reg2 [31:0] $end
$var reg 5 v" mem_wd [4:0] $end
$var reg 32 w" mem_wdata [31:0] $end
$var reg 1 x" mem_whilo $end
$var reg 1 y" mem_wreg $end
$upscope $end
$scope module mem0 $end
$var wire 8 z" aluop_i [7:0] $end
$var wire 32 {" hi_i [31:0] $end
$var wire 32 |" lo_i [31:0] $end
$var wire 32 }" mem_addr_i [31:0] $end
$var wire 32 ~" mem_data_i [31:0] $end
$var wire 32 !# reg2_i [31:0] $end
$var wire 1 % rst $end
$var wire 5 "# wd_i [4:0] $end
$var wire 32 ## wdata_i [31:0] $end
$var wire 1 M whilo_i $end
$var wire 1 O wreg_i $end
$var reg 32 $# hi_o [31:0] $end
$var reg 32 %# lo_o [31:0] $end
$var reg 32 &# mem_addr_o [31:0] $end
$var reg 1 '# mem_ce_o $end
$var reg 32 (# mem_data_o [31:0] $end
$var reg 4 )# mem_sel_o [3:0] $end
$var reg 1 *# mem_we_o $end
$var reg 5 +# wd_o [4:0] $end
$var reg 32 ,# wdata_o [31:0] $end
$var reg 1 -# whilo_o $end
$var reg 1 .# wreg_o $end
$upscope $end
$scope module mem_wb0 $end
$var wire 1 ! clk $end
$var wire 32 /# mem_hi [31:0] $end
$var wire 32 0# mem_lo [31:0] $end
$var wire 5 1# mem_wd [4:0] $end
$var wire 32 2# mem_wdata [31:0] $end
$var wire 1 N mem_whilo $end
$var wire 1 P mem_wreg $end
$var wire 1 % rst $end
$var wire 6 3# stall [5:0] $end
$var reg 32 4# wb_hi [31:0] $end
$var reg 32 5# wb_lo [31:0] $end
$var reg 5 6# wb_wd [4:0] $end
$var reg 32 7# wb_wdata [31:0] $end
$var reg 1 8# wb_whilo $end
$var reg 1 9# wb_wreg $end
$upscope $end
$scope module hilo0 $end
$var wire 1 ! clk $end
$var wire 32 :# hi_i [31:0] $end
$var wire 32 ;# lo_i [31:0] $end
$var wire 1 % rst $end
$var wire 1 d we $end
$var reg 32 <# hi_o [31:0] $end
$var reg 32 =# lo_o [31:0] $end
$upscope $end
$scope module ctrl0 $end
$var wire 1 % rst $end
$var wire 1 \ stalleq_from_ex $end
$var wire 1 ] stalleq_from_id $end
$var reg 6 ># stall [5:0] $end
$upscope $end
$scope module div0 $end
$var wire 1 & annul_i $end
$var wire 1 ! clk $end
$var wire 32 ?# opdata1_i [31:0] $end
$var wire 32 @# opdata2_i [31:0] $end
$var wire 1 % rst $end
$var wire 1 + signed_div_i $end
$var wire 1 , start_i $end
$var wire 33 A# tempres [32:0] $end
$var reg 6 B# cnt [5:0] $end
$var reg 32 C# divider [31:0] $end
$var reg 1 D# ready_o $end
$var reg 65 E# result [64:0] $end
$var reg 64 F# result_o [63:0] $end
$var reg 2 G# state [1:0] $end
$upscope $end
$upscope $end
$scope module inst_rom0 $end
$var wire 32 H# addr [31:0] $end
$var wire 1 $ ce $end
$var reg 32 I# inst [31:0] $end
$upscope $end
$upscope $end
$upscope $end
$enddefinitions $end
#0
$dumpvars
bx I#
bx H#
bx G#
bx F#
bx E#
xD#
bx C#
bx B#
bx A#
bx @#
bx ?#
b0 >#
bx =#
bx <#
bx ;#
bx :#
x9#
x8#
bx 7#
bx 6#
bx 5#
bx 4#
b0 3#
b0 2#
b0 1#
bx 0#
bx /#
0.#
0-#
b0 ,#
b0 +#
0*#
b0 )#
b0 (#
0'#
b0 &#
bx %#
bx $#
bx ##
bx "#
bz !#
bz ~"
bz }"
bx |"
bx {"
bz z"
xy"
xx"
bx w"
bx v"
bx u"
bx t"
bx s"
bx r"
bx q"
b0 p"
b0 o"
b0 n"
bz m"
bz l"
b0 k"
b0 j"
bz i"
0h"
xg"
b0 f"
b0 e"
0d"
xc"
b0 b"
b0 a"
b0 `"
b0 _"
b0 ^"
b0 ]"
b0 \"
b0 ["
xZ"
bx Y"
bx X"
b0 W"
bx V"
bz U"
bz T"
bx S"
bx R"
bx Q"
bx P"
bx O"
bx N"
bx M"
bx L"
bx K"
bx J"
bx I"
bx H"
xG"
xF"
xE"
bz D"
bx C"
bx B"
bx A"
bx @"
bx ?"
bx >"
x="
bx <"
bx ;"
bx :"
bx 9"
bx 8"
bx 7"
b0 6"
b0 5"
b0 4"
b0 3"
b0 2"
b0 1"
b0 0"
b0 /"
b0 ."
bx -"
bx ,"
b0 +"
b0 *"
x)"
b0 ("
0'"
x&"
b0 %"
b0 $"
x#"
b0 ""
b0 !"
b0 ~
b0 }
b0 |
b0 {
b0 z
b0 y
bx x
bx w
bx v
bx u
bx t
b0 s
b0 r
bx q
b0 p
b0 o
bx n
bx m
b0 l
bx k
bx j
bx i
xh
b0 g
xf
ze
xd
bx c
bx b
bz a
bx `
bz _
bx ^
z]
0\
b0 [
bx Z
bx Y
0X
xW
b0 V
b0 U
xT
b0 S
b0 R
bx Q
0P
xO
0N
xM
b0 L
bx K
b0 J
bx I
bx H
bx G
bx F
bx E
bx D
xC
b0 B
b0 A
b0 @
bx ?
b0 >
bx =
b0 <
b0 ;
bx :
09
x8
x7
b0 6
b0 5
bx 4
bx 3
bx 2
b0 1
bx 0
b0 /
bx .
bx -
x,
x+
bx *
x)
bx (
bx '
0&
1%
x$
bx #
bx "
0!
$end
#10000
b110100000000101111111111111111 I#
b110100000000101111111111111111 "
b110100000000101111111111111111 Z
b110100000000101111111111111111 j
0G"
b0 >"
b0 R"
b0 L"
b0 N"
b0 M"
b0 t
b0 u
b0 v
b0 w
b0 P"
0F"
b0 A#
b0 i
b0 Q
b0 k
b0 #
b0 Y
b0 H#
b0 m
b0 =
b0 q
b0 n
b0 ?
b0 x
0="
08
b0 <"
b0 4
b0 V"
b0 9"
b0 0
b0 ;"
b0 S"
1E"
b0 3
b0 Q"
b0 :"
b0 2
b0 O"
b0 7"
b0 @"
b0 -
b0 ?"
b0 8"
b0 .
b0 A"
b0 q"
b0 t"
b0 u"
0x"
0M
0y"
0O
b0 v"
b0 I
b0 "#
b0 w"
b0 K
b0 ##
08#
0d
09#
0f
b0 6#
b0 b
b0 ,"
b0 7#
b0 c
b0 -"
b0 =#
b0 D
b0 H"
b0 <#
b0 :
b0 C"
b0 E#
b0 C#
b0 F#
b0 *
b0 B"
0D#
0)
b0 G#
1!
#20000
0!
#30000
1!
#40000
0!
#50000
1!
#60000
0!
#70000
1!
#80000
0!
#90000
1!
#100000
0!
#110000
1!
#120000
0!
#130000
1!
#140000
0!
#150000
1!
#160000
0!
#170000
1!
#180000
0!
#190000
1!
#195000
0g"
07
0Z"
0,
b10 |
b10 <
b10 1"
1)"
1C
1&"
1W
0#"
0T
0%
#200000
0!
#210000
b1111111111111111 %"
b1111111111111111 A
b1111111111111111 4"
b1 |
b1 <
b1 1"
b100101 {
b100101 ;
b100101 0"
b100001010000000000 I#
b100001010000000000 "
b100001010000000000 Z
b100001010000000000 j
b10 $"
b10 U
b10 +"
b1111111111111111 }
b10 ("
b10 B
b10 5"
0&"
0W
1#"
1T
b110100000000101111111111111111 ~
b110100000000101111111111111111 >
b110100000000101111111111111111 2"
1h"
19
b0 %#
b0 H
b0 K"
b0 0#
b0 $#
b0 F
b0 J"
b0 /#
b1101 t
b11111 u
b111111 v
b10 w
b100 i
b100 Q
b100 k
b100 #
b100 Y
b100 H#
b110100000000101111111111111111 m
b110100000000101111111111111111 =
b110100000000101111111111111111 q
1="
18
b10 8"
b10 .
b10 A"
bz q"
bz t"
bz u"
b0 s"
b0 G
b0 |"
b0 r"
b0 E
b0 {"
1!
#220000
0!
#230000
bx /"
bx V
bx z
b1111111111111111 f"
b1111111111111111 6
b1111111111111111 p
b1111111111111111 o"
b1111111111111111 %"
b1111111111111111 A
b1111111111111111 4"
b10000 ""
b10000 @
b10000 3"
0#"
0T
b10 |
b10 <
b10 1"
b0 {
b0 ;
b0 0"
1&"
1W
1.#
1P
b1111111111111111 _"
b10 e"
b10 5
b10 o
b10 n"
b10000 }
b100001010000000000 ~
b100001010000000000 >
b100001010000000000 2"
b110100010000101111111111110001 I#
b110100010000101111111111110001 "
b110100010000101111111111110001 Z
b110100010000101111111111110001 j
b1111111111111111 >"
b1111111111111111 R"
b1111111111111111 N"
1F"
b0 t
b10000 u
b0 v
b0 5#
b0 `
b0 ;#
b0 4#
b0 ^
b0 :#
1y"
1O
b110100000000101111111111111111 9"
b110100000000101111111111111111 0
b10 <"
b10 4
b10 V"
b1111111111111111 ;"
b1111111111111111 S"
0E"
b1111111111111111 3
b1111111111111111 Q"
b100101 7"
b100101 @"
b100101 -
b100101 ?"
b1 8"
b1 .
b1 A"
b100001010000000000 m
b100001010000000000 =
b100001010000000000 q
b100 n
b100 ?
b100 x
b1000 i
b1000 Q
b1000 k
b1000 #
b1000 Y
b1000 H#
1!
#240000
0!
#250000
b0 /"
b0 V
b0 z
bx ."
bx S
bx y
b1111111111110001 %"
b1111111111110001 A
b1111111111110001 4"
b11111111111111110000000000000000 ""
b11111111111111110000000000000000 @
b11111111111111110000000000000000 3"
b1 |
b1 <
b1 1"
b100101 {
b100101 ;
b100101 0"
b110100000000110000000000010001 I#
b110100000000110000000000010001 "
b110100000000110000000000010001 Z
b110100000000110000000000010001 j
b10 ("
b10 B
b10 5"
b1111111111110001 }
b10 !"
b10 R
b10 *"
0&"
0W
1#"
1T
b110100010000101111111111110001 ~
b110100010000101111111111110001 >
b110100010000101111111111110001 2"
b11111111111111110000000000000000 b"
b0 _"
b11111111111111110000000000000000 f"
b11111111111111110000000000000000 6
b11111111111111110000000000000000 p
b11111111111111110000000000000000 o"
b1111111111111111 ,#
b1111111111111111 L
b1111111111111111 s
b1111111111111111 2#
b10 +#
b10 J
b10 r
b10 1#
b11111111111111110000 L"
b10000 M"
b1101 t
b11111 u
b110001 v
b10000 P"
b1100 i
b1100 Q
b1100 k
b1100 #
b1100 Y
b1100 H#
b110100010000101111111111110001 m
b110100010000101111111111110001 =
b110100010000101111111111110001 q
b1000 n
b1000 ?
b1000 x
b100001010000000000 9"
b100001010000000000 0
b10000 :"
b10000000000001111 >"
b10000 2
b10000 O"
b0 7"
b0 @"
b0 -
b0 ?"
b10 8"
b10 .
b10 A"
b10 v"
b10 I
b10 "#
b1111111111111111 w"
b1111111111111111 K
b1111111111111111 ##
19#
1f
1!
#260000
0!
#270000
b10001 %"
b10001 A
b10001 4"
b0 ""
b0 @
b0 3"
b0 ."
b0 S
b0 y
b11111111111111110000000000000000 ,#
b11111111111111110000000000000000 L
b11111111111111110000000000000000 s
b11111111111111110000000000000000 2#
b0 b"
b11111111111111111111111111110001 _"
b11111111111111111111111111110001 f"
b11111111111111111111111111110001 6
b11111111111111111111111111110001 p
b11111111111111111111111111110001 o"
b10001 }
b11 ("
b11 B
b11 5"
b0 !"
b0 R
b0 *"
b110100000000110000000000010001 ~
b110100000000110000000000010001 >
b110100000000110000000000010001 2"
b10000110000000000011010 I#
b10000110000000000011010 "
b10000110000000000011010 Z
b10000110000000000011010 j
b1111111111110001 R"
b1111111111110001 N"
b111111111111000000000000000011110000000000000000 L"
b11111111111111110000000000000000 M"
b11111111111111110000000000000000 P"
0F"
b0 u
b10001 v
b11 w
b10 6#
b10 b
b10 ,"
b1111111111111111 7#
b1111111111111111 c
b1111111111111111 -"
b11111111111111110000000000000000 w"
b11111111111111110000000000000000 K
b11111111111111110000000000000000 ##
b110100010000101111111111110001 9"
b110100010000101111111111110001 0
b1111111111110001 ;"
b1111111111110001 S"
b1111111111110001 3
b1111111111110001 Q"
b11111111111111110000000000000000 :"
b11111111111111111111111111110001 >"
b11111111111111110000000000000000 2
b11111111111111110000000000000000 O"
b100101 7"
b100101 @"
b100101 -
b100101 ?"
b1 8"
b1 .
b1 A"
b110100000000110000000000010001 m
b110100000000110000000000010001 =
b110100000000110000000000010001 q
b1100 n
b1100 ?
b1100 x
b10000 i
b10000 Q
b10000 k
b10000 #
b10000 Y
b10000 H#
1!
#280000
0!
#290000
bx /"
bx V
bx z
b11111111111111110000000000000000 ."
b11111111111111110000000000000000 S
b11111111111111110000000000000000 y
b10001 f"
b10001 6
b10001 p
b10001 o"
b10001 %"
b10001 A
b10001 4"
b11111111111111111111111111110001 ""
b11111111111111111111111111110001 @
b11111111111111111111111111110001 3"
0)"
0C
b100 |
b100 <
b100 1"
b11010 {
b11010 ;
b11010 0"
1&"
1W
b11 $"
b11 U
b11 +"
b0 ("
b0 B
b0 5"
b10000110000000000011011 I#
b10000110000000000011011 "
b10000110000000000011011 Z
b10000110000000000011011 j
b0 }
b10 !"
b10 R
b10 *"
b10000110000000000011010 ~
b10000110000000000011010 >
b10000110000000000011010 2"
b11 e"
b11 5
b11 o
b11 n"
b10001 _"
b11111111111111111111111111110001 ,#
b11111111111111111111111111110001 L
b11111111111111111111111111110001 s
b11111111111111111111111111110001 2#
b10001 R"
b10001 N"
b0 L"
b0 M"
b0 t
b11010 v
b0 P"
1F"
b10100 i
b10100 Q
b10100 k
b10100 #
b10100 Y
b10100 H#
b10000110000000000011010 m
b10000110000000000011010 =
b10000110000000000011010 q
b10000 n
b10000 ?
b10000 x
b110100000000110000000000010001 9"
b110100000000110000000000010001 0
b11 <"
b11 4
b11 V"
b10001 ;"
b10001 S"
b10001 3
b10001 Q"
b0 :"
b10001 >"
b0 2
b0 O"
b11111111111111111111111111110001 w"
b11111111111111111111111111110001 K
b11111111111111111111111111110001 ##
b11111111111111110000000000000000 7#
b11111111111111110000000000000000 c
b11111111111111110000000000000000 -"
1!
#300000
0!
#310000
b1111 >#
b1111 [
b1111 g
b1111 l
b1111 6"
b1111 p"
b1111 3#
b11011 {
b11011 ;
b11011 0"
b10001 ,#
b10001 L
b10001 s
b10001 2#
b11 +#
b11 J
b11 r
b11 1#
1g"
17
1c"
1+
b10001 Y"
b10001 (
b10001 @#
b11111111111111111111111111110001 X"
b11111111111111111111111111110001 '
b11111111111111111111111111110001 ?#
1Z"
1,
b0 _"
b0 f"
b0 6
b0 p
b0 o"
0h"
09
b0 e"
b0 5
b0 o
b0 n"
b11111111111111111111111111110001 ."
b11111111111111111111111111110001 S
b11111111111111111111111111110001 y
b0 }
0)"
0C
b0 ("
b0 B
b0 5"
1&"
1W
b10000110000000000011011 ~
b10000110000000000011011 >
b10000110000000000011011 2"
b11000100000000000011010 I#
b11000100000000000011010 "
b11000100000000000011010 Z
b11000100000000000011010 j
b1000011111111111111111111111100000001 L"
b11111111111111111111111111110001 M"
b11111111111111111111111111110001 P"
0F"
1d"
1\
b11011 v
b11111111111111111111111111110001 7#
b11111111111111111111111111110001 c
b11111111111111111111111111110001 -"
b11 v"
b11 I
b11 "#
b10001 w"
b10001 K
b10001 ##
b10000110000000000011010 9"
b10000110000000000011010 0
0="
08
b0 <"
b0 4
b0 V"
b11111111111111111111111111110001 :"
b10 >"
b11111111111111111111111111110001 2
b11111111111111111111111111110001 O"
b11010 7"
b11010 @"
b11010 -
b11010 ?"
b100 8"
b100 .
b100 A"
b10000110000000000011011 m
b10000110000000000011011 =
b10000110000000000011011 q
b10100 n
b10100 ?
b10100 x
b11000 i
b11000 Q
b11000 k
b11000 #
b11000 Y
b11000 H#
1!
#320000
0!
#330000
b0 }
0)"
0C
b0 ("
b0 B
b0 5"
1&"
1W
b0 ,#
b0 L
b0 s
b0 2#
0.#
0P
b0 +#
b0 J
b0 r
b0 1#
b10001 /"
b10001 V
b10001 z
b0 q"
b0 t"
b0 u"
0y"
0O
b0 v"
b0 I
b0 "#
b0 w"
b0 K
b0 ##
b11 6#
b11 b
b11 ,"
b10001 7#
b10001 c
b10001 -"
b1 G#
b10001 C#
b111111111111111111111111111101111 A#
b11110 E#
b0 B#
1!
#340000
0!
#350000
b1 B#
b111100 E#
09#
0f
b0 6#
b0 b
b0 ,"
b0 7#
b0 c
b0 -"
1!
#360000
0!
#370000
b10 B#
b1111000 E#
1!
#380000
0!
#390000
b11 B#
b11110000 E#
1!
#400000
0!
#410000
b100 B#
b111100000 E#
1!
#420000
0!
#430000
b101 B#
b1111000000 E#
1!
#440000
0!
#450000
b110 B#
b11110000000 E#
1!
#460000
0!
#470000
b111 B#
b111100000000 E#
1!
#480000
0!
#490000
b1000 B#
b1111000000000 E#
1!
#500000
0!
#510000
b1001 B#
b11110000000000 E#
1!
#520000
0!
#530000
b1010 B#
b111100000000000 E#
1!
#540000
0!
#550000
b1011 B#
b1111000000000000 E#
1!
#560000
0!
#570000
b1100 B#
b11110000000000000 E#
1!
#580000
0!
#590000
b1101 B#
b111100000000000000 E#
1!
#600000
0!
#610000
b1110 B#
b1111000000000000000 E#
1!
#620000
0!
#630000
b1111 B#
b11110000000000000000 E#
1!
#640000
0!
#650000
b10000 B#
b111100000000000000000 E#
1!
#660000
0!
#670000
b10001 B#
b1111000000000000000000 E#
1!
#680000
0!
#690000
b10010 B#
b11110000000000000000000 E#
1!
#700000
0!
#710000
b10011 B#
b111100000000000000000000 E#
1!
#720000
0!
#730000
b10100 B#
b1111000000000000000000000 E#
1!
#740000
0!
#750000
b10101 B#
b11110000000000000000000000 E#
1!
#760000
0!
#770000
b10110 B#
b111100000000000000000000000 E#
1!
#780000
0!
#790000
b10111 B#
b1111000000000000000000000000 E#
1!
#800000
0!
#810000
b11000 B#
b11110000000000000000000000000 E#
1!
#820000
0!
#830000
b11001 B#
b111100000000000000000000000000 E#
1!
#840000
0!
#850000
b11010 B#
b1111000000000000000000000000000 E#
1!
#860000
0!
#870000
b11011 B#
b11110000000000000000000000000000 E#
1!
#880000
0!
#890000
b111111111111111111111111111110000 A#
b11100 B#
b111100000000000000000000000000000 E#
1!
#900000
0!
#910000
b111111111111111111111111111110010 A#
b11101 B#
b1111000000000000000000000000000000 E#
1!
#920000
0!
#930000
b111111111111111111111111111110110 A#
b11110 B#
b11110000000000000000000000000000000 E#
1!
#940000
0!
#950000
b111111111111111111111111111111110 A#
b11111 B#
b111100000000000000000000000000000000 E#
1!
#960000
0!
#970000
b1101 A#
b100000 B#
b1111000000000000000000000000000000000 E#
1!
#980000
0!
#990000
b11 G#
b11111111111111111111111111010001 A#
b11111111111111111111111111110001000000000000000000000000000000000 E#
1!
#1000000
0!
#1010000
b0 >#
b0 [
b0 g
b0 l
b0 6"
b0 p"
b0 3#
b11111111111111111111111111110001 \"
b11111111111111111111111111110001 /
b11111111111111111111111111110001 j"
0Z"
0,
0d"
0\
b1111111111111111111111111111000100000000000000000000000000000000 F#
b1111111111111111111111111111000100000000000000000000000000000000 *
b1111111111111111111111111111000100000000000000000000000000000000 B"
1D#
1)
1!
#1020000
0!
#1030000
b11111111111111111111111111110001 %"
b11111111111111111111111111110001 A
b11111111111111111111111111110001 4"
b10001 ""
b10001 @
b10001 3"
b11111111111111111111111111110001 /"
b11111111111111111111111111110001 V
b11111111111111111111111111110001 z
b10001 ."
b10001 S
b10001 y
b11111111111111111111111111110001 ["
b1111 >#
b1111 [
b1111 g
b1111 l
b1111 6"
b1111 p"
b1111 3#
b11010 {
b11010 ;
b11010 0"
b11111111111111111111111111110001 $#
b11111111111111111111111111110001 F
b11111111111111111111111111110001 J"
b11111111111111111111111111110001 /#
1-#
1N
0c"
0+
1Z"
1,
b10 $"
b10 U
b10 +"
b0 }
0)"
0C
b0 ("
b0 B
b0 5"
b11 !"
b11 R
b11 *"
1&"
1W
b11000100000000000011010 ~
b11000100000000000011010 >
b11000100000000000011010 2"
bx I#
bx "
bx Z
bx j
1d"
1\
b11010 v
b10 w
b0 G#
0D#
0)
bz q"
bz t"
bz u"
b11111111111111111111111111110001 r"
b11111111111111111111111111110001 E
b11111111111111111111111111110001 {"
1x"
1M
b10000110000000000011011 9"
b10000110000000000011011 0
b11011 7"
b11011 @"
b11011 -
b11011 ?"
b11000100000000000011010 m
b11000100000000000011010 =
b11000100000000000011010 q
b11000 n
b11000 ?
b11000 x
b11100 i
b11100 Q
b11100 k
b11100 #
b11100 Y
b11100 H#
1!
#1040000
0!
#1050000
b0 ["
0-#
0N
b0 \"
b0 /
b0 j"
1Z"
1,
b111111111111111111111111111110000 A#
b0 q"
b0 t"
b0 u"
0x"
0M
b11111111111111111111111111110001 4#
b11111111111111111111111111110001 ^
b11111111111111111111111111110001 :#
18#
1d
b1 G#
b111111111111111111111111111100010 E#
b0 B#
b0 F#
b0 *
b0 B"
1!
#1060000
0!
#1070000
b111111111111111111111111111110010 A#
b11111111111111111111111111110001 ["
b1 B#
b1111111111111111111111111111000100 E#
b11111111111111111111111111110001 <#
b11111111111111111111111111110001 :
b11111111111111111111111111110001 C"
08#
0d
1!
#1080000
0!
#1090000
b111111111111111111111111111110110 A#
b10 B#
b11111111111111111111111111110001000 E#
1!
#1100000
0!
#1110000
b111111111111111111111111111111110 A#
b11 B#
b111111111111111111111111111100010000 E#
1!
#1120000
0!
#1130000
b1110 A#
b100 B#
b1111111111111111111111111111000100000 E#
1!
#1140000
0!
#1150000
b1100 A#
b101 B#
b1110111111111111111111111110001000001 E#
1!
#1160000
0!
#1170000
b1000 A#
b110 B#
b1100111111111111111111111100010000011 E#
1!
