YaoPad.srcs/sources_1/cpu/openmips_min_sopc_tb.vcd
$date
	Wed Nov 22 14:26:02 2017
$end
$version
	Icarus Verilog
$end
$timescale
	1ps
$end
$scope module openmips_min_sopc_tb $end
$scope module openmips_min_sopc0 $end
$var wire 1 ! clk $end
$var wire 1 " rst $end
$var wire 1 # rom_ce $end
$var wire 32 $ inst_addr [31:0] $end
$var wire 32 % inst [31:0] $end
$scope module cpu0 $end
$var wire 1 ! clk $end
$var wire 1 & div_annul $end
$var wire 32 ' rom_addr_o [31:0] $end
$var wire 1 " rst $end
$var wire 1 ( stalleq_from_id $end
$var wire 32 ) wb_hi_o [31:0] $end
$var wire 32 * wb_lo_o [31:0] $end
$var wire 1 + wb_whilo_o $end
$var wire 1 , wb_wreg_i $end
$var wire 1 - wb_whilo_i $end
$var wire 32 . wb_wdata_i [31:0] $end
$var wire 5 / wb_wd_i [4:0] $end
$var wire 32 0 wb_lo_i [31:0] $end
$var wire 32 1 wb_hi_i [31:0] $end
$var wire 1 2 stalleq_from_ex $end
$var wire 6 3 stall [5:0] $end
$var wire 32 4 rom_data_i [31:0] $end
$var wire 1 # rom_ce_o $end
$var wire 1 5 reqstalleq_from_id $end
$var wire 1 6 reg2_read $end
$var wire 32 7 reg2_data [31:0] $end
$var wire 5 8 reg2_addr [4:0] $end
$var wire 1 9 reg1_read $end
$var wire 32 : reg1_data [31:0] $end
$var wire 5 ; reg1_addr [4:0] $end
$var wire 32 < pc [31:0] $end
$var wire 1 = mem_wreg_o $end
$var wire 1 > mem_wreg_i $end
$var wire 1 ? mem_whilo_o $end
$var wire 1 @ mem_whilo_i $end
$var wire 32 A mem_wdata_o [31:0] $end
$var wire 32 B mem_wdata_i [31:0] $end
$var wire 5 C mem_wd_o [4:0] $end
$var wire 5 D mem_wd_i [4:0] $end
$var wire 32 E mem_lo_o [31:0] $end
$var wire 32 F mem_lo_i [31:0] $end
$var wire 32 G mem_hi_o [31:0] $end
$var wire 32 H mem_hi_i [31:0] $end
$var wire 32 I lo_o [31:0] $end
$var wire 1 J id_wreg_o $end
$var wire 5 K id_wd_o [4:0] $end
$var wire 32 L id_reg2_o [31:0] $end
$var wire 32 M id_reg1_o [31:0] $end
$var wire 32 N id_pc_i [31:0] $end
$var wire 1 O id_next_inst_in_delayslot_o $end
$var wire 32 P id_link_addr_o [31:0] $end
$var wire 1 Q id_is_in_delayslot_o $end
$var wire 1 R id_is_in_delayslot_i $end
$var wire 32 S id_inst_i [31:0] $end
$var wire 32 T id_branch_target_address_o [31:0] $end
$var wire 1 U id_branch_flag_o $end
$var wire 3 V id_alusel_o [2:0] $end
$var wire 8 W id_aluop_o [7:0] $end
$var wire 32 X hi_o [31:0] $end
$var wire 1 Y ex_wreg_o $end
$var wire 1 Z ex_wreg_i $end
$var wire 1 [ ex_whilo_o $end
$var wire 32 \ ex_wdata_o [31:0] $end
$var wire 5 ] ex_wd_o [4:0] $end
$var wire 5 ^ ex_wd_i [4:0] $end
$var wire 32 _ ex_reg2_i [31:0] $end
$var wire 32 ` ex_reg1_i [31:0] $end
$var wire 32 a ex_lo_o [31:0] $end
$var wire 32 b ex_link_addr_i [31:0] $end
$var wire 1 c ex_is_in_delayslot_i $end
$var wire 32 d ex_hi_o [31:0] $end
$var wire 3 e ex_alusel_i [2:0] $end
$var wire 8 f ex_aluop_i [7:0] $end
$var wire 1 g div_start $end
$var wire 1 h div_signed $end
$var wire 64 i div_result [63:0] $end
$var wire 1 j div_ready $end
$var wire 32 k div_opdata2 [31:0] $end
$var wire 32 l div_opdata1 [31:0] $end
$scope module ctrl0 $end
$var wire 1 " rst $end
$var wire 1 ( stalleq_from_id $end
$var wire 1 2 stalleq_from_ex $end
$var reg 6 m stall [5:0] $end
$upscope $end
$scope module div0 $end
$var wire 1 & annul_i $end
$var wire 1 ! clk $end
$var wire 1 " rst $end
$var wire 33 n tempres [32:0] $end
$var wire 1 g start_i $end
$var wire 1 h signed_div_i $end
$var wire 32 o opdata2_i [31:0] $end
$var wire 32 p opdata1_i [31:0] $end
$var reg 6 q cnt [5:0] $end
$var reg 32 r divider [31:0] $end
$var reg 1 j ready_o $end
$var reg 65 s result [64:0] $end
$var reg 64 t result_o [63:0] $end
$var reg 2 u state [1:0] $end
$upscope $end
$scope module ex0 $end
$var wire 1 j div_ready_i $end
$var wire 64 v div_result_i [63:0] $end
$var wire 1 w is_overflow $end
$var wire 1 " rst $end
$var wire 32 x wb_hi_i [31:0] $end
$var wire 32 y wb_lo_i [31:0] $end
$var wire 1 + wb_whilo_i $end
$var wire 1 Z wreg_i $end
$var wire 5 z wd_i [4:0] $end
$var wire 32 { reg2_i_mux [31:0] $end
$var wire 32 | reg2_i [31:0] $end
$var wire 32 } reg1_i_not [31:0] $end
$var wire 32 ~ reg1_i [31:0] $end
$var wire 32 !" mul_op2 [31:0] $end
$var wire 32 "" mul_op1 [31:0] $end
$var wire 64 #" mul_ans [63:0] $end
$var wire 1 ? mem_whilo_i $end
$var wire 32 $" mem_lo_i [31:0] $end
$var wire 32 %" mem_hi_i [31:0] $end
$var wire 32 &" lo_i [31:0] $end
$var wire 32 '" link_addr_i [31:0] $end
$var wire 1 (" is_less $end
$var wire 1 c is_in_delayslot_i $end
$var wire 1 )" is_equal $end
$var wire 32 *" hi_i [31:0] $end
$var wire 3 +" alusel_i [2:0] $end
$var wire 8 ," aluop_i [7:0] $end
$var wire 32 -" add_sum [31:0] $end
$var reg 32 ." arithres [31:0] $end
$var reg 32 /" div_opdata1_o [31:0] $end
$var reg 32 0" div_opdata2_o [31:0] $end
$var reg 1 g div_start_o $end
$var reg 32 1" hi [31:0] $end
$var reg 32 2" hi_o [31:0] $end
$var reg 32 3" lo [31:0] $end
$var reg 32 4" lo_o [31:0] $end
$var reg 32 5" logicres [31:0] $end
$var reg 32 6" moveres [31:0] $end
$var reg 64 7" mulres [63:0] $end
$var reg 32 8" shiftres [31:0] $end
$var reg 1 h signed_div_o $end
$var reg 1 2 stallreq $end
$var reg 5 9" wd_o [4:0] $end
$var reg 32 :" wdata_o [31:0] $end
$var reg 1 [ whilo_o $end
$var reg 1 Y wreg_o $end
$upscope $end
$scope module ex_mem0 $end
$var wire 1 ! clk $end
$var wire 32 ;" ex_hi [31:0] $end
$var wire 32 <" ex_lo [31:0] $end
$var wire 5 =" ex_wd [4:0] $end
$var wire 32 >" ex_wdata [31:0] $end
$var wire 1 [ ex_whilo $end
$var wire 1 Y ex_wreg $end
$var wire 1 " rst $end
$var wire 6 ?" stall [5:0] $end
$var reg 32 @" mem_hi [31:0] $end
$var reg 32 A" mem_lo [31:0] $end
$var reg 5 B" mem_wd [4:0] $end
$var reg 32 C" mem_wdata [31:0] $end
$var reg 1 @ mem_whilo $end
$var reg 1 > mem_wreg $end
$upscope $end
$scope module hilo0 $end
$var wire 1 ! clk $end
$var wire 1 " rst $end
$var wire 1 - we $end
$var wire 32 D" lo_i [31:0] $end
$var wire 32 E" hi_i [31:0] $end
$var reg 32 F" hi_o [31:0] $end
$var reg 32 G" lo_o [31:0] $end
$upscope $end
$scope module id0 $end
$var wire 5 H" ex_wd_i [4:0] $end
$var wire 32 I" ex_wdata_i [31:0] $end
$var wire 1 Y ex_wreg_i $end
$var wire 1 " rst $end
$var wire 32 J" reg2_data_i [31:0] $end
$var wire 32 K" reg1_data_i [31:0] $end
$var wire 32 L" pc_i [31:0] $end
$var wire 5 M" op4 [4:0] $end
$var wire 6 N" op3 [5:0] $end
$var wire 5 O" op2 [4:0] $end
$var wire 6 P" op1 [5:0] $end
$var wire 32 Q" next_pc_i [31:0] $end
$var wire 1 = mem_wreg_i $end
$var wire 32 R" mem_wdata_i [31:0] $end
$var wire 5 S" mem_wd_i [4:0] $end
$var wire 1 R is_in_delayslot_i $end
$var wire 32 T" inst_i [31:0] $end
$var reg 8 U" aluop_o [7:0] $end
$var reg 3 V" alusel_o [2:0] $end
$var reg 1 U branch_flag_o $end
$var reg 32 W" branch_target_address_o [31:0] $end
$var reg 32 X" immi [31:0] $end
$var reg 1 Q is_in_delayslot_o $end
$var reg 32 Y" link_addr_o [31:0] $end
$var reg 1 O next_inst_in_delayslot_o $end
$var reg 5 Z" reg1_addr_o [4:0] $end
$var reg 32 [" reg1_o [31:0] $end
$var reg 1 9 reg1_read_o $end
$var reg 5 \" reg2_addr_o [4:0] $end
$var reg 32 ]" reg2_o [31:0] $end
$var reg 1 6 reg2_read_o $end
$var reg 1 5 stallreq $end
$var reg 5 ^" wd_o [4:0] $end
$var reg 1 J wreg_o $end
$upscope $end
$scope module id_ex0 $end
$var wire 1 ! clk $end
$var wire 8 _" id_aluop [7:0] $end
$var wire 3 `" id_alusel [2:0] $end
$var wire 1 Q id_is_in_delayslot $end
$var wire 32 a" id_link_addr [31:0] $end
$var wire 32 b" id_reg1 [31:0] $end
$var wire 32 c" id_reg2 [31:0] $end
$var wire 5 d" id_wd [4:0] $end
$var wire 1 J id_wreg $end
$var wire 1 O next_inst_in_delayslot_i $end
$var wire 1 " rst $end
$var wire 6 e" stall [5:0] $end
$var reg 8 f" ex_aluop [7:0] $end
$var reg 3 g" ex_alusel [2:0] $end
$var reg 1 c ex_is_in_delayslot $end
$var reg 32 h" ex_link_addr [31:0] $end
$var reg 32 i" ex_reg1 [31:0] $end
$var reg 32 j" ex_reg2 [31:0] $end
$var reg 5 k" ex_wd [4:0] $end
$var reg 1 Z ex_wreg $end
$var reg 1 R is_in_delayslot_o $end
$upscope $end
$scope module if_id0 $end
$var wire 1 ! clk $end
$var wire 1 " rst $end
$var wire 6 l" stall [5:0] $end
$var wire 32 m" if_pc [31:0] $end
$var wire 32 n" if_inst [31:0] $end
$var reg 32 o" id_inst [31:0] $end
$var reg 32 p" id_pc [31:0] $end
$upscope $end
$scope module mem0 $end
$var wire 32 q" hi_i [31:0] $end
$var wire 32 r" lo_i [31:0] $end
$var wire 1 " rst $end
$var wire 5 s" wd_i [4:0] $end
$var wire 32 t" wdata_i [31:0] $end
$var wire 1 @ whilo_i $end
$var wire 1 > wreg_i $end
$var reg 32 u" hi_o [31:0] $end
$var reg 32 v" lo_o [31:0] $end
$var reg 5 w" wd_o [4:0] $end
$var reg 32 x" wdata_o [31:0] $end
$var reg 1 ? whilo_o $end
$var reg 1 = wreg_o $end
$upscope $end
$scope module mem_wb0 $end
$var wire 1 ! clk $end
$var wire 32 y" mem_hi [31:0] $end
$var wire 32 z" mem_lo [31:0] $end
$var wire 5 {" mem_wd [4:0] $end
$var wire 32 |" mem_wdata [31:0] $end
$var wire 1 ? mem_whilo $end
$var wire 1 = mem_wreg $end
$var wire 1 " rst $end
$var wire 6 }" stall [5:0] $end
$var reg 32 ~" wb_hi [31:0] $end
$var reg 32 !# wb_lo [31:0] $end
$var reg 5 "# wb_wd [4:0] $end
$var reg 32 ## wb_wdata [31:0] $end
$var reg 1 - wb_whilo $end
$var reg 1 , wb_wreg $end
$upscope $end
$scope module pc_rom0 $end
$var wire 1 U branch_flag_i $end
$var wire 32 $# branch_target_address_i [31:0] $end
$var wire 1 ! clk $end
$var wire 1 " rst $end
$var wire 6 %# stall [5:0] $end
$var reg 1 # ce $end
$var reg 32 &# pc [31:0] $end
$upscope $end
$scope module regfile0 $end
$var wire 1 ! clk $end
$var wire 5 '# raddr1 [4:0] $end
$var wire 5 (# raddr2 [4:0] $end
$var wire 1 9 re1 $end
$var wire 1 6 re2 $end
$var wire 1 " rst $end
$var wire 5 )# waddr [4:0] $end
$var wire 32 *# wdata [31:0] $end
$var wire 1 , we $end
$var reg 32 +# rdata1 [31:0] $end
$var reg 32 ,# rdata2 [31:0] $end
$upscope $end
$upscope $end
$scope module inst_rom0 $end
$var wire 32 -# addr [31:0] $end
$var wire 1 # ce $end
$var reg 32 .# inst [31:0] $end
$upscope $end
$upscope $end
$upscope $end
$enddefinitions $end
#0
$dumpvars
bx .#
bx -#
b0 ,#
b0 +#
bx *#
bx )#
b0 (#
b0 '#
bx &#
b0 %#
b0 $#
bx ##
bx "#
bx !#
bx ~"
b0 }"
b0 |"
b0 {"
bx z"
bx y"
b0 x"
b0 w"
bx v"
bx u"
bx t"
bx s"
bx r"
bx q"
bx p"
bx o"
bx n"
bx m"
b0 l"
bx k"
bx j"
bx i"
bx h"
bx g"
bx f"
b0 e"
b0 d"
b0 c"
b0 b"
b0 a"
b0 `"
b0 _"
b0 ^"
b0 ]"
b0 \"
b0 ["
b0 Z"
b0 Y"
b0 X"
b0 W"
b0 V"
b0 U"
bx T"
b0 S"
b0 R"
bx Q"
bx P"
bx O"
bx N"
bx M"
bx L"
b0 K"
b0 J"
b0 I"
b0 H"
bx G"
bx F"
bx E"
bx D"
bx C"
bx B"
bx A"
bx @"
b0 ?"
b0 >"
b0 ="
b0 <"
b0 ;"
b0 :"
b0 9"
b0 8"
b0 7"
b0 6"
b0 5"
b0 4"
b0 3"
b0 2"
b0 1"
bx 0"
bx /"
b0 ."
bx -"
bx ,"
bx +"
bx *"
x)"
x("
bx '"
bx &"
bx %"
bx $"
bx #"
bx ""
bx !"
bx ~
bx }
bx |
bx {
bx z
bz y
bz x
xw
bx v
bx u
bx t
bx s
bx r
bx q
bx p
bx o
bx n
b0 m
bx l
bx k
xj
bx i
xh
xg
bx f
bx e
b0 d
xc
bx b
b0 a
bx `
bx _
bx ^
b0 ]
b0 \
x[
xZ
0Y
bx X
b0 W
b0 V
0U
b0 T
bx S
xR
0Q
b0 P
0O
bx N
b0 M
b0 L
b0 K
xJ
bx I
bx H
bx G
bx F
bx E
bx D
b0 C
bx B
b0 A
x@
0?
x>
0=
bx <
b0 ;
b0 :
x9
b0 8
b0 7
x6
05
bx 4
b0 3
02
bx 1
bx 0
bx /
bx .
x-
x,
z+
bz *
bz )
z(
bx '
0&
bx %
bx $
x#
1"
0!
$end
#10000
b110100000000111000000000000000 %
b110100000000111000000000000000 4
b110100000000111000000000000000 n"
b110100000000111000000000000000 .#
0w
b0 M"
b0 N"
b0 O"
b0 P"
b0 #"
b0 !"
b0 -"
b0 {
b0 ""
0("
b0 }
b0 n
b0 $
b0 '
b0 -#
b0 <
b0 m"
b0 &#
b0 S
b0 T"
b0 o"
b100 Q"
b0 N
b0 L"
b0 p"
0R
b0 b
b0 '"
b0 h"
0c
0Z
b0 ^
b0 z
b0 k"
1)"
b0 _
b0 |
b0 j"
b0 `
b0 ~
b0 i"
b0 f
b0 ,"
b0 f"
b0 e
b0 +"
b0 g"
0@
0>
b0 D
b0 B"
b0 s"
b0 B
b0 C"
b0 t"
0-
0,
b0 /
b0 "#
b0 )#
b0 .
b0 ##
b0 *#
b0 I
b0 &"
b0 G"
b0 X
b0 *"
b0 F"
b0 s
b0 r
b0 i
b0 t
b0 v
0j
b0 u
1!
#20000
0!
#30000
1!
#40000
0!
#50000
1!
#60000
0!
#70000
1!
#80000
0!
#90000
1!
#100000
0!
#110000
1!
#120000
0!
#130000
1!
#140000
0!
#150000
1!
#160000
0!
#170000
1!
#180000
0!
#190000
1!
#195000
0[
0g
b10 V
b10 V"
b10 `"
b1000 P
b1000 Y"
b1000 a"
1J
16
09
0"
#200000
0!
#210000
b1000000000000000 L
b1000000000000000 ]"
b1000000000000000 c"
b1 V
b1 V"
b1 `"
b100101 W
b100101 U"
b100101 _"
b110001110000000000 %
b110001110000000000 4
b110001110000000000 n"
b110001110000000000 .#
b11 8
b11 \"
b11 (#
b1000000000000000 X"
b11 K
b11 ^"
b11 d"
06
19
1Y
b0 E
b0 $"
b0 v"
b0 z"
b0 G
b0 %"
b0 u"
b0 y"
b11 M"
b1101 P"
b100 $
b100 '
b100 -#
b100 <
b100 m"
b100 &#
b110100000000111000000000000000 S
b110100000000111000000000000000 T"
b110100000000111000000000000000 o"
b1000 b
b1000 '"
b1000 h"
1Z
b10 e
b10 +"
b10 g"
b0 F
b0 A"
b0 r"
b0 H
b0 @"
b0 q"
1!
#220000
0!
#230000
bx 7
bx J"
bx ,#
b1000000000000000 \
b1000000000000000 :"
b1000000000000000 >"
b1000000000000000 I"
b1000000000000000 L
b1000000000000000 ]"
b1000000000000000 c"
b10000 M
b10000 ["
b10000 b"
09
b10 V
b10 V"
b10 `"
b0 W
b0 U"
b0 _"
16
1=
b1000000000000000 5"
b11 ]
b11 9"
b11 ="
b11 H"
b1100 P
b1100 Y"
b1100 a"
b10000 X"
b110100000000010000000000000001 %
b110100000000010000000000000001 4
b110100000000010000000000000001 n"
b110100000000010000000000000001 .#
b1000000000000000 !"
1("
b1000000000000000 -"
b1000000000000000 {
b10000 O"
b0 P"
b0 0
b0 D"
b0 !#
b0 1
b0 E"
b0 ~"
1>
b11 ^
b11 z
b11 k"
0)"
b1000000000000000 _
b1000000000000000 |
b1000000000000000 j"
b100101 f
b100101 ,"
b100101 f"
b1 e
b1 +"
b1 g"
b110001110000000000 S
b110001110000000000 T"
b110001110000000000 o"
b1000 Q"
b100 N
b100 L"
b100 p"
b1000 $
b1000 '
b1000 -#
b1000 <
b1000 m"
b1000 &#
1!
#240000
0!
#250000
b0 7
b0 J"
b0 ,#
b1 L
b1 ]"
b1 c"
b0 M
b0 ["
b0 b"
b1 V
b1 V"
b1 `"
b100101 W
b100101 U"
b100101 _"
b10000000000000000000000000100 %
b10000000000000000000000000100 4
b10000000000000000000000000100 n"
b10000000000000000000000000100 .#
b1 8
b1 \"
b1 (#
b10000 P
b10000 Y"
b10000 a"
b1 X"
b1 K
b1 ^"
b1 d"
06
19
b10000000000000000000000000000000 8"
b0 5"
b10000000000000000000000000000000 \
b10000000000000000000000000000000 :"
b10000000000000000000000000000000 >"
b10000000000000000000000000000000 I"
b1000000000000000 A
b1000000000000000 R"
b1000000000000000 x"
b1000000000000000 |"
b11 C
b11 S"
b11 w"
b11 {"
b1 M"
b1 N"
b0 O"
b1101 P"
b10000000000000000000 #"
b10000 ""
b10000 }
b1100 $
b1100 '
b1100 -#
b1100 <
b1100 m"
b1100 &#
b110100000000010000000000000001 S
b110100000000010000000000000001 T"
b110100000000010000000000000001 o"
b1100 Q"
b1000 N
b1000 L"
b1000 p"
b1100 b
b1100 '"
b1100 h"
b1000000000010000 -"
b10000 `
b10000 ~
b10000 i"
b0 f
b0 ,"
b0 f"
b10 e
b10 +"
b10 g"
b11 D
b11 B"
b11 s"
b1000000000000000 B
b1000000000000000 C"
b1000000000000000 t"
1,
1!
#260000
0!
#270000
b0 L
b0 ]"
b0 c"
1U
1O
b100000 T
b100000 W"
b100000 $#
b0 8
b0 \"
b0 (#
16
0J
b110 V
b110 V"
b110 `"
b1001111 W
b1001111 U"
b1001111 _"
b10000000000000000000000000000000 A
b10000000000000000000000000000000 R"
b10000000000000000000000000000000 x"
b10000000000000000000000000000000 |"
b0 8"
b1 5"
b1 \
b1 :"
b1 >"
b1 I"
b1 ]
b1 9"
b1 ="
b1 H"
b10100 P
b10100 Y"
b10100 a"
b100 X"
b0 K
b0 ^"
b0 d"
b110100000000010000000000000010 %
b110100000000010000000000000010 4
b110100000000010000000000000010 n"
b110100000000010000000000000010 .#
b1 !"
b1 {
b0 #"
b0 ""
b0 }
b0 M"
b100 N"
b100 P"
b11 /
b11 "#
b11 )#
b1000000000000000 .
b1000000000000000 ##
b1000000000000000 *#
b10000000000000000000000000000000 B
b10000000000000000000000000000000 C"
b10000000000000000000000000000000 t"
b10000 b
b10000 '"
b10000 h"
b1 ^
b1 z
b1 k"
b1 _
b1 |
b1 j"
b1 -"
b0 `
b0 ~
b0 i"
b100101 f
b100101 ,"
b100101 f"
b1 e
b1 +"
b1 g"
b10000000000000000000000000100 S
b10000000000000000000000000100 T"
b10000000000000000000000000100 o"
b10000 Q"
b1100 N
b1100 L"
b1100 p"
b10000 $
b10000 '
b10000 -#
b10000 <
b10000 m"
b10000 &#
1!
#280000
0!
#290000
b10 L
b10 ]"
b10 c"
b1 V
b1 V"
b1 `"
b100101 W
b100101 U"
b100101 _"
b110100000000010000000000000011 %
b110100000000010000000000000011 4
b110100000000010000000000000011 n"
b110100000000010000000000000011 .#
b1 8
b1 \"
b1 (#
b11000 P
b11000 Y"
b11000 a"
0O
0U
b0 T
b0 W"
b0 $#
b10 X"
1J
b1 K
b1 ^"
b1 d"
06
b0 5"
b10100 \
b10100 :"
b10100 >"
b10100 I"
0Y
b0 ]
b0 9"
b0 ="
b0 H"
b1 A
b1 R"
b1 x"
b1 |"
b1 C
b1 S"
b1 w"
b1 {"
b1 M"
b10 N"
b1101 P"
b0 !"
0("
b0 -"
b0 {
b100000 $
b100000 '
b100000 -#
b100000 <
b100000 m"
b100000 &#
b110100000000010000000000000010 S
b110100000000010000000000000010 T"
b110100000000010000000000000010 o"
b10100 Q"
b10000 N
b10000 L"
b10000 p"
1R
b10100 b
b10100 '"
b10100 h"
0Z
b0 ^
b0 z
b0 k"
1)"
b0 _
b0 |
b0 j"
b1001111 f
b1001111 ,"
b1001111 f"
b110 e
b110 +"
b110 g"
b1 D
b1 B"
b1 s"
b1 B
b1 C"
b1 t"
b10000000000000000000000000000000 .
b10000000000000000000000000000000 ##
b10000000000000000000000000000000 *#
1!
#300000
0!
#310000
b11 L
b11 ]"
b11 c"
b10100 A
b10100 R"
b10100 x"
b10100 |"
0=
b0 C
b0 S"
b0 w"
b0 {"
b10 5"
b10 \
b10 :"
b10 >"
b10 I"
1Y
b1 ]
b1 9"
b1 ="
b1 H"
b101000 P
b101000 Y"
b101000 a"
b11 X"
b100000100010000000000001010 %
b100000100010000000000001010 4
b100000100010000000000001010 n"
b100000100010000000000001010 .#
b10 !"
1("
b10 -"
b10 {
b11 N"
b1 /
b1 "#
b1 )#
b1 .
b1 ##
b1 *#
0>
b0 D
b0 B"
b0 s"
b10100 B
b10100 C"
b10100 t"
0R
b11000 b
b11000 '"
b11000 h"
1Z
b1 ^
b1 z
b1 k"
0)"
b10 _
b10 |
b10 j"
b100101 f
b100101 ,"
b100101 f"
b1 e
b1 +"
b1 g"
b110100000000010000000000000011 S
b110100000000010000000000000011 T"
b110100000000010000000000000011 o"
b100100 Q"
b100000 N
b100000 L"
b100000 p"
b100100 $
b100100 '
b100100 -#
b100100 <
b100100 m"
b100100 &#
1!
#320000
0!
#330000
b11 \
b11 :"
b11 >"
b11 I"
b1010 L
b1010 ]"
b1010 c"
1U
1O
b1010000 T
b1010000 W"
b1010000 $#
1J
b110 V
b110 V"
b110 `"
b1001111 W
b1001111 U"
b1001111 _"
b11111000010000000000011010 %
b11111000010000000000011010 4
b11111000010000000000011010 n"
b11111000010000000000011010 .#
b101100 P
b101100 Y"
b101100 a"
b1010 X"
b11111 K
b11111 ^"
b11111 d"
b11 5"
b10 A
b10 R"
b10 x"
b10 |"
1=
b1 C
b1 S"
b1 w"
b1 {"
b10001 M"
b1010 N"
b1 P"
b11 !"
b11 -"
b11 {
b101000 $
b101000 '
b101000 -#
b101000 <
b101000 m"
b101000 &#
b100000100010000000000001010 S
b100000100010000000000001010 T"
b100000100010000000000001010 o"
b101000 Q"
b100100 N
b100100 L"
b100100 p"
b101000 b
b101000 '"
b101000 h"
b11 _
b11 |
b11 j"
1>
b1 D
b1 B"
b1 s"
b10 B
b10 C"
b10 t"
0,
b0 /
b0 "#
b0 )#
b10100 .
b10100 ##
b10100 *#
1!
#340000
0!
#350000
b11 L
b11 ]"
b11 c"
b101100 M
b101100 ["
b101100 b"
b10 7
b10 J"
b10 ,#
bx :
bx K"
bx +#
b100 V
b100 V"
b100 `"
b11010 W
b11010 U"
b11010 _"
16
b11 A
b11 R"
b11 x"
b11 |"
b0 5"
b101100 \
b101100 :"
b101100 >"
b101100 I"
b11111 ]
b11111 9"
b11111 ="
b11111 H"
0J
b110000 P
b110000 Y"
b110000 a"
0O
0U
b0 T
b0 W"
b0 $#
b0 X"
b0 K
b0 ^"
b0 d"
b11111 ;
b11111 Z"
b11111 '#
b110100000000010000000000000100 %
b110100000000010000000000000100 4
b110100000000010000000000000100 n"
b110100000000010000000000000100 .#
b1010 !"
b1010 -"
b1010 {
b1 M"
b11010 N"
b0 P"
1,
b1 /
b1 "#
b1 )#
b10 .
b10 ##
b10 *#
b11 B
b11 C"
b11 t"
1R
b101100 b
b101100 '"
b101100 h"
b11111 ^
b11111 z
b11111 k"
b1010 _
b1010 |
b1010 j"
b1001111 f
b1001111 ,"
b1001111 f"
b110 e
b110 +"
b110 g"
b11111000010000000000011010 S
b11111000010000000000011010 T"
b11111000010000000000011010 o"
b101100 Q"
b101000 N
b101000 L"
b101000 p"
b1010000 $
b1010000 '
b1010000 -#
b1010000 <
b1010000 m"
b1010000 &#
1!
#360000
0!
#370000
b0 :
b0 K"
b0 +#
b100 L
b100 ]"
b100 c"
b0 M
b0 ["
b0 b"
b1 V
b1 V"
b1 `"
b100101 W
b100101 U"
b100101 _"
b1111 3
b1111 m
b1111 ?"
b1111 e"
b1111 l"
b1111 }"
b1111 %#
b10000011000110000000000001010 %
b10000011000110000000000001010 4
b10000011000110000000000001010 n"
b10000011000110000000000001010 .#
b1011000 P
b1011000 Y"
b1011000 a"
b100 X"
1J
b1 K
b1 ^"
b1 d"
b0 ;
b0 Z"
b0 '#
06
1[
1h
b11 k
b11 o
b11 0"
b101100 l
b101100 p
b101100 /"
1g
b0 \
b0 :"
b0 >"
b0 I"
0Y
b0 ]
b0 9"
b0 ="
b0 H"
b101100 A
b101100 R"
b101100 x"
b101100 |"
b11111 C
b11111 S"
b11111 w"
b11111 {"
b0 7
b0 J"
b0 ,#
b100 N"
b1101 P"
b11 !"
b11 {
b10000100 #"
b101100 ""
0("
b101100 }
12
b1010100 $
b1010100 '
b1010100 -#
b1010100 <
b1010100 m"
b1010100 &#
b110100000000010000000000000100 S
b110100000000010000000000000100 T"
b110100000000010000000000000100 o"
b1010100 Q"
b1010000 N
b1010000 L"
b1010000 p"
0R
b110000 b
b110000 '"
b110000 h"
0Z
b0 ^
b0 z
b0 k"
b11 _
b11 |
b11 j"
b101111 -"
b101100 `
b101100 ~
b101100 i"
b11010 f
b11010 ,"
b11010 f"
b100 e
b100 +"
b100 g"
b11111 D
b11111 B"
b11111 s"
b101100 B
b101100 C"
b101100 t"
b11 .
b11 ##
b11 *#
1!
#380000
0!
#390000
b0 A
b0 R"
b0 x"
b0 |"
0=
b0 C
b0 S"
b0 w"
b0 {"
b1 u
b111111111111111111111111111111101 n
b11 r
b1011000 s
b0 q
b11111 /
b11111 "#
b11111 )#
b101100 .
b101100 ##
b101100 *#
0>
b0 D
b0 B"
b0 s"
b0 B
b0 C"
b0 t"
1!
#400000
0!
#410000
0,
b0 /
b0 "#
b0 )#
b0 .
b0 ##
b0 *#
b1 q
b10110000 s
1!
#420000
0!
#430000
b10 q
b101100000 s
1!
#440000
0!
#450000
b11 q
b1011000000 s
1!
#460000
0!
#470000
b100 q
b10110000000 s
1!
#480000
0!
#490000
b101 q
b101100000000 s
1!
#500000
0!
#510000
b110 q
b1011000000000 s
1!
#520000
0!
#530000
b111 q
b10110000000000 s
1!
#540000
0!
#550000
b1000 q
b101100000000000 s
1!
#560000
0!
#570000
b1001 q
b1011000000000000 s
1!
#580000
0!
#590000
b1010 q
b10110000000000000 s
1!
#600000
0!
#610000
b1011 q
b101100000000000000 s
1!
#620000
0!
#630000
b1100 q
b1011000000000000000 s
1!
#640000
0!
#650000
b1101 q
b10110000000000000000 s
1!
#660000
0!
#670000
b1110 q
b101100000000000000000 s
1!
#680000
0!
#690000
b1111 q
b1011000000000000000000 s
1!
#700000
0!
#710000
b10000 q
b10110000000000000000000 s
1!
#720000
0!
#730000
b10001 q
b101100000000000000000000 s
1!
#740000
0!
#750000
b10010 q
b1011000000000000000000000 s
1!
#760000
0!
#770000
b10011 q
b10110000000000000000000000 s
1!
#780000
0!
#790000
b10100 q
b101100000000000000000000000 s
1!
#800000
0!
#810000
b10101 q
b1011000000000000000000000000 s
1!
#820000
0!
#830000
b10110 q
b10110000000000000000000000000 s
1!
#840000
0!
#850000
b10111 q
b101100000000000000000000000000 s
1!
#860000
0!
#870000
b11000 q
b1011000000000000000000000000000 s
1!
#880000
0!
#890000
b11001 q
b10110000000000000000000000000000 s
1!
#900000
0!
#910000
b111111111111111111111111111111110 n
b11010 q
b101100000000000000000000000000000 s
1!
#920000
0!
#930000
b111111111111111111111111111111111 n
b11011 q
b1011000000000000000000000000000000 s
1!
#940000
0!
#950000
b10 n
b11100 q
b10110000000000000000000000000000000 s
1!
#960000
0!
#970000
b11101 q
b10100000000000000000000000000000001 s
1!
#980000
0!
#990000
b1 n
b11110 q
b10000000000000000000000000000000011 s
1!
#1000000
0!
#1010000
b111111111111111111111111111111111 n
b11111 q
b1000000000000000000000000000000111 s
1!
#1020000
0!
#1030000
b1 n
b100000 q
b10000000000000000000000000000001110 s
1!
#1040000
0!
#1050000
b11 u
1!
#1060000
0!
#1070000
b0 3
b0 m
b0 ?"
b0 e"
b0 l"
b0 }"
b0 %#
b1110 a
b1110 4"
b1110 <"
b10 d
b10 2"
b10 ;"
0g
02
b1000000000000000000000000000001110 i
b1000000000000000000000000000001110 t
b1000000000000000000000000000001110 v
1j
1!
#1080000
0!
